# Gene panel: Arvelig kreft RB1-v1.2.0 -- Date: 2025-03-03
#chromosome	read start	read end	name	score	strand	tags	HGNC id	HGNC symbol	inheritance	coding start	coding end	exon starts	exon ends	metadata
13	48877758	48878068	RB1 promoter	0.0	+	Custom region			AD					{}
13	48877886	49056026	NM_000321.3	0.0	+	MANE Select	9884	RB1	AD	48878048	49054207	48877886,48881415,48916734,48919215,48921960,48923091,48934152,48936950,48939029,48941629,48942662,48947540,48951053,48953729,48954188,48954300,48955382,49027128,49030339,49033823,49037866,49039133,49039340,49047495,49050836,49051490,49054133	48878185,48881542,48916850,48919335,48921999,48923159,48934263,48937093,48939107,48941739,48942740,48947628,48951170,48953786,48954220,48954377,48955579,49027247,49030485,49033969,49037971,49039247,49039504,49047526,49050979,49051540,49056026	{}
