HGNC id,HGNC symbol
AARS1,20
ABCC6,57
ABCC9,60
ABL1,76
ACADVL,92
SLC33A1,95
ACOX1,119
ACP5,124
ACTA1,129
ACTA2,130
ACTB,132
ACTC1,143
ACTG1,144
ACTG2,145
ACVR1,171
ACVR2B,174
ACVRL1,175
ACY1,177
ADAMTS3,219
ADAR,225
ADCY6,237
ADD1,243
ADSL,291
ACAN,319
AGL,321
AGPS,327
AGT,333
AGTR1,336
AHCY,343
AKT1,391
AKT2,392
AKT3,393
ALB,399
ALDH3A2,403
ALDH1A3,409
ALDOA,414
ALMS1,428
ALOX12B,430
ALPL,438
ALX3,449
ALX4,450
AMACR,451
AMMECR1,467
AMPD2,469
AMT,473
ANGPT2,485
RIPK4,496
AP1S2,560
AP4B1,572
AP4E1,573
AP4M1,574
AP4S1,575
AR,644
ARCN1,649
ARF1,652
ARL3,694
ARSA,713
ARSB,714
ARSL,719
ASAH1,735
ASNS,753
ASPA,756
ASS1,758
ATIC,794
ATP1A2,800
ATP1A3,801
ATP6V1B2,854
ATP7A,869
ALDH7A1,877
ATR,882
ATRX,886
KIF1A,888
B3GAT3,923
B4GALT7,930
NKX3-2,951
BBS1,966
BBS2,967
BBS4,969
BBS5,970
BCS1L,1020
BFSP2,1041
BGN,1044
BIN1,1052
BLM,1058
BMP1,1067
BMP2,1069
BMP4,1071
BMPR1B,1077
BRAF,1097
BRCA1,1100
BRCA2,1101
BTD,1122
BUB1B,1149
CEP55,1161
FRA10AC1,1162
MYRF,1181
C1QBP,1243
CFAP410,1260
CFAP298,1301
SAMD9,1348
CA2,1373
CA8,1382
CACNA1C,1390
CACNA1D,1391
CACNA1E,1392
CACNA1G,1394
SLC25A20,1421
ALX1,1494
CASK,1497
CASR,1514
CBL,1541
SERPINH1,1546
KRIT1,1573
CCND2,1583
CDAN1,1713
CDK13,1733
CDC45,1739
CDC6,1744
CDH1,1748
CDH3,1762
CDK10,1770
CDK8,1779
CDKN1C,1786
CDX2,1806
CELSR1,1850
CENPF,1857
CFL2,1875
CFTR,1884
CHAT,1912
CHD4,1919
CHKB,1938
CHRNA1,1955
CHRNA3,1957
CHRNB1,1961
CHRND,1965
CHRNE,1966
CHRNG,1967
LYST,1968
CHST3,1971
CHUK,1974
VSX2,1975
CIT,1985
CITED2,1987
CLCN7,2025
CLCNKB,2027
CLTC,2092
VPS13B,2183
COL10A1,2185
COL11A1,2186
COL11A2,2187
COL12A1,2188
COL13A1,2190
COL18A1,2195
COL1A1,2197
COL1A2,2198
COL2A1,2200
COL3A1,2201
COL4A1,2202
COL4A2,2203
CERT1,2205
COL6A1,2211
COL6A2,2212
COL6A3,2213
COL9A1,2217
COL9A2,2218
COL9A3,2219
COLEC10,2220
COLQ,2226
COPB2,2232
COQ7,2244
COX7B,2291
CPT2,2330
CRADD,2340
CREBBP,2348
CRLF1,2364
MED17,2375
MED27,2377
CRTAP,2379
CRYAA,2388
CRYBA1,2394
CRYBA4,2396
CRYBB1,2397
CRYBB2,2398
CRYBB3,2400
CRYGC,2410
CRYGD,2411
CSF1R,2433
CSNK2A1,2457
SMC3,2468
NKX2-5,2488
CTDP1,2498
CTNNA2,2510
CTNNB1,2514
CTNND1,2515
CTSD,2529
CTSK,2536
CUL4B,2555
OFD1,2567
MAMLD1,2568
CYP11A1,2590
CYP11B1,2591
CYP17A1,2593
CYP1B1,2597
DAG1,2666
DARS1,2678
DCC,2701
ACE,2707
DCX,2714
DDR2,2731
DDX11,2736
DDX3X,2745
DDX6,2747
DHCR24,2859
DHCR7,2860
DHFR,2861
DHODH,2867
DIAPH1,2876
DKC1,2890
DLL1,2908
DLL3,2909
DLL4,2910
DLX5,2918
DMPK,2933
DNA2,2939
DNAH11,2942
DNAH5,2950
DNAH9,2953
DNAI1,2954
DYNC1H1,2961
DYNC2H1,2962
DYNC1I1,2963
DYNC1I2,2964
DNM1L,2973
DNM2,2974
DNMT3A,2978
DNMT3B,2979
DONSON,2993
DPAGT1,2995
DPH1,3003
DPM1,3005
DPM2,3006
DPM3,3007
SLC26A3,3018
ATN1,3033
DSP,3052
DSPP,3054
DVL1,3084
DVL3,3087
DYRK1A,3091
TOR1A,3098
EBP,3133
ECEL1,3147
EDA,3157
EDN3,3178
EDNRA,3179
EDNRB,3180
EED,3188
EEF2,3214
EFEMP2,3219
EFNB1,3226
MEGF8,3233
EIF2AK3,3255
EIF2B2,3258
EIF2B3,3259
EIF2S3,3267
EIF3F,3275
EIF5A,3300
ELN,3327
EML1,3330
EMD,3331
EMX2,3341
EN1,3342
ENPP1,3356
EP300,3373
EPHB4,3395
ERBB3,3431
ERCC1,3433
ERCC2,3434
ERCC3,3435
ERCC4,3436
ERCC5,3437
ERCC6,3438
ERCC8,3439
ERF,3444
ETFA,3481
ETFB,3482
ETFDH,3483
EVC,3497
MECOM,3498
EXT1,3512
EXT2,3513
EXTL3,3518
EYA1,3519
EZH2,3527
ACSL4,3571
FAH,3579
FANCA,3582
FANCB,3583
FANCC,3584
FANCD2,3585
FANCE,3586
FANCF,3587
FANCG,3588
FAT1,3595
FBLN5,3602
FBN1,3603
FBN2,3604
FKTN,3622
FGD1,3663
FGF10,3666
FGF3,3681
FGF8,3686
FGF9,3687
FGFR1,3688
FGFR2,3689
FGFR3,3690
FH,3700
FLNA,3754
FLNB,3755
FLNC,3756
FLT4,3767
FOLR1,3791
FOXC1,3800
FOXC2,3801
FOXE1,3806
FOXE3,3808
FOXF1,3809
FOXG1,3811
FOXJ1,3816
MTOR,3942
FTL,3999
FUT8,4019
FZD2,4040
GAA,4065
GABRB2,4082
GALC,4115
GALE,4116
GALK1,4118
GALNS,4122
GALNT2,4124
GANAB,4138
GATA1,4170
GATA2,4171
GATA3,4172
GATA4,4173
GATA6,4174
GBA1,4177
GBE1,4180
GCDH,4189
GDF1,4214
GDF11,4216
GDF5,4220
GDF6,4221
GFAP,4235
GFPT1,4241
GFRA1,4243
GHR,4263
GJA1,4274
GJA3,4277
GJA8,4281
GLA,4296
GLB1,4298
GLDC,4313
GLE1,4315
GLI1,4317
GLI2,4318
GLI3,4319
GLUL,4341
GNAI3,4387
GNAO1,4389
GNAS,4392
GNB1,4396
GNPAT,4416
GNS,4422
GPC3,4451
GPC6,4454
GPI,4458
ADGRG1,4512
GPX4,4556
GRIN1,4584
GRIN2B,4586
GRM7,4599
GSC,4612
GTPBP2,4670
GUCY2C,4688
GUSB,4696
H1-4,4718
H3-3A,4764
H4C3,4787
HAAO,4796
HADHA,4801
HADHB,4803
HBA1,4823
HBA2,4824
HCCS,4837
HCFC1,4839
HERC1,4867
HESX1,4877
HIBCH,4908
HIVEP2,4921
MNX1,4979
HMGB1,4983
HMGA2,5009
HMX1,5017
HNF4A,5024
HNRNPH2,5042
HNRNPK,5044
HOXA1,5099
HOXA13,5102
HOXA2,5103
HOXD13,5136
HR,5172
HRAS,5173
HS2ST1,5193
HSD17B3,5212
HSD17B4,5213
HSF4,5227
HSPA9,5244
HSPD1,5261
HSPG2,5273
KAT5,5275
HYAL2,5321
IARS1,5330
IDS,5389
IDUA,5391
IGF1,5464
IGF1R,5465
IGF2,5466
IGHMBP2,5542
RBPJ,5724
IHH,5956
IL11RA,5967
IL1RAPL1,5996
INPPL1,6080
INSR,6091
FOXP3,6106
IRF6,6121
ITGA3,6139
ITGA6,6142
ITGA8,6144
ITGB4,6158
STT3A,6172
JAG1,6188
ANOS1,6211
KATNB1,6217
KCNH1,6250
KCNJ1,6255
KCNJ2,6263
KCNJ8,6269
KDELR2,6305
KIF2A,6318
KIF5B,6324
KIF5C,6325
KLF1,6345
KIF11,6388
KIF22,6391
KRAS,6407
MAFB,6408
KYNU,6469
L1CAM,6470
AFF3,6473
LAMA1,6481
LAMA2,6482
LAMB1,6486
LAMC3,6494
LARGE1,6511
LBR,6518
COG1,6545
LFNG,6560
LHX3,6595
LIFR,6597
LIG4,6601
LIPA,6617
LMNA,6636
LMNB1,6637
LMNB2,6638
LMOD3,6649
LMX1B,6654
LRP2,6694
LRP4,6696
LRP5,6697
LTBP1,6714
LTBP3,6716
LTBP4,6717
LZTFL1,6741
LZTR1,6742
MAB21L1,6757
MAB21L2,6758
SMAD2,6768
SMAD3,6769
SMAD4,6770
SMAD6,6772
MAF,6776
MAGEL2,6814
MAN2C1,6827
MAP1B,6836
MAP2K1,6840
MAP2K2,6842
MAP3K1,6848
MAP3K7,6859
MAPK1,6871
MAPK8IP3,6884
MAPKAPK5,6889
MAPRE2,6891
MASP1,6901
MATN3,6909
MCPH1,6954
MEF2C,6996
MEIS2,7001
MEOX1,7013
MGP,7060
MID1,7095
MINPP1,7102
MITF,7105
MKKS,7108
MKS1,7121
KMT2A,7132
KMT2D,7133
MLYCD,7150
MMP13,7159
MMP9,7176
MN1,7180
MOCS1,7190
MOCS2,7193
MPDU1,7207
MPDZ,7208
MRAS,7227
MSL3,7370
MSX1,7391
MSX2,7392
MTM1,7448
MTX2,7506
TRIM37,7523
MUSK,7525
MVK,7530
MYBPC1,7549
MYBPC3,7551
MYCN,7559
MYH10,7568
MYH11,7569
MYH2,7572
MYH3,7573
MYH6,7576
MYH7,7577
MYH8,7578
MYH9,7579
MYL1,7582
MYO9A,7608
MYOD1,7611
PPP1R12A,7618
MYT1,7622
NAGA,7631
NBN,7652
NDP,7678
NEB,7720
NEDD4L,7728
NEK1,7744
NEU1,7758
NF1,7765
NFIA,7784
NFIB,7785
NFIX,7788
NHS,7820
NID1,7821
NODAL,7865
NOG,7866
NONO,7871
CNOT1,7877
CNOT3,7879
NOTCH1,7881
NOTCH2,7882
NOVA2,7887
NPC1,7897
NPHP1,7905
NPHP3,7907
NPHS1,7908
NPR2,7944
NR0B1,7960
NR2F2,7976
NR5A1,7983
NRAS,7989
CNTNAP1,8011
NUDT6,8053
NUP88,8067
OCRL,8108
OPHN1,8148
ORC1,8487
ORC4,8490
OTX2,8522
P4HB,8548
PAFAH1B1,8574
PAK3,8592
PAPSS2,8604
PARN,8609
PAX2,8616
PAX3,8617
PAX6,8620
PAX7,8621
PAX8,8622
PBX1,8632
PCDH12,8657
CHMP1A,8740
PCYT1A,8754
PDCD10,8761
PDE3A,8778
PDE4D,8783
PDE6D,8788
PDGFRB,8804
PDHA1,8806
SERPINF1,8824
PEPD,8840
PEX1,8850
PEX10,8851
PEX11B,8853
PEX12,8854
PEX13,8855
PEX14,8856
PEX16,8857
PEX3,8858
PEX6,8859
PEX7,8860
PFKM,8877
PGM1,8905
PGM3,8907
PHEX,8918
PHGDH,8923
PIGA,8957
PIGH,8964
PIGL,8966
PIGN,8967
PIK3C2A,8971
PIK3CA,8975
PIK3R1,8979
PIK3R2,8980
PI4KA,8983
PITX1,9004
PITX2,9005
PITX3,9006
PKD1,9008
PKD2,9009
PKHD1,9016
PKLR,9020
PLAA,9043
PLAG1,9045
PLCB4,9059
PLD1,9067
PLEC,9069
PLG,9071
PLOD1,9081
PLOD2,9082
PLOD3,9083
PLS3,9091
PMM2,9115
EXOSC9,9137
PRRX1,9142
PHOX2B,9143
PNKP,9154
POLD1,9175
POLE,9177
POLG2,9180
POMT1,9202
POR,9208
POU1F1,9210
CTSA,9251
PPIB,9255
PPIL1,9260
PPP1CB,9282
PPP2CA,9299
PPP2R1A,9302
PPP2R5D,9312
PQBP1,9330
PRF1,9360
PRG4,9364
PRIM1,9369
PRKACA,9380
PRKACB,9381
PRKAG2,9386
PRKAR1A,9388
ZMYND8,9397
PRKD1,9407
PLPBP,9457
LONP1,9479
PSAP,9498
PSPH,9577
PTCH1,9585
PTDSS1,9587
PTHLH,9607
PTH1R,9608
PTPN11,9644
PTPN14,9647
PTS,9689
NECTIN1,9706
PEX19,9713
PEX2,9717
PEX5,9719
PYCR1,9721
ALDH18A1,9722
PYGM,9726
QARS1,9751
RAB11B,9761
RAC1,9801
RAD21,9811
RAD50,9816
RAD51,9817
RAD51C,9820
RAF1,9829
RAI1,9834
RAP1B,9857
RAPSN,9863
RARB,9865
RASA1,9871
RBBP8,9891
RBM10,9896
RBM8A,9905
RBP4,9922
RECQL4,9949
RELN,9957
REN,9958
DPF2,9964
RERE,9965
RET,9967
RHEB,10011
RIT1,10023
ROBO1,10249
ROBO2,10250
ROR2,10257
RPL10,10298
RPL11,10301
RPL15,10306
RPL35A,10345
RPL5,10360
RPS10,10383
RPS19,10402
RPS24,10411
RPS26,10414
RPS6KA3,10432
RPS7,10440
RRAS,10447
RUNX2,10472
RYR1,10483
SALL1,10524
MSMO1,10545
SC5D,10547
SCN1A,10585
SCN2A,10588
SCN3A,10590
SCN4A,10591
SCN5A,10593
SCNN1A,10599
SCNN1B,10600
SCNN1G,10602
SCO2,10604
AIMP1,10648
CWC27,10664
SDCCAG8,10671
SEC23B,10702
SEC24D,10706
SEMA3A,10723
SF3B2,10769
SF3B4,10771
SGCG,10809
SGPL1,10817
SHH,10848
SHMT2,10852
SHOX,10853
STIL,10879
SIX3,10889
SIX5,10891
SIX6,10892
SKI,10896
SKIC2,10898
SLC12A1,10910
SLC12A6,10914
SLC16A2,10923
SLC17A5,10933
SLC18A3,10936
SLC20A1,10946
SLC25A4,10990
SLC26A2,10994
SLC27A4,10998
SLC35A2,11022
SLC5A5,11040
SLC6A9,11056
SMARCA2,11098
SMARCA4,11100
SMARCAL1,11102
SMARCB1,11103
SMARCC1,11104
SMARCE1,11109
ARID1A,11110
SMC1A,11111
KDM5C,11114
SMO,11119
SMPD1,11120
SMS,11123
SNAP29,11133
SNRPB,11153
CAPN15,11182
SON,11183
SOS1,11187
SOS2,11188
SOX10,11190
SOX11,11191
SOX18,11194
SOX2,11195
SOX3,11199
SOX9,11204
SPAG1,11212
SPARC,11219
SPG11,11226
SPINT2,11247
SPTA1,11272
SRY,11311
ST14,11344
STAG2,11355
STAR,11359
STAT3,11364
STIM1,11386
PLK4,11397
STK4,11408
CDKL5,11411
SUCLG1,11449
SULT2B1,11459
SYT2,11510
TAF1,11535
BRF1,11551
TALDO1,11559
TAFAZZIN,11577
TBC1D1,11578
TBCD,11581
TBCE,11582
TBX1,11592
TBX15,11594
TBX18,11595
TBX20,11598
TBX22,11600
TBX3,11602
TBX4,11603
TBX5,11604
TBX6,11605
TCF12,11623
HNF1B,11630
TCF4,11634
TCIRG1,11647
TCOF1,11654
TFAP2A,11742
TFAP2B,11743
TG,11764
TGFB2,11768
TGFB3,11769
TGFBR1,11772
TGFBR2,11773
TGIF1,11776
TGM1,11777
THRA,11796
TINF2,11824
TLK2,11842
TLL1,11843
TNFRSF11A,11908
TNNI2,11946
TNNT1,11948
TNNT3,11950
MED12,11957
TOP2B,11990
TOP3A,11992
TP73,12003
TPM2,12011
TPM3,12012
TPO,12015
TREX1,12269
TRIO,12303
TRIP11,12305
TRIP12,12306
ZNHIT3,12309
TRIP4,12310
TRPS1,12340
TRRAP,12347
TSC1,12362
TSC2,12363
TSFM,12367
CEP41,12370
TSHR,12373
TTN,12403
TUBB2A,12412
TUBG1,12417
TUFM,12420
TWIST1,12428
UBA1,12469
UMPS,12563
UROS,12592
USP18,12616
USP9X,12632
KDM6A,12637
VAMP1,12642
VEGFC,12682
VLDLR,12698
VPS33B,12712
VRK1,12718
WDR4,12756
NSD2,12766
WNT1,12774
WNT10B,12775
WNT5A,12784
WNT7A,12786
WNT7B,12787
WT1,12796
WWOX,12799
XRCC4,12831
YY1,12856
ZIC1,12872
ZIC2,12873
ZIC3,12874
ZMPSTE24,12877
PCGF2,12929
RNF113A,12974
ZMYM2,12989
KAT6A,13013
ZBTB18,13030
ADAMTS10,13201
ARL6,13210
BCL11A,13221
LMBR1,13243
HDAC8,13315
KIF4A,13339
MCOLN1,13356
NEK8,13387
NSDHL,13398
PRUNE1,13420
RLIM,13429
ROBO3,13433
SLC2A10,13444
UBE3B,13478
VPS4A,13488
ZBTB20,13503
MESD,13520
RXYLT1,13530
IFT122,13556
BRD4,13575
FBXL4,13601
FBXW11,13607
SCUBE3,13655
MACF1,13664
AAAS,13666
DCHS1,13681
CTCF,13723
KMT2C,13726
ALOXE3,13743
SOST,13771
GFM1,13780
CNTNAP2,13830
ADGRG6,13841
ABHD16A,13921
TRPV6,14006
SLC5A7,14025
NPRL3,14124
ELAC2,14198
NSD1,14234
RAB18,14244
BRPF1,14255
AUTS2,14262
RAB23,14263
SHANK3,14294
CRIPT,14312
IFT81,14313
BCAS3,14347
MMP21,14357
IRX5,14361
PTPN23,14406
SLC25A19,14409
ELOVL4,14415
TMEM237,14432
MRPS22,14508
NPC2,14537
ABCA12,14637
FYCO1,14673
DEAF1,14677
COG5,14857
GTPBP3,14880
ZEB2,14881
DNAJB11,14889
PIGT,14938
PXDN,14966
SNX10,14974
SNX14,14977
SHOC2,15454
MBTPS2,15455
MBTPS1,15456
ALDH1A2,15472
ANKH,15492
TSEN34,15506
XYLT1,15516
XYLT2,15517
JAM3,15532
SETBP1,15573
NBAS,15625
KLHL7,15646
ALG9,15672
PHIP,15673
B4GAT1,15685
MYL9,15754
ADNP,15766
ZNF335,15807
GZF1,15808
ARFGEF2,15853
RTEL1,15888
NDUFAF5,15899
IFT52,15901
SALL4,15924
SAMHD1,15925
TOE1,15954
HES7,15977
TP63,15979
MPLKIP,16002
MYOCD,16067
PCNT,16068
RAB33B,16075
TBC1D20,16133
YAP1,16262
TRAP1,16264
ADAMTS15,16305
SOX6,16421
WBP11,16461
SUFU,16466
NME8,16473
ZMIZ1,16493
BSND,16512
IFITM5,16644
TUBGCP4,16691
BCAP31,16695
ZFPM2,16700
DNAAF11,16725
TSEN15,16791
UBR1,16808
FIG4,16873
SPEG,16901
KLHL41,16905
STAMBP,16950
SRCAP,16974
CLP1,16999
EXOSC8,17035
PUF60,17042
RAB3GAP1,17063
TAB2,17075
MLC1,17082
SYNE1,17089
LARS2,17095
DICER1,17098
SUZ12,17101
CDON,17104
ADAMTS17,17109
ADAMTS19,17111
ORC6,17151
RAB3GAP2,17168
CHSY1,17198
BICD2,17208
COLEC11,17213
POLR1A,17264
RRAS2,17271
CPAP,17272
RRM2B,17296
SP7,17321
PPP2R3C,17485
GMNN,17493
GJC2,17494
ALPK3,17574
SPEN,17575
KAT6B,17582
NDE1,17619
PORCN,17652
SPRED2,17722
THSD1,17754
MAP3K20,17797
NUP188,17859
TRAF3IP1,17861
AFF4,17869
INVS,17870
PGAP2,17893
EXOSC3,17944
CEP83,17966
B3GALT6,17978
FKRP,17997
NXN,18008
OSGEP,18028
ARID2,18037
ARID1B,18040
PKD1L1,18053
ARX,18060
TRPV4,18083
AFG2A,18119
MFRP,18121
SOX17,18122
TUBGCP6,18127
PHF6,18145
MYO18B,18150
FKBP10,18169
TMCO1,18188
KCTD1,18249
HHAT,18270
ALG1,18294
ASXL1,18318
WDR19,18340
TENT5A,18345
HPSE2,18374
SETD2,18420
DEPDC5,18423
ATP6V0A2,18481
RNASEH2A,18518
IER3IP1,18550
NEK9,18591
TUBGCP2,18599
COL25A1,18603
COG4,18620
COG6,18621
COG7,18622
COG8,18623
FKBP14,18625
IFT27,18626
RTTN,18654
RAX,18662
CDK5RAP2,18672
EIF4A3,18683
CRB2,18688
NAA10,18704
GRIP1,18708
LGI4,18712
DNAI2,18744
RIN2,18750
BBS7,18758
ZFP57,18791
POGZ,18801
PPP1R13L,18838
CREB3L1,18856
IFIH1,18873
GBA2,18986
MAST1,19034
ASPM,19048
THOC2,19073
NALCN,19082
EBF3,19087
NPHP4,19104
PSAT1,19129
POMGNT1,19139
KIF14,19181
FRAS1,19185
DOCK6,19189
DOCK7,19190
NANS,19237
MTO1,19261
SCAF4,19304
P3H1,19316
DENND5A,19344
SIN3A,19353
ALG12,19358
ZMYND10,19412
SBDS,19440
NECTIN4,19688
COQ4,19693
DISP1,19711
CANT1,19721
POMT2,19743
EVC2,19747
TTC7A,19750
SCARF2,19869
KIAA0586,19960
CCDC88C,19967
PAN2,20074
TTC8,20087
FLVCR2,20105
TMEM260,20185
DNAAF2,20188
POLR1C,20194
SLC35C1,20197
B3GLCT,20207
SPRED1,20249
NUBPL,20278
CHAMP1,20311
SMOC1,20318
TGDS,20324
UBR7,20344
VIPAS39,20347
NDUFB11,20372
SUMF1,20376
POLR1D,20422
POLR1B,20454
TRAF7,20456
BRIP1,20473
L2HGDH,20499
CYP26B1,20581
CYP2U1,20582
CHD7,20626
TXNDC15,20652
SLC25A24,20662
TWIST2,20670
PHF8,20672
ARMC9,20730
FANCL,20748
TUBA1A,20766
TUBB3,20772
TUBB4A,20774
TUBB,20778
SLC35D1,20800
SLC39A8,20862
LRIG2,20889
BCOR,20893
NACC1,20967
ANTXR1,21014
CUL7,21024
RSPH9,21057
ZBTB24,21143
RNF125,21150
GTF2H5,21157
RMND1,21176
WDR26,21208
CILK1,21219
UQCC2,21237
PNPLA1,21246
ANKRD11,21316
DYM,21317
ABHD5,21396
RARS2,21406
IFT74,21424
INPP5E,21474
RFX6,21478
TBC1D32,21485
DNAAF4,21493
ACAD9,21497
RSPH4A,21558
AHI1,21575
SATB2,21637
CEP85L,21638
OSTM1,21652
ZNF462,21684
RNASET2,21686
BRAT1,21701
ANTXR2,21732
LHX4,21734
DYNC2I1,21862
AGK,21869
FAM20C,22140
GMPPB,22932
MED13L,22962
PEX26,22965
COL27A1,22986
FAM20A,23015
GNPTG,23026
LMBRD1,23038
ALG3,23056
SLC10A7,23088
SLC13A5,23089
SLC29A3,23096
FAT4,23109
ALG6,23157
ALG2,23159
ALG8,23161
EXOC7,23214
PIGO,23215
CPAMD8,23228
MYPN,23246
DNAL1,23247
PIBF1,23352
FREM1,23399
DOLK,23406
KIFBP,23419
ANKRD17,23575
SKIC3,23639
PGAP3,23719
PTF1A,23734
CERS3,23752
PACS2,23794
ASXL2,23805
SLX4,23845
APC2,24036
CLMP,24039
KNL1,24054
RNASEH2C,24116
B9D1,24123
BMPER,24154
PHF21A,24156
ASCC1,24268
OTUD6B,24281
TRAPPC12,24284
NCAPD2,24305
CHST14,24464
POC1A,24488
WDR62,24502
TCTN3,24519
MMACHC,24525
TMEM98,24529
INTS1,24555
C2CD3,24564
KANSL1,24565
CDT1,24576
HYCC1,24587
DYNC2LI1,24595
SIL1,24624
EHMT1,24650
EXOSC5,24662
FTO,24678
QRICH1,24713
FAM111A,24725
ZNF699,24750
G6PC3,24861
MOGS,24862
CEP104,24866
YIPF5,24877
LARP7,24912
ZC4H2,24931
NPRL2,24969
UBE2T,25009
TMEM216,25018
MMADHC,25221
AHDC1,25230
CCDC39,25244
ODAD4,25280
COQ9,25302
NSRP1,25305
DDX59,25360
CCDC8,25367
FREM2,25396
OTUD5,25402
ARL13B,25419
LRRC56,25430
FRMD4A,25491
WRAP53,25522
TMEM38B,25535
PRMT7,25557
SETD5,25566
ATAD3A,25567
FANCI,25568
ODAD2,25583
VPS53,25608
CWF19L1,25613
TBC1D23,25622
TTC21B,25660
RNASEH2B,25671
GORAB,25676
PGAP1,25712
NHEJ1,25737
TRAPPC11,25751
SMG9,25763
TCTN2,25774
CPLANE1,25801
SRD5A3,25812
CEP63,25815
GRHL3,25839
ORAI1,25896
MFSD2A,25897
POMGNT2,25902
ATAD1,25903
WDR73,25928
AMBRA1,25990
DNAAF5,26013
BPNT2,26019
PIGV,26031
SLC25A38,26054
LAGE3,26058
CCDC40,26090
TCTN1,26113
PALB2,26144
CTC1,26169
COLGALT1,26182
CSPP1,26193
FAR1,26222
TTI2,26262
POMK,26267
PIEZO2,26270
BBS10,26291
SCLT1,26406
CFAP53,26530
DZIP1L,26551
HYLS1,26558
ODAD1,26560
DOK7,26594
WDR81,26600
BBS12,26648
CEP120,26690
ANKS6,26724
MTRFR,26784
C2orf69,26799
CYP4F22,26820
AMER1,26837
CKAP2L,26877
TAPT1,26887
TMTC3,26899
PARP6,26921
FOXRED1,26927
TMEM138,26944
BLTP1,26953
ESCO2,27230
CFAP418,27232
TMEM218,27344
NPNT,27405
TSEN54,27561
CTU2,28005
NIPAL4,28018
WDPCP,28027
TMEM107,28128
CFAP300,28188
TBCK,28261
ALG14,28287
DYNC2I2,28296
ODAD3,28303
D2HGDH,28358
THOC6,28369
TMEM67,28396
TRMT10A,28403
TSEN2,28422
STAC3,28423
CCNQ,28434
DYNLT2B,28482
GLIS3,28510
EOGT,28526
KIAA0825,28532
DNAAF6,28570
RSPO2,28583
B3GALNT2,28596
B9D2,28636
DIS3L2,28648
MED25,28845
NIPBL,28862
MDFIC,28870
YRDC,28905
CCDC22,28909
IQCB1,28949
EMC1,28957
TMEM94,28983
PIEZO1,28993
FRMPD4,29007
CEP290,29021
SPECC1L,29022
SZT2,29040
DSTYK,29043
KATNIP,29068
IFT140,29077
KDM1A,29079
CEP135,29086
SMCHD1,29090
OBSL1,29092
TELO2,29099
ANKLE2,29101
KIAA0753,29110
FAM149B1,29162
SIK3,29165
RPGRIP1L,29168
IQCE,29171
CEP164,29182
TBC1D24,29203
ERGIC1,29205
ARHGAP31,29216
PRR12,29217
INTU,29239
SH3PXD2B,29242
WDR35,29250
CC2D2A,29253
TAOK1,29259
IFT80,29262
CEP152,29298
FBRSL1,29308
ZSWIM6,29316
EPG5,29331
ZNF526,29415
CCBE1,29426
KIF21B,29442
TOR1AIP1,29456
ROGDI,29478
GPSM2,29501
KIDINS220,29508
GLDN,29514
C12orf57,29521
TBL1XR1,29529
NEXN,29557
MEGF10,29634
MNS1,29636
MESP2,29659
IFT43,29669
GNPTAB,29670
PAM16,29679
NADSYN1,29832
NUP107,29914
COASY,29932
TENM3,29944
SDR9C7,29958
BBS9,30000
PACS1,30032
POLR3A,30074
POP1,30129
EXOC3L2,30162
STRADA,30172
ARHGAP29,30207
RFT1,30220
WLS,30238
POLR3B,30348
KLHL40,30372
IFT172,30391
DNAAF3,30492
KIF7,30497
YIF1B,30511
DNAJC19,30528
DNAAF1,30539
TXNL4A,30551
SEPSECS,30605
STRA6,30650
UBA2,30661
CLPB,30664
EHBP1L1,30682
TMX2,30739
TMEM165,30760
TRAIP,30764
NAA15,30782
CEP57,30794
TUBB2B,30829
TRAPPC9,30832
EFTUD2,30858
HUWE1,30892
BNC2,30988
GREB1L,31042
WDR37,31406
TRIM71,32669
DNAAF19,32700
NKX2-6,32940
SMPD4,32949
MYMK,33778
BHLHA9,35126
TMEM231,37234
CRPPA,37276
PRSS56,39433
PET100,40038
MCIDAS,40050
