# Gene panel: Mitokondriesykdommer-v4.1.0 -- Date: 2025-03-03
#chromosome	read start	read end	name	score	strand	tags	HGNC id	HGNC symbol	inheritance	coding start	coding end	exon starts	exon ends	metadata
1	1447541	1470065	NM_001170535.3	0.0	+	MANE Select	25567	ATAD3A	AD/AR	1447648	1469452	1447541,1451391,1452690,1453095,1454300,1455520,1455927,1458123,1458890,1459218,1459652,1460619,1461840,1463074,1464602,1469305	1447853,1451468,1452792,1453155,1454370,1455686,1455997,1458279,1458947,1459344,1459777,1460671,1461911,1463242,1464711,1470065	{}
1	12040500	12073565	NM_014874.4	0.0	+	MANE Select	16877	MFN2	AD/AR	12049225	12071622	12040500,12042026,12049221,12052611,12056212,12057353,12058826,12059044,12061457,12061825,12062038,12064048,12064565,12064881,12065767,12066594,12067109,12069648,12071552	12040541,12042171,12049400,12052747,12056375,12057478,12058935,12059152,12061611,12061893,12062160,12064175,12064670,12064984,12065988,12066750,12067306,12069783,12073565	{}
1	17345216	17380527	NM_003000.3	0.0	-	MANE Select	10681	SDHB	AR	17345375	17380514	17345216,17349102,17350467,17354243,17355094,17359554,17371255,17380442	17345453,17349225,17350569,17354360,17355231,17359640,17371383,17380527	{}
1	20959950	20978004	NM_032409.3	0.0	+	MANE Select	14581	PINK1	AR	20960041	20977184	20959950,20964334,20966384,20970982,20972052,20974997,20975487,20976926	20960428,20964622,20966485,20971165,20972216,20975125,20975724,20978004	{}
1	29519168	29557446	NM_016011.5	0.0	-	MANE Select	19691	MECR	AR	29520533	29557418	29519168,29522452,29522709,29527027,29528454,29529642,29533273,29542516,29543099,29557242	29520691,29522525,29522770,29527101,29528557,29529745,29533417,29542648,29543197,29557446	{}
1	33473586	33502484	NM_001625.4	0.0	-	MANE Select	362	AK2	AR	33478781	33502429	33473586,33480122,33486967,33487193,33490042,33502336	33479003,33480195,33487062,33487304,33490168,33502484	{}
1	40303781	40349176	NM_017646.6	0.0	-	MANE Select	20286	TRIT1	AR	40307415	40349163	40303781,40309772,40310202,40312891,40313219,40313657,40315790,40318402,40319641,40322948,40348989	40307585,40309890,40310312,40312969,40313332,40313769,40315933,40318548,40319740,40323089,40349176	{}
1	53150120	53164019	NM_023077.3	0.0	-	MANE Select	25716	COA7	AR	53153391	53163998	53150120,53158398,53163892	53153840,53158539,53164019	{}
1	53662495	53679869	NM_000098.3	0.0	+	MANE Select	2330	CPT2	AD/AR	53662615	53679267	53662495,53666390,53667994,53675686,53678935	53662767,53666471,53668101,53676991,53679869	{}
1	55222570	55230196	NM_152268.4	0.0	-	MANE Select	30563	PARS2	AR	55223406	55224834	55222570,55230133	55224863,55230196	{}
1	76190393	76229364	NM_000016.6	0.0	+	MANE Select	89	ACADM	AR	76190472	76228448	76190393,76194085,76198328,76198537,76199212,76200475,76205664,76211490,76215103,76216135,76226806,76228376	76190502,76194173,76198426,76198607,76199313,76200556,76205795,76211599,76215244,76216231,76227055,76229364	{}
1	108676664	108742965	NM_013386.5	0.0	-	MANE Select	20662	SLC25A24	AD	108679274	108742760	108676664,108681679,108686164,108690900,108697604,108700083,108703803,108724562,108728449,108742577	108679459,108681830,108686332,108691008,108697757,108700242,108703915,108724650,108728576,108742965	{}
1	119573838	119683276	NM_015836.4	0.0	-	MANE Select	12730	WARS2	AR	119575533	119683267	119573838,119576717,119584886,119588204,119618972,119683177	119575982,119576836,119584972,119588285,119619230,119683276	{}
1	120290624	120311528	NM_005518.4	0.0	-	MANE Select	5008	HMGCS2	AR	120293424	120311467	120290624,120293419,120295171,120295902,120298049,120299895,120301740,120302486,120306794,120311363	120291464,120293531,120295297,120296009,120298220,120300061,120301905,120302612,120307249,120311528	{}
1	150459894	150480078	NM_025150.5	0.0	+	MANE Select	30740	TARS2	AR	150459926	150479540	150459894,150460333,150461439,150463076,150463869,150464073,150464886,150468957,150469285,150470005,150470977,150471372,150471691,150476810,150477107,150477381,150478066,150479391	150459992,150460530,150461563,150463201,150463987,150464138,150464965,150469104,150469384,150470223,150471140,150471510,150471769,150476911,150477209,150477454,150478181,150480078	{}
1	154955819	154965587	NM_025207.5	0.0	+	MANE Select	24671	FLAD1	AR	154956170	154965513	154955819,154960580,154962035,154962634,154962814,154965188,154965377	154956542,154961325,154962183,154962733,154963004,154965262,154965587	{}
1	155580008	155584742	NM_018116.4	0.0	+	MANE Select	29678	MSTO1	AD/AR	155580039	155584064	155580008,155580215,155580829,155581006,155581339,155581479,155581773,155581972,155582208,155582634,155582839,155583252,155583447,155583849	155580123,155580351,155580899,155581082,155581394,155581618,155581891,155582107,155582361,155582766,155583024,155583357,155583557,155584742	{}
1	156084501	156107657	NM_005572.4	0.0	+	MANE Plus Clinical	6636	LMNA	AD/AR	156084709	156107555	156084501,156100407,156104193,156104595,156104977,156105691,156106004,156106711,156106903,156107444	156085065,156100564,156104319,156104766,156105103,156105912,156106227,156106819,156107023,156107657	{}
1	156084501	156109872	NM_170707.4	0.0	+	MANE Select	6636	LMNA	AD/AR	156084709	156108897	156084501,156100407,156104193,156104595,156104977,156105691,156106004,156106711,156106903,156107444,156108278,156108870	156085065,156100564,156104319,156104766,156105103,156105912,156106227,156106819,156107023,156107534,156108548,156109872	{}
1	161172156	161184185	NM_001377299.1	0.0	+	MANE Select	7708	NDUFS2	AR	161172175	161183983	161172156,161173226,161176196,161178982,161179272,161179646,161179900,161180093,161180380,161182140,161183169,161183438,161183653,161183945	161172270,161173333,161176387,161179103,161179385,161179721,161179978,161180179,161180500,161182270,161183265,161183522,161183711,161184185	{}
1	161284170	161332996	NM_003001.5	0.0	+	MANE Select	10682	SDHC	AD	161284195	161332223	161284170,161293403,161298185,161310383,161326466,161332118	161284215,161293460,161298287,161310445,161326630,161332996	{}
1	169433146	169455182	NM_006996.3	0.0	-	MANE Select	10938	SLC19A2	AR	169435086	169455004	169433146,169437348,169437881,169439201,169446392,169454800	169435215,169437490,169438074,169439424,169446995,169455182	{}
1	173793810	173827684	NM_018122.5	0.0	+	MANE Select	25538	DARS2	AR	173794367	173826843	173793810,173795824,173797470,173799797,173800672,173802513,173803610,173806077,173807327,173808504,173810003,173814366,173819464,173822486,173822932,173825803,173826655	173794494,173795924,173797537,173799899,173800768,173802637,173803657,173806184,173807397,173808684,173810111,173814429,173819617,173822705,173823043,173825879,173827684	{}
1	220267473	220321383	NM_018060.4	0.0	+	MANE Select	29685	IARS2	AR	220267558	220320977	220267473,220269445,220273831,220275470,220275704,220275836,220276028,220276788,220279232,220280402,220284127,220287655,220298578,220300091,220307743,220310150,220311259,220312349,220313524,220315144,220316285,220318850,220320834	220267825,220269568,220273991,220275619,220275754,220275946,220276119,220276904,220279402,220280493,220284279,220287816,220298681,220300185,220307852,220310253,220311385,220312481,220313631,220315290,220316476,220318995,220321383	{}
1	227127994	227175245	NM_020247.5	0.0	+	MANE Select	16812	COQ8A	AR	227149086	227174438	227127994,227149077,227152700,227153371,227165149,227169727,227170378,227170594,227171252,227171461,227171794,227172248,227172576,227172954,227174153	227128100,227149263,227153111,227153438,227165224,227169850,227170464,227170735,227171334,227171555,227171936,227172356,227172642,227173041,227175245	{}
1	228353504	228369958	NM_001010867.4	0.0	+	MANE Select	27302	IBA57	AR	228353517	228363214	228353504,228362392,228362822	228353858,228362730,228369958	{}
1	234509201	234520826	NM_001206641.3	0.0	+	MANE Select	18025	COA6	AR	234509212	234519564	234509201,234509975,234519468	234509424,234510135,234520826	{}
1	241660902	241683055	NM_000143.4	0.0	-	MANE Select	3700	FH	AD/AR	241661127	241683022	241660902,241663736,241665742,241667341,241669302,241671902,241675266,241676902,241680481,241682890	241661270,241663890,241665870,241667545,241669468,241672085,241675443,241677013,241680616,241683055	{}
1	244998959	245008359	NM_198076.6	0.0	+	MANE Select	26970	COX20	AR	244999016	245006478	244998959,245005245,245005496,245006342	244999058,245005360,245005560,245008359	{}
2	3589019	3605923	NM_002936.6	0.0	-	MANE Select	18466	RNASEH1	AR	3593374	3605850	3589019,3595520,3596229,3596647,3597962,3599733,3604378,3605722	3593461,3595645,3596314,3596702,3598062,3599898,3604494,3605923	{}
2	26413503	26467500	NM_000182.5	0.0	-	MANE Select	4801	HADHA	AR	26414118	26467464	26413503,26414351,26415178,26416445,26417438,26417960,26420559,26424017,26426930,26432648,26435438,26437311,26437921,26453059,26455027,26457084,26459722,26461801,26461969,26467397	26414264,26414497,26415293,26416641,26417507,26418101,26420646,26424189,26427065,26432758,26435495,26437430,26438044,26453162,26455147,26457223,26459856,26461872,26462011,26467500	{}
2	26467806	26513333	NM_000183.3	0.0	+	MANE Select	4803	HADHB	AR	26477122	26512821	26467806,26477114,26477297,26486247,26492820,26496518,26499940,26501481,26502002,26502861,26505712,26505871,26506984,26507750,26508274,26512785	26467858,26477186,26477342,26486347,26492865,26496618,26500028,26501669,26502183,26502983,26505792,26505919,26507072,26507825,26508439,26513333	{}
2	27532359	27545964	NM_002437.5	0.0	-	MANE Select	7224	MPV17	AR	27532779	27545384	27532359,27534766,27535081,27535360,27535546,27535860,27545314,27545918	27532849,27534819,27535114,27535456,27535639,27535976,27545389,27545964	{}
2	44113362	44223128	NM_133259.4	0.0	-	MANE Select	15714	LRPPRC	AR	44115738	44223086	44113362,44116872,44121683,44123772,44126357,44126604,44128458,44132830,44139570,44145163,44145394,44152205,44153031,44161328,44161892,44170825,44172470,44173251,44174395,44174869,44175260,44175550,44176740,44177711,44184523,44187679,44190726,44200745,44200933,44201288,44201752,44202229,44203281,44204132,44204293,44206964,44209376,44222937	44115795,44117015,44121768,44123847,44126473,44126744,44128663,44132919,44139697,44145272,44145537,44152296,44153100,44161435,44162017,44171033,44172556,44173382,44174509,44174914,44175338,44175657,44176798,44177739,44184590,44187773,44190845,44200853,44201039,44201434,44201897,44202356,44203368,44204191,44204415,44207087,44209573,44223128	{}
2	55861195	55920979	NM_033109.5	0.0	-	MANE Select	23166	PNPT1	AR	55863371	55920958	55861195,55864686,55867761,55870292,55870453,55871771,55872483,55873393,55873549,55874481,55882034,55883265,55883439,55887291,55889090,55894125,55894996,55898453,55899129,55900027,55906816,55907846,55907989,55910919,55912077,55913504,55914779,55920797	55863527,55864734,55867840,55870348,55870560,55871855,55872567,55873457,55873621,55874588,55882088,55883355,55883506,55887328,55889161,55894228,55895093,55898511,55899181,55900214,55906930,55907894,55908053,55910969,55912183,55913579,55914840,55920979	{}
2	69623257	69664567	NM_001002755.4	0.0	-	MANE Select	16287	NFU1	AR	69623377	69664554	69623257,69627495,69633153,69642316,69646669,69650713,69659033,69664492	69623422,69627670,69633214,69642431,69646736,69650849,69659137,69664567	{}
2	74154006	74186073	NM_080916.3	0.0	+	MANE Select	2858	DGUOK	AR	74154037	74185863	74154006,74166036,74173845,74177711,74184251,74185272,74185836	74154179,74166149,74174033,74177859,74184367,74185372,74186073	{}
2	74362526	74375039	NM_212552.3	0.0	-	MANE Select	24415	BOLA3	AR	74362719	74375001	74362526,74369398,74372315,74374947	74362785,74369487,74372430,74375039	{}
2	74757059	74760446	NM_013247.5	0.0	+	MANE Select	14348	HTRA2	AR	74757133	74760112	74757059,74757743,74758037,74758465,74758723,74758982,74759745,74759946	74757639,74757948,74758232,74758498,74758829,74759052,74759841,74760446	{}
2	84650651	84686404	NM_003849.4	0.0	-	MANE Select	11449	SUCLG1	AR	84650869	84686393	84650651,84652538,84658631,84660475,84668170,84668370,84670407,84676772,84686296	84650896,84652727,84658783,84660559,84668228,84668583,84670524,84676876,84686404	{}
2	99215776	99224975	NM_001008215.3	0.0	-	MANE Select	33848	COA5	AR	99217214	99224868	99215776,99220570,99224769	99217256,99220654,99224975	{}
2	99771429	99779600	NM_145199.3	0.0	+	MANE Select	29569	LIPT1	AR	99778420	99779542	99771429,99778419	99771514,99779600	{}
2	136663450	136743196	NM_001349.4	0.0	-	MANE Select	2678	DARS1	AR	136664885	136743038	136663450,136668708,136668951,136670055,136672038,136673795,136678022,136680353,136681956,136690352,136691479,136700947,136718965,136736843,136740966,136742972	136664977,136668780,136669063,136670136,136672081,136673942,136678170,136680488,136682068,136690412,136691560,136701050,136719068,136736936,136741024,136743196	{}
2	166842322	166984530	NM_001165963.4	0.0	-	MANE Select	10585	SCN1A	AD	166847754	166930131	166842322,166850655,166852522,166854547,166856232,166858981,166866228,166868618,166870253,166872116,166892557,166894285,166895932,166897740,166898801,166900178,166901552,166903279,166904136,166905395,166908228,166909361,166911147,166912920,166915079,166929867,166934219,166983433,166984280	166848932,166850926,166852627,166854685,166856286,166859263,166866351,166868792,166870408,166872237,166893040,166894642,166896106,166897979,166898934,166900559,166901837,166903486,166904278,166905459,166908498,166909453,166911276,166913010,166915198,166930180,166934311,166983520,166984530	{}
2	172290735	172341562	NM_025000.4	0.0	+	MANE Select	25784	DCAF17	AR	172291087	172337624	172290735,172291592,172300032,172305190,172306388,172309633,172314480,172314881,172325397,172330375,172333369,172334496,172336547,172337483	172291213,172291696,172300123,172305327,172306467,172309723,172314585,172314987,172325540,172330485,172333460,172334580,172336703,172341562	{}
2	172639914	172750754	NM_003705.5	0.0	-	MANE Select	10982	SLC25A12	AR	172641783	172750724	172639914,172644080,172644298,172647960,172650136,172666115,172666733,172669848,172671630,172683307,172690472,172691236,172693630,172700878,172712343,172725190,172749714,172750712	172641985,172644171,172644457,172648099,172650277,172666196,172666786,172670007,172671712,172683392,172690566,172691375,172693777,172701018,172712459,172725333,172749768,172750754	{}
2	191068645	191184552	NM_014362.4	0.0	-	MANE Select	4908	HIBCH	AR	191069842	191184476	191068645,191073605,191077681,191109612,191110879,191114365,191116887,191125881,191152311,191155130,191159271,191161538,191175479,191184441	191069958,191073639,191077801,191109694,191110938,191114452,191117033,191125960,191152364,191155211,191159356,191161679,191175522,191184552	{}
2	198351307	198364564	NM_002156.5	0.0	-	MANE Select	5261	HSPD1	AD/AR	198351769	198363572	198351307,198352581,198353040,198353725,198354920,198358047,198358880,198359380,198360017,198361863,198363398,198364505	198351922,198352760,198353215,198353971,198355020,198358216,198358974,198359476,198360100,198362116,198363574,198364564	{}
2	198570092	198573119	NM_138395.4	0.0	+	MANE Select	25133	MARS2	AR	198570129	198571911	198570092	198573119	{}
2	201936723	201950473	NM_002491.3	0.0	+	MANE Select	7698	NDUFB3	AR	201943605	201950338	201936723,201943603,201950181	201936782,201943745,201950473	{}
2	206979540	207024168	NM_005006.7	0.0	-	MANE Select	7707	NDUFS1	AR	206988908	207018402	206979540,206991262,206991433,206992520,206994811,206997668,207003208,207006664,207007409,207008741,207009615,207011626,207012254,207012476,207013743,207014541,207017142,207018341,207024064	206989000,206991335,206991568,206992696,206994966,206997829,207003338,207006793,207007555,207008856,207009750,207011812,207012385,207012558,207013820,207014649,207017234,207018406,207024168	{}
2	207630329	207660913	NM_001136193.2	0.0	+	MANE Select	29160	FASTKD2	AR	207631417	207656526	207630329,207631367,207634814,207635905,207636617,207636904,207638948,207651456,207652660,207653542,207655295,207656406	207630471,207632194,207634918,207636014,207636741,207637044,207639121,207651623,207652879,207653627,207655410,207660913	{}
2	211421322	211543831	NM_001875.5	0.0	+	MANE Select	2323	CPS1	AR	211421457	211542709	211421322,211438021,211441069,211442144,211444437,211447340,211452781,211454829,211455523,211456554,211457602,211459231,211460210,211464095,211465278,211466925,211469825,211471454,211473084,211476840,211481146,211502425,211503873,211504719,211507207,211512586,211513196,211515086,211518748,211521248,211523322,211525208,211527846,211532909,211539625,211540451,211541730,211542610	211421583,211438131,211441214,211442234,211444494,211447433,211452871,211454958,211455630,211456693,211457680,211459330,211460306,211464285,211465436,211467054,211469970,211471665,211473283,211477017,211481265,211502567,211503939,211504783,211507389,211512781,211513264,211515162,211518826,211521356,211523412,211525379,211527921,211533008,211539685,211540564,211541860,211543831	{}
2	219524405	219528166	NM_001079866.2	0.0	+	MANE Select	1020	BCS1L	AR	219525710	219528109	219524405,219525661,219526128,219526481,219526919,219527232,219527605,219527856	219524466,219526030,219526268,219526676,219526983,219527402,219527723,219528166	{}
2	220283098	220291456	NM_001927.4	0.0	+	MANE Select	2770	DES	AD/AR	220283184	220290712	220283098,220284816,220284972,220285216,220285549,220286061,220288498,220290384,220290670	220283762,220284877,220285068,220285378,220285675,220286282,220288542,220290467,220291456	{}
2	224822179	224832431	NM_022915.5	0.0	+	MANE Select	16650	MRPL44	AR	224822189	224831751	224822179,224824250,224828472,224831579	224822368,224824719,224828651,224832431	{}
2	228189966	228222549	NM_001277062.2	0.0	+	MANE Select	24858	MFF	AR	228195381	228221833	228189966,228193393,228195341,228197134,228205007,228211941,228217229,228220392,228221701	228190143,228193505,228195562,228197304,228205096,228212100,228217289,228220477,228222549	{}
2	228548478	228582744	NM_025243.4	0.0	-	MANE Select	16266	SLC19A3	AR	228552112	228567034	228548478,228552881,228560604,228563451,228566884,228582658	228552289,228553023,228560797,228564280,228567036,228582744	{}
2	240896788	240964759	NM_004544.4	0.0	-	MANE Select	7684	NDUFA10	AR	240900534	240964718	240896788,240929490,240944626,240946732,240951033,240954155,240957969,240960613,240961588,240964643	240900603,240929599,240944712,240946787,240951113,240954277,240958056,240960829,240961757,240964759	{}
2	242674044	242708226	NM_152783.5	0.0	+	MANE Select	28358	D2HGDH	AR	242674639	242707384	242674044,242674547,242680447,242681849,242683036,242684123,242689565,242690660,242695263,242707124	242674110,242674931,242680505,242681989,242683230,242684292,242689709,242690803,242695429,242708226	{}
3	3168623	3190707	NM_182916.3	0.0	+	MANE Select	17341	TRNT1	AR	3170724	3189838	3168623,3170697,3178943,3182193,3186267,3188113,3189133,3189589	3168674,3170872,3179137,3182332,3186394,3188307,3189387,3190707	{}
3	25760434	25824934	NM_018297.4	0.0	-	MANE Select	17646	NGLY1	AR	25760950	25824881	25760434,25761504,25770623,25773809,25775362,25777494,25778824,25781067,25792588,25805556,25820064,25824750	25761126,25761682,25770809,25773974,25775473,25777640,25778946,25781290,25792754,25805802,25820179,25824934	{}
3	39424860	39438842	NM_017875.4	0.0	+	MANE Select	26054	SLC25A38	AR	39425215	39438011	39424860,39430985,39431913,39432931,39433343,39435900,39437888	39425284,39431107,39431998,39433111,39433512,39436067,39438842	{}
3	42132848	42267382	NM_001042646.3	0.0	+	MANE Select	29947	TRAK1	AR	42132961	42265229	42132848,42166911,42218305,42226176,42229536,42230507,42233049,42234566,42235315,42236295,42240668,42242309,42243927,42251258,42260985,42264433	42133052,42167106,42218382,42226293,42229637,42230616,42233128,42234697,42235390,42236433,42240745,42242546,42244244,42251477,42261088,42267382	{}
3	43407339	43663503	NM_018075.5	0.0	-	MANE Select	25519	ANO10	AR	43408397	43647344	43407339,43474102,43591211,43596769,43602711,43607144,43616300,43618183,43621844,43640023,43641875,43647205,43663400	43408466,43474219,43591340,43596961,43602894,43607219,43616356,43618753,43621964,43640158,43642073,43647355,43663503	{}
3	45430067	45590899	NM_015340.4	0.0	+	MANE Select	17095	LARS2	AR	45435945	45589022	45430067,45433074,45435924,45441736,45458973,45461160,45488382,45500234,45515734,45517959,45527183,45530188,45533008,45537766,45541933,45554626,45557585,45559394,45561710,45565488,45583320,45588842	45430172,45433140,45436179,45441865,45459065,45461221,45488472,45500378,45515842,45518119,45527288,45530304,45533292,45537865,45542071,45554727,45557768,45559564,45561788,45565600,45583448,45590899	{}
3	48894358	48936315	NM_000387.6	0.0	-	MANE Select	1421	SLC25A20	AR	48895142	48936227	48894358,48895939,48896524,48896987,48899974,48916790,48921429,48929412,48936122	48895205,48896064,48896634,48897060,48900092,48916881,48921557,48929505,48936315	{}
3	49059553	49060928	NM_199069.2	0.0	+	MANE Select	29918	NDUFAF3	AR	49059577	49060605	49059553,49059778,49060134,49060308,49060488	49059654,49059971,49060201,49060409,49060928	{}
3	49133364	49142190	NM_005051.3	0.0	-	MANE Select	9751	QARS1	AR	49133461	49142166	49133364,49135424,49135624,49135785,49136032,49136317,49136542,49136776,49136942,49137193,49137393,49137622,49137812,49138007,49138787,49139052,49139260,49139637,49139851,49140777,49141063,49141295,49141756,49142049	49133512,49135550,49135691,49135913,49136125,49136422,49136686,49136864,49137080,49137286,49137524,49137731,49137891,49138107,49138874,49139138,49139332,49139698,49139905,49140842,49141139,49141405,49141904,49142190	{}
3	49454210	49459906	NM_000481.4	0.0	-	MANE Select	473	AMT	AR	49454972	49459883	49454210,49455250,49456403,49456692,49457142,49457643,49458924,49459536,49459793	49455151,49455406,49456584,49456838,49457221,49457775,49459005,49459704,49459906	{}
3	58413356	58419559	NM_000925.4	0.0	-	MANE Select	8808	PDHB	AR	58413760	58419536	58413356,58414199,58415434,58415854,58416383,58417319,58417457,58417603,58419357,58419494	58413906,58414341,58415526,58415965,58416669,58417355,58417520,58417711,58419411,58419559	{}
3	66271426	66429347	NM_001379210.1	0.0	+	MANE Select	20661	SLC25A26	AR	66271520	66428231	66271426,66286967,66293626,66312474,66313755,66396787,66413283,66419901,66420952,66428113	66271553,66287124,66293736,66312579,66313803,66396832,66413353,66419966,66421026,66429347	{}
3	101280711	101285290	NM_017819.4	0.0	+	MANE Select	26022	TRMT10C	AR	101283625	101284837	101280711,101283613	101280847,101285290	{}
3	119217393	119243937	NM_016589.4	0.0	+	MANE Select	1321	TIMMDC1	AR	119217580	119242603	119217393,119219541,119222378,119222800,119232487,119236051,119242452	119217774,119219707,119222467,119222868,119232566,119236162,119243937	{}
3	128598462	128631957	NM_014049.5	0.0	+	MANE Select	21497	ACAD9	AR	128598534	128631450	128598462,128603495,128612397,128614152,128615278,128616474,128618129,128620118,128621395,128622904,128623228,128624963,128627027,128627815,128628186,128628863,128629583,128631349	128598684,128603589,128612499,128614259,128615379,128616553,128618304,128620192,128621471,128622975,128623348,128625092,128627107,128627942,128628264,128628992,128629656,128631957	{}
3	131181055	131221815	NM_007208.4	0.0	-	MANE Select	10379	MRPL3	AR	131181566	131221665	131181055,131186934,131188539,131190014,131206523,131208824,131217022,131219273,131220374,131221573	131181719,131187012,131188617,131190123,131206584,131208924,131217121,131219365,131220559,131221815	{}
3	139062861	139075971	NM_020191.4	0.0	+	MANE Select	14508	MRPS22	AR	139062868	139075856	139062861,139065719,139067001,139069020,139069818,139071488,139074523,139075760	139063040,139065886,139067166,139069164,139069902,139071634,139074632,139075971	{}
3	158362315	158413370	NM_024996.7	0.0	+	MANE Select	13780	GFM1	AR	158362423	158409256	158362315,158363417,158363953,158364531,158366829,158369884,158371098,158372335,158376710,158378662,158380416,158383125,158384092,158399783,158402312,158407951,158408927,158409124	158362504,158363570,158364086,158364736,158366946,158370035,158371256,158372420,158376848,158378764,158380473,158383263,158384175,158399946,158402457,158408112,158408981,158413370	{}
3	180701496	180707524	NM_145261.4	0.0	-	MANE Select	30528	DNAJC19	AR	180702427	180707390	180701496,180703713,180704730,180705810,180705965,180707387	180702498,180703784,180704810,180705884,180706017,180707524	{}
3	184908411	184971837	NM_001966.4	0.0	-	MANE Select	3247	EHHADH	AD	184910013	184971810	184908411,184922203,184935923,184947219,184953077,184966201,184971736	184911275,184922545,184936028,184947331,184953250,184966305,184971837	{}
3	193310996	193415600	NM_015560.3	0.0	+		8140	OPA1	AD/AR	193311166	193409916	193310996,193332511,193333462,193334966,193336657,193349400,193353206,193354983,193355740,193360553,193360763,193361161,193361316,193361763,193363341,193363516,193364853,193365858,193366583,193372650,193374868,193376675,193377270,193380610,193382668,193384084,193384958,193409851,193412394	193311198,193332830,193333559,193335074,193336725,193349454,193353311,193355070,193355854,193360634,193360838,193361233,193361416,193361894,193363414,193363589,193364969,193365923,193366660,193372816,193375021,193376784,193377350,193380751,193382785,193384178,193385069,193409921,193415600	{}
3	193310996	193415600	NM_130837.3	0.0	+	MANE Select	8140	OPA1	AD/AR	193311166	193409916	193310996,193332511,193333462,193334966,193335572,193336657,193343880,193349400,193353206,193354983,193355740,193360553,193360763,193361161,193361316,193361763,193363341,193363516,193364853,193365858,193366583,193372650,193374868,193376675,193377270,193380610,193382668,193384084,193384958,193409851,193412394	193311198,193332830,193333559,193335074,193335626,193336725,193343991,193349454,193353311,193355070,193355854,193360634,193360838,193361233,193361416,193361894,193363414,193363589,193364969,193365923,193366660,193372816,193375021,193376784,193377350,193380751,193382785,193384178,193385069,193409921,193415600	{}
4	6271576	6304992	NM_006005.3	0.0	+	MANE Select	12762	WFS1	AD/AR	6279182	6304195	6271576,6279177,6288819,6290713,6292923,6293643,6296767,6302383	6271741,6279414,6288902,6290858,6293094,6293724,6296916,6304992	{}
4	39460675	39481126	NM_006859.4	0.0	+	MANE Select	16429	LIAS	AR	39460737	39478735	39460675,39462409,39463815,39465144,39466665,39466904,39469137,39471638,39472855,39474719,39478682	39460782,39462582,39463909,39465225,39466822,39466962,39469266,39471784,39472926,39474831,39481126	{}
4	84184976	84205951	NM_001358921.2	0.0	-	MANE Select	25223	COQ2	AD/AR	84185351	84205917	84184976,84188738,84191012,84193239,84194648,84200100,84205664	84185516,84188927,84191146,84193325,84194770,84200267,84205951	{}
4	103790148	103813964	NM_001008388.5	0.0	+	MANE Select	24212	CISD2	AR	103790241	103808587	103790148,103806372,103808497	103790344,103806587,103813964	{}
4	106290233	106395219	NM_176869.3	0.0	-	MANE Select	28883	PPA2	AR	106290881	106395207	106290233,106291993,106307723,106317405,106320193,106345352,106359106,106367539,106370506,106374754,106377837,106395050	106290910,106292030,106307793,106317491,106320321,106345479,106359193,106367659,106370560,106374799,106377902,106395219	{}
4	108911044	108956327	NM_005327.7	0.0	+	MANE Select	4799	HADH	AR	108911088	108955513	108911044,108930914,108935586,108940695,108944629,108948843,108954331,108955394	108911220,108931043,108935744,108940822,108944719,108948916,108954448,108956327	{}
4	152591655	152682159	NM_004564.3	0.0	-	MANE Select	8849	GATB	AR	152592325	152682134	152591655,152593913,152600964,152609781,152622480,152625002,152626336,152629139,152637160,152638027,152640576,152679923,152681958	152592454,152594048,152601043,152609915,152622670,152625047,152626421,152629253,152637283,152638226,152640690,152680074,152682159	{}
4	159593447	159630775	NM_004453.4	0.0	+	MANE Select	3483	ETFDH	AR	159593608	159629679	159593447,159601618,159603346,159605743,159606252,159611499,159616648,159618710,159620138,159624574,159627340,159627780,159629515	159593642,159601759,159603576,159605825,159606371,159611577,159616795,159618851,159620282,159624743,159627523,159628002,159630775	{}
4	186064419	186071536	NM_001151.4	0.0	+	MANE Select	10990	SLC25A4	AD/AR	186064526	186068125	186064419,186065917,186066912,186067967	186064637,186066404,186067053,186071536	{}
5	218434	257197	NM_004168.4	0.0	+	MANE Select	10680	SDHA	AR	218470	256535	218434,223596,224474,225533,225997,228299,230990,233591,235258,236542,240472,251106,251452,254507,256448	218533,223683,224636,225677,226162,228448,231115,233760,235454,236714,240591,251218,251583,254621,257197	{}
5	1801520	1816162	NM_004553.6	0.0	+	MANE Select	7713	NDUFS6	AR	1801531	1816030	1801520,1802434,1814452,1815964	1801663,1802488,1814575,1816162	{}
5	36192690	36242027	NM_001085411.3	0.0	-	MANE Select	26404	NADK2	AR	36195245	36241900	36192690,36197642,36200328,36201207,36207271,36211945,36217849,36219697,36225643,36226576,36227578,36241600	36195384,36197766,36200382,36201263,36207367,36212024,36217986,36219781,36225725,36226665,36227667,36242027	{}
5	41730166	41870527	NM_000436.4	0.0	-	MANE Select	8527	OXCT1	AR	41731830	41870460	41730166,41739491,41749628,41762212,41794104,41794778,41801123,41803170,41805668,41807432,41840552,41842776,41850131,41853520,41861415,41862743,41870382	41731872,41739593,41749709,41762302,41794180,41794851,41801172,41803265,41805783,41807540,41840613,41842883,41850281,41853656,41861506,41862852,41870527	{}
5	43603281	43707498	NM_182977.3	0.0	+	MANE Select	7863	NNT	AR	43609297	43704506	43603281,43609244,43613009,43615949,43619133,43624133,43628301,43644293,43644712,43645458,43649248,43650578,43651840,43653119,43655941,43656754,43659272,43675612,43677826,43700220,43702722,43704356	43603396,43609448,43613239,43616167,43619221,43624222,43628489,43644427,43644904,43645612,43649410,43650689,43651986,43653315,43656175,43656915,43659452,43675772,43677908,43700339,43702838,43707498	{}
5	52856468	52979168	NM_002495.4	0.0	+	MANE Select	7711	NDUFS4	AR	52856492	52979051	52856468,52899281,52942062,52954380,52978947	52856590,52899360,52942235,52954454,52979168	{}
5	60241031	60448853	NM_174889.5	0.0	+	MANE Select	28086	NDUFAF2	AR	60241082	60448782	60241031,60368951,60394818,60448530	60241209,60369041,60394859,60448853	{}
5	74017030	74062942	NM_032380.5	0.0	-	MANE Select	29682	GFM2	AR	74017479	74059567	74017030,74018203,74021464,74021765,74026084,74028846,74032620,74034142,74034326,74035813,74037353,74041502,74041929,74043516,74046403,74047192,74054673,74055193,74056726,74059504,74062762	74017608,74018386,74021580,74021951,74026223,74028923,74032810,74034242,74034467,74035962,74037434,74041682,74041990,74043605,74046492,74047318,74054771,74055251,74056811,74059591,74062942	{}
5	110074707	110100857	NM_138773.4	0.0	+	MANE Select	25198	SLC25A46	AR	110074820	110097482	110074707,110077747,110079430,110081969,110083863,110091164,110092401,110096903	110075103,110077790,110079488,110082047,110083964,110091221,110092459,110100857	{}
5	130506636	130541121	NM_181705.4	0.0	+	MANE Select	28072	LYRM7	AR	130506713	130535294	130506636,130515787,130517921,130522720,130535223	130506731,130515860,130517992,130522802,130541121	{}
5	131705401	131731304	NM_003060.4	0.0	+	MANE Select	10969	SLC22A5	AR	131705664	131729964	131705401,131714069,131719838,131721019,131722716,131724612,131726381,131728124,131729367,131729876	131706057,131714173,131719993,131721191,131722843,131724713,131726596,131728307,131729503,131731304	{}
5	132202333	132204539	NM_014402.5	0.0	+	MANE Select	29594	UQCRQ	AR	132202573	132203274	132202333,132202560,132203179	132202379,132202727,132204539	{}
5	137889444	137911090	NM_004134.7	0.0	-	MANE Select	5244	HSPA9	AD/AR	137891725	137911007	137889444,137892140,137892462,137893090,137893557,137894241,137895552,137897268,137902314,137902689,137903143,137903337,137904613,137906648,137909451,137909756,137910926	137891803,137892281,137892555,137893185,137893675,137894346,137895780,137897478,137902407,137902852,137903250,137903411,137904738,137906830,137909539,137909815,137911090	{}
5	140024869	140027215	NM_002488.5	0.0	-	MANE Select	7685	NDUFA2	AR	140025171	140027168	140024869,140026840,140027067	140025263,140026947,140027215	{}
5	140071039	140078890	NM_012208.4	0.0	+	MANE Select	4817	HARS2	AR	140071233	140078137	140071039,140073175,140073519,140073769,140075092,140075322,140075687,140076105,140076527,140076748,140077153,140077516,140078077	140071341,140073250,140073639,140073865,140075218,140075430,140075786,140076199,140076655,140076991,140077270,140077663,140078890	{}
6	5108652	5261183	NM_020408.6	0.0	-	MANE Select	21365	LYRM4	AR	5109656	5260966	5108652,5216850,5260880	5109725,5216971,5261183	{}
6	5261745	5771816	NM_006567.5	0.0	+	MANE Select	21062	FARS2	AR	5368803	5771662	5261745,5368782,5404774,5431273,5545412,5613401,5771523	5261893,5369415,5404934,5431405,5545573,5613553,5771816	{}
6	30882014	30894236	NM_020442.6	0.0	+	MANE Select	21642	VARS2	AR	30882613	30893987	30882014,30882586,30882932,30883131,30883522,30883757,30883928,30884654,30884881,30885471,30886603,30887534,30887865,30888109,30888444,30888841,30889006,30889365,30889701,30889892,30890226,30890482,30890674,30890880,30891129,30892130,30893050,30893320,30893656,30893885	30882121,30882814,30883014,30883232,30883644,30883824,30884026,30884736,30885001,30885583,30886692,30887625,30887993,30888213,30888526,30888918,30889082,30889468,30889772,30890018,30890331,30890551,30890753,30891008,30891282,30892337,30893162,30893496,30893785,30894236	{}
6	33664540	33679477	NM_032340.4	0.0	-	MANE Select	21237	UQCC2	AR	33665429	33679463	33664540,33668220,33669122,33679325	33665527,33668290,33669197,33679477	{}
6	44266467	44281084	NM_020745.4	0.0	-	MANE Select	21022	AARS2	AR	44268283	44281060	44266467,44268892,44269117,44269796,44270127,44270538,44270802,44271022,44271917,44272156,44272381,44272790,44273389,44274016,44274230,44274659,44274985,44278035,44278730,44279126,44279808,44280817	44268448,44269003,44269201,44269907,44270250,44270647,44270912,44271160,44272058,44272270,44272554,44272935,44273523,44274128,44274269,44274768,44275131,44278180,44278898,44279272,44280000,44281084	{}
6	74171459	74218959	NM_012123.4	0.0	+	MANE Select	19261	MTO1	AR	74171577	74210458	74171459,74175931,74176211,74183087,74189454,74189658,74190397,74191762,74192171,74201956,74207458,74210296	74171794,74176131,74176329,74183377,74189567,74189849,74190528,74191967,74192343,74202075,74207619,74218959	{}
6	88223655	88299705	NM_020320.5	0.0	-	MANE Select	21406	RARS2	AR	88224130	88299675	88223655,88224674,88226523,88227886,88228347,88228541,88229300,88229897,88231181,88234274,88239259,88240501,88251635,88255333,88258308,88265125,88272419,88273847,88279234,88299639	88224217,88224738,88226598,88227982,88228457,88228609,88229425,88229974,88231242,88234370,88239366,88240660,88251712,88255417,88258364,88265223,88272503,88273950,88279308,88299705	{}
6	97337190	97345767	NM_014165.4	0.0	-	MANE Select	21034	NDUFAF4	AR	97338979	97345677	97337190,97344619,97345541	97339267,97344723,97345767	{}
6	99316410	99395822	NM_001278716.2	0.0	-	MANE Select	13601	FBXL4	AR	99322153	99374864	99316410,99323290,99328428,99347143,99353301,99365249,99374352,99375580,99382637,99395681	99322317,99323603,99328500,99347357,99353546,99365595,99374936,99375698,99382755,99395822	{}
6	107018645	107077373	NM_032730.5	0.0	-	MANE Select	18647	RTN4IP1	AR	107019870	107076896	107018645,107031202,107035553,107040038,107050748,107067076,107069299,107070692,107076622	107019978,107031295,107035737,107040175,107050797,107067201,107069368,107070844,107077373	{}
6	107077452	107116292	NM_018292.5	0.0	+	MANE Select	21020	QRSL1	AR	107077556	107113877	107077452,107088223,107088697,107090868,107096899,107100083,107100341,107102604,107103489,107110854,107113656	107077580,107088383,107088796,107090965,107097076,107100259,107100457,107102797,107103607,107111060,107116292	{}
6	107473765	107780768	NM_020381.4	0.0	-	MANE Select	23041	PDSS2	AR	107475822	107780489	107473765,107515025,107531642,107533312,107566751,107595232,107655401,107780193	107475981,107515058,107531774,107533486,107566823,107595431,107655536,107780768	{}
6	151725896	151773261	NM_017909.4	0.0	-	MANE Select	21176	RMND1	AR	151726369	151766946	151725896,151726854,151738413,151742379,151743675,151744659,151748616,151751272,151754289,151757580,151766442,151773150	151726402,151726971,151738534,151742456,151743740,151744766,151748717,151751312,151754365,151757689,151766960,151773261	{}
6	158530550	158589294	NM_032861.4	0.0	-	MANE Select	21061	SERAC1	AR	158532397	158579395	158530550,158534480,158535820,158537216,158538758,158540060,158541456,158549139,158551404,158564087,158565330,158567813,158569896,158571484,158576346,158579304,158589171	158532534,158534624,158536003,158537314,158538853,158540202,158541607,158549302,158551518,158564216,158565452,158567945,158569986,158571621,158576383,158579396,158589294	{}
6	161768448	163148798	NM_004562.3	0.0	-	MANE Select	8607	PRKN	AR	161771130	163148700	161768448,161781119,161807825,161969885,161990386,162206803,162394333,162475122,162622162,162683556,162864341,163148693	161771243,161781237,161807909,161970035,161990448,162206940,162394449,162475206,162622284,162683797,162864505,163148798	{}
6	166778406	166796428	NM_016098.4	0.0	-	MANE Select	21606	MPC1	AR	166778916	166796364	166778406,166779461,166780282,166783705,166796293	166778941,166779594,166780379,166783709,166796428	{}
7	10971569	10979780	NM_002489.4	0.0	-	MANE Select	7687	NDUFA4	AR	10973262	10979684	10971569,10977716,10978434,10979642	10973319,10977774,10978523,10979780	{}
7	25158274	25164879	NM_018947.6	0.0	-	MANE Select	19986	CYCS	AD	25163319	25163738	25158274,25163569,25164818	25163468,25163746,25164879	{}
7	30634493	30673649	NM_002047.4	0.0	+	MANE Select	4162	GARS1	AD	30634537	30673476	30634493,30638411,30639562,30640674,30642649,30643111,30649200,30651711,30655511,30656729,30661008,30661932,30665849,30668175,30671063,30671862,30673350	30634759,30638513,30639665,30640816,30642738,30643188,30649346,30651861,30655674,30656894,30661116,30662078,30665935,30668285,30671157,30672053,30673649	{}
7	44646225	44748665	NM_002541.4	0.0	+	MANE Select	8124	OGDH	AR	44663942	44747598	44646225,44663915,44684925,44687255,44706334,44713385,44714009,44714776,44715568,44721318,44733423,44734022,44735623,44736027,44736512,44736968,44737202,44737790,44739739,44741141,44746823,44747180,44747477	44646252,44664164,44685117,44687358,44706450,44713540,44714156,44714867,44715748,44721447,44733603,44734175,44735726,44736156,44736663,44737096,44737381,44737862,44739868,44741214,44746987,44747335,44748665	{}
7	75677423	75696826	NM_005918.4	0.0	+	MANE Select	6971	MDH2	AR	75677478	75695728	75677423,75684147,75686727,75687286,75689690,75692832,75693656,75694119,75695596	75677544,75684316,75686811,75687396,75689816,75692910,75693756,75694271,75696826	{}
7	95749531	95951410	NM_014251.3	0.0	-	MANE Select	10983	SLC25A13	AR	95750502	95951268	95749531,95750966,95751150,95761054,95775867,95799356,95800783,95813588,95814238,95818605,95818892,95820420,95822348,95838149,95864113,95906507,95926209,95951253	95750689,95751057,95751309,95761193,95776008,95799437,95800836,95813747,95814323,95818690,95818986,95820559,95822495,95838289,95864229,95906650,95926263,95951410	{}
7	102937881	102955133	NM_004279.3	0.0	+	MANE Select	9119	PMPCB	AR	102937906	102952718	102937881,102939014,102939889,102940624,102944288,102944857,102948042,102949398,102950761,102952089,102952254,102952502,102952653	102938005,102939155,102939976,102940754,102944487,102944937,102948155,102949542,102950922,102952175,102952343,102952578,102955133	{}
7	107531627	107561643	NM_000108.5	0.0	+	MANE Select	2898	DLD	AR	107531695	107559704	107531627,107533644,107542182,107542769,107543922,107545402,107545805,107546711,107555950,107557238,107557717,107558368,107559454,107559638	107531734,107533723,107542262,107542838,107543992,107545503,107545949,107546813,107556141,107557409,107557907,107558506,107559544,107561643	{}
7	108110860	108166579	NM_001256007.3	0.0	-	MANE Select	28900	PNPLA8	AR	108112844	108155935	108110860,108119627,108128202,108131853,108137027,108137926,108142934,108154587,108154879,108161919,108166472	108113119,108119823,108128397,108131911,108137199,108138021,108143086,108154737,108156018,108161965,108166579	{}
7	121713602	121784303	NM_005763.4	0.0	-	MANE Select	17366	AASS	AR	121716542	121773780	121713602,121717891,121718915,121719650,121721553,121726065,121731756,121732896,121733101,121738503,121738798,121741424,121741674,121753171,121753651,121755127,121756686,121756932,121758360,121758616,121766428,121769414,121773570,121784214	121716661,121718068,121719004,121719766,121721649,121726233,121731897,121733005,121733212,121738630,121738920,121741492,121741734,121753283,121753774,121755276,121756814,121757011,121758507,121758684,121766513,121769591,121773795,121784303	{}
7	141251209	141355044	NM_018238.4	0.0	+	MANE Select	21869	AGK	AR	141255266	141352724	141251209,141255252,141292945,141296361,141301004,141310994,141313945,141315270,141321531,141333700,141336759,141341047,141341610,141349062,141351324,141352586	141251234,141255367,141292985,141296441,141301080,141311087,141313978,141315365,141321601,141333780,141336817,141341198,141341708,141349133,141351409,141355044	{}
7	141438157	141450288	NM_003143.3	0.0	+	MANE Select	11317	SSBP1	AD	141438966	141450154	141438157,141438923,141441968,141443360,141443701,141445295,141450110	141438210,141438990,141442029,141443501,141443789,141445384,141450288	{}
7	144149033	144533146	NM_022445.4	0.0	-	MANE Select	17358	TPK1	AR	144150637	144532695	144149033,144245583,144288515,144320258,144345899,144380001,144462972,144532652,144533059	144150756,144245695,144288662,144320354,144345972,144380071,144463044,144532711,144533146	{}
8	37620162	37637286	NM_007198.4	0.0	+	MANE Select	9457	PLPBP	AR	37620177	37635622	37620162,37623043,37623228,37623797,37630272,37632856,37633435,37635490	37620276,37623151,37623264,37623873,37630407,37632999,37633534,37637286	{}
8	74888429	74895018	NM_017866.6	0.0	+	MANE Select	26050	TMEM70	AR	74888516	74893856	74888429,74890990,74893389	74888726,74891096,74895018	{}
8	75262637	75279111	NM_018972.4	0.0	+	MANE Select	15968	GDAP1	AD/AR	75262696	75276602	75262637,75263508,75272371,75274118,75275173,75276219	75262813,75263701,75272545,75274213,75275288,75279111	{}
8	94929150	94938296	NM_018444.4	0.0	+	MANE Select	9279	PDP1	AR	94934287	94935901	94929150,94934243	94929307,94938296	{}
8	96037216	96070938	NM_152416.4	0.0	+	MANE Select	28625	NDUFAF6	AR	96037236	96070165	96037216,96044222,96047681,96053797,96057772,96059221,96060684,96064401,96070036	96037433,96044322,96047804,96053854,96057875,96059355,96060786,96064458,96070938	{}
8	97235174	97247773	NM_006294.5	0.0	-	MANE Select	12582	UQCRB	AR	97243282	97247758	97235174,97244001,97245383,97247739	97243360,97244168,97245455,97247773	{}
8	103216729	103251189	NM_015713.5	0.0	-	MANE Select	17296	RRM2B	AD/AR	103220360	103251102	103216729,103225003,103226281,103231041,103236273,103237112,103238145,103244376,103251054	103220513,103225117,103226386,103231175,103236368,103237246,103238262,103244532,103251189	{}
8	125551363	125562220	NM_005005.3	0.0	+	MANE Select	7704	NDUFB9	AR	125551427	125562133	125551363,125555327,125559240,125562001	125551528,125555520,125559354,125562220	{}
8	145149978	145152428	NM_001916.5	0.0	+	MANE Select	2579	CYC1	AR	145150002	145152239	145149978,145150735,145151026,145151239,145151486,145151936,145152134	145150131,145150932,145151153,145151397,145151647,145152037,145152428	{}
9	6532466	6645729	NM_000170.3	0.0	-	MANE Select	4313	GLDC	AR	6533016	6645499	6532466,6534707,6536063,6540050,6550802,6553367,6554668,6556152,6558558,6565353,6587140,6588400,6588617,6589194,6592142,6592850,6595013,6602108,6604587,6605130,6606591,6610191,6620183,6644613,6645244	6533160,6534788,6536236,6540146,6550914,6553509,6554781,6556302,6558684,6565429,6587283,6588442,6588702,6589292,6592223,6592990,6595119,6602205,6604784,6605278,6606669,6610356,6620319,6644692,6645729	{}
9	32972613	33001626	NM_001195248.2	0.0	-	MANE Select	15984	APTX	AR	32973495	32989889	32972613,32974455,32984628,32985968,32987541,32988080,32989756,33001564	32973650,32974559,32984855,32986028,32987844,32988127,32989893,33001626	{}
9	37779710	37785061	NM_016042.4	0.0	-	MANE Select	17944	EXOSC3	AR	37780675	37785041	37779710,37781982,37783910,37784717	37780877,37782134,37784060,37785061	{}
9	71650667	71693992	NM_000144.5	0.0	+	MANE Select	3951	FXN	AR	71650698	71687678	71650667,71661300,71668055,71679853,71687527	71650863,71661398,71668176,71679951,71693992	{}
9	88879460	88897453	NM_030940.4	0.0	-	MANE Select	28660	ISCA1	AR	88880957	88897373	88879460,88886921,88889103,88897292	88881106,88887027,88889157,88897453	{}
9	93976104	94124200	NM_001698.3	0.0	-	MANE Select	890	AUH	AR	93976629	94124171	93976104,93978340,93979558,93983086,94058302,94060265,94087599,94118164,94118369,94123909	93976707,93978388,93979609,93983274,94058359,94060358,94087686,94118252,94118437,94124200	{}
9	130374555	130454978	NM_001032221.6	0.0	+	MANE Select	11444	STXBP1	AD	130374682	130453136	130374555,130413881,130415993,130420653,130422308,130423380,130425483,130427525,130428444,130430358,130432176,130434329,130435459,130438082,130438922,130440709,130442435,130444684,130453053	130374719,130413931,130416075,130420730,130422387,130423484,130425632,130427610,130428575,130430466,130432237,130434395,130435540,130438221,130439032,130440811,130442521,130444839,130454978	{}
9	130374555	130454978	NM_003165.6	0.0	+	MANE Plus Clinical	11444	STXBP1	AD	130374682	130446756	130374555,130413881,130415993,130420653,130422308,130423380,130425483,130427525,130428444,130430358,130432176,130434329,130435459,130438082,130438922,130440709,130442435,130444684,130446646,130453053	130374719,130413931,130416075,130420730,130422387,130423484,130425632,130427610,130428575,130430466,130432237,130434395,130435540,130438221,130439032,130440811,130442521,130444839,130446772,130454978	{}
9	131085117	131096351	NM_016035.5	0.0	+	MANE Select	19693	COQ4	AR	131085137	131095924	131085117,131085294,131087421,131088057,131094431,131095128,131095752	131085207,131085426,131087518,131088160,131094561,131095222,131096351	{}
9	136218612	136223363	NM_003172.4	0.0	-	MANE Select	11474	SURF1	AR	136218767	136223329	136218612,136218915,136219300,136219548,136220603,136221513,136221678,136223123,136223275	136218837,136218997,136219463,136219621,136220795,136221596,136221812,136223175,136223363	{}
9	138392527	138396517	NM_016034.5	0.0	+	MANE Select	14495	MRPS2	AR	138392556	138395979	138392527,138392843,138393689,138395387	138392599,138392969,138393819,138396517	{}
9	139305109	139318213	NM_015160.3	0.0	+	MANE Select	18667	PMPCA	AR	139305120	139317716	139305109,139306448,139306941,139307261,139309004,139310742,139311402,139312468,139313006,139313279,139313495,139316283,139317546	139305191,139306651,139307021,139307344,139309099,139310843,139311666,139312561,139313125,139313370,139313558,139316428,139318213	{}
10	3179919	3214974	NM_014889.4	0.0	-	MANE Select	17663	PITRM1	AR	3180222	3214964	3179919,3180426,3181095,3182878,3185580,3186483,3187787,3189341,3189763,3190178,3190362,3191812,3193438,3197782,3199121,3199626,3200231,3201105,3202039,3202395,3205916,3207429,3207604,3208420,3209127,3212295,3214908	3180316,3180529,3181241,3183004,3185693,3186558,3187908,3189442,3189929,3190255,3190483,3191945,3193555,3197921,3199256,3199723,3200345,3201234,3202128,3202522,3206077,3207526,3207719,3208572,3209234,3212398,3214974	{}
10	12110952	12165220	NM_018706.7	0.0	+	MANE Select	23537	DHTKD1	AD/AR	12111032	12162887	12110952,12123470,12126538,12129533,12130984,12133511,12136071,12139682,12142176,12143040,12148244,12149907,12154898,12159671,12160747,12162180,12162785	12111186,12123626,12126750,12129728,12131254,12133683,12136270,12139995,12142261,12143180,12148395,12150014,12155063,12159754,12160917,12162266,12165220	{}
10	26986629	27035727	NM_014317.5	0.0	+	MANE Select	17759	PDSS1	AR	26986640	27035402	26986629,26991090,26993605,26994214,26998566,27009146,27012734,27012942,27024168,27024394,27031425,27035261	26986769,26991123,26993670,26994323,26998697,27009288,27012846,27013052,27024249,27024508,27031506,27035727	{}
10	27399039	27443313	NM_014263.4	0.0	-	MANE Select	12843	YME1L1	AR	27400905	27443139	27399039,27403449,27404988,27405147,27406504,27408222,27409363,27410314,27411769,27412475,27415624,27420787,27422967,27423759,27425204,27431315,27434356,27437834,27443106	27401049,27403536,27405062,27405274,27406656,27408378,27409476,27410377,27411902,27412628,27415715,27420870,27423051,27423910,27425314,27431414,27434519,27437969,27443313	{}
10	30598729	30638207	NM_018109.4	0.0	-	MANE Select	25532	MTPAP	AR	30602537	30638204	30598729,30604891,30605046,30611319,30615352,30625731,30629154,30630396,30638047	30602900,30604965,30605139,30611546,30615564,30625956,30629379,30630569,30638207	{}
10	60145169	60158980	NM_003201.3	0.0	+	MANE Select	11741	TFAM	AR	60145307	60154834	60145169,60145979,60147949,60148429,60150524,60154117,60154687	60145408,60146098,60148020,60148579,60150620,60154174,60158980	{}
10	70173820	70231730	NM_001080449.3	0.0	-	MANE Select	2939	DNA2	AD/AR	70174795	70231621	70173820,70176465,70178790,70179559,70181981,70182271,70182453,70190192,70191618,70191962,70192150,70196767,70202673,70204677,70206052,70209784,70218860,70225423,70227879,70229737,70231547	70174864,70176612,70178970,70179649,70182186,70182361,70182647,70190417,70191728,70192072,70192267,70196998,70202868,70204840,70206170,70210004,70218992,70225569,70228063,70229920,70231730	{}
10	73576054	73611008	NM_002778.4	0.0	-	MANE Select	9498	PSAP	AR	73577197	73610978	73576054,73578373,73578787,73579221,73579470,73579996,73581632,73585593,73587770,73588633,73590882,73591602,73594128,73610938	73577233,73578481,73578868,73579379,73579657,73580092,73581764,73585650,73587914,73588834,73591008,73591677,73594262,73611008	{}
10	74127097	74385837	NM_001195518.2	0.0	-	MANE Select	1530	MICU1	AR	74127952	74326551	74127097,74135540,74167686,74182991,74234857,74236931,74267912,74293503,74310936,74322652,74326390,74385767	74128113,74135630,74167795,74183129,74235055,74237014,74268027,74293547,74311099,74322821,74326552,74385837	{}
10	75008606	75012402	NM_016065.4	0.0	-	MANE Select	14048	MRPS16	AR	75010609	75012240	75008606,75011520,75012227	75010749,75011781,75012402	{}
10	88428267	88459807	NM_001368067.1	0.0	+	MANE Plus Clinical	15710	LDB3	AD	88428448	88459131	88428267,88428425,88439123,88439838,88445434,88446825,88451652,88452291,88459034	88428327,88428541,88439275,88439914,88445457,88447029,88451822,88452328,88459807	{}
10	88428267	88495829	NM_007078.3	0.0	+	MANE Select	15710	LDB3	AD	88428448	88492733	88428267,88428425,88439123,88439838,88441192,88451652,88452291,88466287,88469661,88476083,88477720,88478483,88485893,88492643	88428327,88428541,88439275,88439914,88441560,88451822,88452328,88466476,88469807,88476528,88477901,88478604,88486009,88495829	{}
10	101470624	101491884	NM_078470.6	0.0	-	MANE Select	2263	COX15	AR	101474343	101491806	101470624,101476104,101478102,101480743,101483712,101486724,101487197,101489309,101491716	101474475,101476218,101478257,101480825,101483880,101486911,101487320,101489491,101491884	{}
10	102283496	102289628	NM_005004.4	0.0	-	MANE Select	7703	NDUFB8	AR	102283593	102289608	102283496,102286155,102286731,102289136,102289523	102283686,102286311,102286831,102289263,102289628	{}
10	102747299	102754160	NM_021830.5	0.0	+	MANE Select	1160	TWNK	AD/AR	102747967	102753267	102747299,102749400,102750192,102750625,102752946	102749210,102749641,102750300,102750767,102754160	{}
10	105148806	105156232	NM_001206427.2	0.0	-	MANE Select	30889	ATP5MK	AR	105151950	105152214	105148806,105151947,105152127,105155502,105156165	105148923,105152040,105152223,105155789,105156232	{}
10	120900278	120925226	NM_213649.2	0.0	-	MANE Select	16088	SFXN4	AR	120900753	120925159	120900278,120905747,120907286,120914573,120916189,120917179,120917382,120917520,120919239,120920426,120920566,120921851,120923642,120925048	120900831,120905865,120907372,120914689,120916268,120917245,120917439,120917574,120919265,120920481,120920593,120921926,120923708,120925226	{}
10	121410891	121437331	NM_004281.4	0.0	+	MANE Select	939	BAG3	AD	121411187	121436794	121410891,121429362,121431766,121435975	121411367,121429689,121432168,121437331	{}
10	126085871	126107492	NM_000274.4	0.0	-	MANE Select	8091	OAT	AR	126086510	126100740	126085871,126089408,126090294,126091495,126092366,126094004,126097110,126097309,126100541,126107441	126086671,126089553,126090408,126091624,126092489,126094132,126097206,126097534,126100769,126107492	{}
10	135175988	135186858	NM_004092.4	0.0	-	MANE Select	3151	ECHS1	AR	135176371	135186837	135175988,135178161,135179479,135180392,135182426,135183407,135184063,135186749	135176437,135178229,135179599,135180497,135182526,135183535,135184261,135186858	{}
11	790474	798281	NM_001191061.2	0.0	-	MANE Select	19954	SLC25A22	AR	791914	795006	790474,792141,792303,792552,792869,793528,794457,794775,794986,798216	792068,792217,792458,792727,792988,793619,794513,794901,795169,798281	{}
11	818913	825573	NM_020376.4	0.0	+	MANE Select	30802	PNPLA2	AR	819718	824862	818913,819573,821627,821957,822396,823526,823693,823997,824313,824522	818958,819905,821860,822023,822606,823587,823855,824130,824436,825573	{}
11	34938164	35017675	NM_003477.3	0.0	+	MANE Select	21350	PDHX	AR	34938202	35016719	34938164,34952950,34969052,34978930,34981966,34988186,34991685,34999670,35006116,35013861,35016460	34938362,34953031,34969153,34979130,34982065,34988361,34991833,34999729,35006275,35013926,35017675	{}
11	47600625	47606114	NM_004551.3	0.0	+	MANE Select	7710	NDUFS3	AR	47600643	47606033	47600625,47600820,47602076,47602386,47603639,47603900,47605865	47600710,47600886,47602174,47602536,47603765,47604020,47606114	{}
11	61197595	61214205	NM_017841.4	0.0	+	MANE Select	26034	SDHAF2	AR	61197618	61213543	61197595,61205096,61205475,61213412	61197654,61205320,61205585,61214205	{}
11	62439144	62441158	NM_001085372.3	0.0	+	MANE Select	34399	UQCC3	AR	62439217	62439586	62439144,62439424	62439337,62441158	{}
11	63742091	63744015	NM_004074.3	0.0	+	MANE Select	2294	COX8A	AR	63742152	63743792	63742091,63743696	63742266,63744015	{}
11	66615890	66725854	NM_001040716.2	0.0	-	MANE Select	8636	PC	AR	66616369	66639630	66615890,66616700,66617081,66617407,66617690,66618144,66618510,66619260,66619909,66620217,66620709,66631244,66633657,66636316,66637772,66638245,66638522,66638785,66639157,66639494,66719900,66721719,66725792	66616618,66616841,66617330,66617587,66617935,66618394,66618751,66619417,66620131,66620307,66620854,66631427,66633820,66636435,66637924,66638363,66638668,66638951,66639342,66639630,66719939,66721907,66725854	{}
11	67374406	67380025	NM_007103.4	0.0	+	MANE Select	7716	NDUFV1	AR	67374475	67379929	67374406,67375866,67376022,67376922,67377851,67378465,67378873,67379367,67379590,67379842	67374547,67375949,67376193,67377106,67378041,67378678,67379040,67379449,67379736,67380025	{}
11	67798147	67804111	NM_002496.4	0.0	+	MANE Select	7715	NDUFS8	AR	67799618	67804060	67798147,67799618,67799752,67800389,67800577,67803719,67803928	67798200,67799676,67799803,67800479,67800750,67803848,67804111	{}
11	68522350	68609384	NM_001876.4	0.0	-	MANE Select	2328	CPT1A	AR	68525111	68582942	68522350,68527036,68527692,68529002,68530094,68540732,68542783,68548107,68549238,68552282,68560782,68562271,68564323,68566685,68571467,68574934,68579904,68582801,68609242	68525198,68527129,68527806,68529155,68530229,68540897,68542900,68548213,68549427,68552478,68560870,68562379,68564401,68566823,68571569,68575106,68580044,68582955,68609384	{}
11	71996538	72145575	NM_001258392.3	0.0	-	MANE Select	30664	CLPB	AR	72004410	72145518	71996538,72005065,72005368,72005663,72006535,72012846,72013347,72018242,72019570,72028149,72040750,72069923,72091324,72114009,72141355,72145115	72004659,72005170,72005488,72005737,72006692,72013008,72013392,72018298,72019648,72028264,72040848,72070052,72091428,72114096,72141407,72145575	{}
11	71996538	72145575	NM_030813.6	0.0	-	MANE Plus Clinical	30664	CLPB	AR	72004410	72145518	71996538,72005065,72005368,72005663,72006535,72012846,72013347,72018242,72019570,72028149,72040750,72069923,72083968,72091324,72114009,72141355,72145115	72004659,72005170,72005488,72005737,72006692,72013008,72013392,72018298,72019648,72028264,72040848,72070052,72084058,72091428,72114096,72141407,72145575	{}
11	74201563	74204769	NM_001144869.3	0.0	-	MANE Select	37216	LIPT2	AR	74203179	74204748	74201563,74204282	74203409,74204769	{}
11	78147013	78285909	NM_024678.6	0.0	-	MANE Select	26274	NARS2	AR	78147715	78285533	78147013,78152136,78154706,78176921,78180292,78189483,78189630,78204108,78239887,78270584,78277177,78279677,78282379,78285392	78147860,78152163,78154804,78177059,78180359,78189521,78189729,78204241,78239982,78270665,78277318,78279798,78282489,78285909	{}
11	85339636	85347580	NM_018480.7	0.0	+	MANE Select	30883	TMEM126B	AR	85339651	85347273	85339636,85342730,85345129,85346710,85347089	85339732,85342852,85345323,85346822,85347580	{}
11	85359010	85367586	NM_032273.4	0.0	+	MANE Select	25382	TMEM126A	AR	85361299	85367545	85359010,85361292,85365106,85366637,85367352	85359133,85361385,85365300,85366752,85367586	{}
11	107992293	108018330	NM_000019.4	0.0	+	MANE Select	93	ACAT1	AR	107992333	108018117	107992293,108002633,108004546,108004947,108005868,108009624,108010791,108012331,108013163,108014709,108016928,108017996	107992405,108002681,108004664,108005043,108005969,108009768,108010942,108012427,108013277,108014774,108017086,108018330	{}
11	111896131	111935128	NM_001931.5	0.0	+	MANE Select	2896	DLAT	AR	111896196	111933259	111896131,111896921,111899238,111899515,111904127,111907996,111909967,111914189,111915861,111916586,111921957,111930626,111931761,111933129	111896475,111897023,111899363,111899669,111904254,111908184,111910121,111914257,111915954,111916694,111922073,111930789,111931898,111935128	{}
11	111957596	111966518	NM_003002.4	0.0	+	MANE Select	10683	SDHD	AR	111957631	111965694	111957596,111958580,111959590,111965528	111957683,111958697,111959735,111966518	{}
11	126139048	126148021	NM_017547.4	0.0	+	MANE Select	26927	FOXRED1	AR	126139101	126147584	126139048,126141331,126142863,126143230,126144821,126145221,126145688,126145953,126146288,126146965,126147329	126139186,126141552,126142974,126143349,126144916,126145323,126145765,126146114,126146418,126147070,126148021	{}
12	4758279	4803483	NM_005002.5	0.0	+	MANE Select	7693	NDUFA9	AR	4758292	4796274	4758279,4763457,4763990,4766913,4768201,4771698,4777622,4778906,4791370,4794424,4796103	4758341,4763628,4764088,4767005,4768343,4771801,4777690,4778983,4791466,4794491,4803483	{}
12	32832234	32898584	NM_001278464.2	0.0	+	MANE Plus Clinical	2973	DNM1L	AD/AR	32832297	32896344	32832234,32854348,32858758,32860300,32861086,32863862,32866142,32871576,32873597,32875360,32883947,32884289,32884787,32886648,32890038,32890798,32891197,32892997,32893342,32895522,32896287	32832399,32854496,32858797,32860347,32861158,32863949,32866305,32871697,32873729,32875567,32884068,32884445,32884877,32886741,32890095,32890876,32891230,32893174,32893452,32895682,32898584	{}
12	32832234	32898584	NM_012062.5	0.0	+	MANE Select	2973	DNM1L	AD/AR	32832297	32896344	32832234,32854348,32860300,32861086,32863862,32866142,32871576,32873597,32875360,32883947,32884289,32884787,32886648,32890038,32890798,32891197,32892997,32893342,32895522,32896287	32832399,32854496,32860347,32861158,32863949,32866305,32871697,32873729,32875567,32884068,32884445,32884877,32886741,32890095,32890876,32891230,32893174,32893452,32895682,32898584	{}
12	32899477	32908831	NM_001040436.3	0.0	-	MANE Select	24249	YARS2	AR	32900137	32908808	32899477,32902870,32903652,32906851,32908029	32900297,32903041,32903808,32907019,32908831	{}
12	50497790	50505096	NM_005276.4	0.0	+	MANE Select	4455	GPD1	AR	50497833	50503302	50497790,50498356,50499330,50500070,50500587,50501349,50501806,50503205	50497874,50498534,50499471,50500209,50500700,50501583,50501913,50505096	{}
12	50506018	50514236	NM_032901.4	0.0	+	MANE Select	28216	COX14	AR	50513826	50514000	50506018,50513818	50506084,50514236	{}
12	58176569	58191370	NM_005726.6	0.0	+	MANE Select	12367	TSFM	AR	58176584	58190366	58176569,58176892,58179945,58180822,58186768,58189959	58176641,58177066,58180074,58180945,58186856,58191370	{}
12	95365108	95397473	NM_018838.5	0.0	-	MANE Select	23987	NDUFA12	AR	95365215	95397456	95365108,95387945,95396514,95397370	95365396,95388033,95396597,95397473	{}
12	98987463	99000145	NM_002635.4	0.0	+	MANE Select	10989	SLC25A3	AR	98987756	98995306	98987463,98987752,98989504,98991633,98992299,98993732,98994948,98995145	98987518,98987913,98989626,98991813,98992481,98993905,98995059,99000145	{}
12	98987463	99000145	NM_005888.4	0.0	+	MANE Plus Clinical	10989	SLC25A3	AR	98987756	98995306	98987463,98987752,98989210,98991633,98992299,98993732,98994948,98995145	98987518,98987913,98989335,98991813,98992481,98993905,98995059,99000145	{}
12	108956371	108963144	NM_213595.4	0.0	+	MANE Select	29882	ISCU	AR	108956398	108962692	108956371,108958054,108959096,108960965,108962606	108956512,108958168,108959207,108961044,108963144	{}
12	120875915	120878533	NM_004373.4	0.0	+	MANE Select	2277	COX6A1	AR	120875929	120878340	120875915,120876181,120878256	120876032,120876324,120878533	{}
12	120884246	120901552	NM_176818.3	0.0	+	MANE Select	25068	GATC	AR	120884283	120897762	120884246,120884459,120894878,120897709	120884364,120884632,120894982,120901552	{}
12	120941081	120966961	NM_032314.4	0.0	-	MANE Select	28722	COQ5	AR	120941586	120966944	120941081,120941772,120942697,120947819,120954369,120960016,120966742	120941688,120941884,120942786,120947926,120954591,120960166,120966961	{}
12	121163628	121177811	NM_000017.4	0.0	+	MANE Select	90	ACADS	AR	121163688	121177251	121163628,121164828,121174788,121175158,121175639,121176082,121176335,121176622,121176942,121177098	121163734,121164992,121174938,121175270,121175791,121176253,121176473,121176718,121176999,121177811	{}
12	123717982	123742507	NM_152269.5	0.0	+	MANE Select	26784	MTRFR	AR	123738221	123741578	123717982,123738193,123741359	123718078,123738503,123742507	{}
12	132413820	132430441	NM_025215.6	0.0	+	MANE Select	15508	PUS1	AR	132414267	132428131	132413820,132414451,132416719,132423717,132425836,132428083	132414341,132414680,132416857,132423820,132426528,132430441	{}
13	22066829	22178309	NM_152726.3	0.0	-	MANE Select	31830	MICU2	AR	22067387	22178287	22066829,22069299,22070190,22077064,22084142,22088491,22095383,22096741,22113440,22113795,22140935,22178077	22067492,22069457,22070299,22077236,22084240,22088557,22095466,22096789,22113516,22113827,22141083,22178309	{}
13	23902968	24007841	NM_014363.6	0.0	-	MANE Select	10519	SACS	AR	23904274	23985378	23902968,23927923,23928657,23932473,23939304,23942540,23945216,23949257,23985358,24007753	23915829,23928015,23930146,23932620,23939416,23942626,23945304,23949408,23985879,24007841	{}
13	24304327	24463539	NM_005932.4	0.0	-	MANE Select	7104	MIPEP	AR	24304486	24463459	24304327,24330683,24334234,24380088,24383988,24410378,24411690,24413787,24415473,24432998,24436440,24438279,24443430,24444151,24448984,24453406,24455837,24460471,24463270	24304584,24330757,24334356,24380208,24384063,24410488,24411895,24413865,24415627,24433051,24436501,24438328,24443587,24444334,24449048,24453493,24455926,24460645,24463539	{}
13	41363746	41386596	NM_014252.4	0.0	+	MANE Select	10985	SLC25A15	AR	41367362	41383803	41363746,41367293,41373192,41379253,41381429,41382573,41383678	41363799,41367417,41373451,41379391,41381599,41382732,41386596	{}
13	48516790	48575409	NM_003850.3	0.0	-	MANE Select	11448	SUCLA2	AR	48517505	48575405	48516790,48523074,48523617,48528274,48528530,48542729,48547398,48562675,48563016,48570977,48575315	48517580,48523163,48523738,48528417,48528692,48542868,48547527,48562838,48563116,48571158,48575409	{}
13	111293763	111358463	NM_024537.4	0.0	-	MANE Select	25695	CARS2	AR	111293883	111358440	111293763,111294661,111296731,111298313,111299447,111303380,111315797,111319686,111329320,111335397,111340067,111340293,111353784,111357867,111358216	111293955,111294868,111296830,111298437,111299586,111303447,111315865,111319820,111329450,111335481,111340173,111340365,111353902,111357918,111358463	{}
14	24563519	24573334	NM_004563.4	0.0	+	MANE Select	8725	PCK2	AR	24563614	24573173	24563519,24566100,24567411,24567683,24568257,24568766,24569203,24571961,24572368,24572718	24563643,24566346,24567596,24567887,24568445,24568929,24569422,24572099,24572464,24573334	{}
14	32030609	32330430	NM_025152.3	0.0	+	MANE Select	20278	NUBPL	AR	32030645	32328386	32030609,32031273,32034219,32068494,32142560,32142689,32256985,32295834,32315676,32319324,32328323	32030753,32031421,32034254,32068585,32142600,32142780,32257079,32295920,32315797,32319407,32330430	{}
14	50709151	50778947	NM_024884.3	0.0	-	MANE Select	20499	L2HGDH	AR	50713775	50778868	50709151,50732075,50734470,50735880,50745237,50750588,50760832,50768734,50769619,50778728	50713971,50732207,50734628,50736048,50745272,50750751,50760964,50768886,50769735,50778947	{}
14	61438158	61447797	NM_020810.3	0.0	-	MANE Select	23141	TRMT5	AR	61441826	61447691	61438158,61442192,61444231,61445948,61447680	61441912,61442844,61444356,61446604,61447797	{}
14	74417004	74430373	NM_182476.3	0.0	+	MANE Select	20233	COQ6	AR	74417035	74429702	74417004,74420137,74422153,74422507,74424849,74425673,74425864,74426117,74427875,74428157,74428439,74429672	74417198,74420272,74422212,74422631,74424980,74425781,74425927,74426225,74428078,74428273,74428606,74430373	{}
14	74960467	74963809	NM_194279.4	0.0	+	MANE Select	19857	ISCA2	AR	74960477	74961703	74960467,74960752,74960977,74961528	74960548,74960855,74961093,74963809	{}
14	96001386	96011051	NM_016417.3	0.0	+	MANE Select	20134	GLRX5	AR	96001426	96010462	96001386,96010283	96001721,96011051	{}
14	104029296	104057233	NM_001370595.2	0.0	+	MANE Select	20492	COA8	AR	104029338	104056623	104029296,104037959,104040443,104053610,104056517	104029461,104038157,104040507,104053701,104057233	{}
15	41679550	41694694	NM_016013.4	0.0	-	MANE Select	18828	NDUFAF1	AR	41679641	41689257	41679550,41680645,41687056,41688684,41694341	41679791,41680720,41687242,41689338,41694694	{}
15	45653321	45670742	NM_001482.3	0.0	-	MANE Select	4175	GATM	AD/AR	45654306	45670651	45653321,45656097,45656994,45658243,45658568,45660267,45661523,45668798,45670582	45654419,45656214,45657058,45658408,45658706,45660458,45661719,45669017,45670742	{}
15	65293849	65321977	NM_139242.4	0.0	-	MANE Select	29666	MTFMT	AR	65295399	65321951	65293849,65297191,65298450,65308773,65312534,65313851,65316009,65319168,65321742	65295594,65297274,65298529,65308865,65312610,65313954,65316132,65319378,65321977	{}
15	76507693	76603810	NM_000126.4	0.0	-	MANE Select	3481	ETFA	AR	76508899	76603729	76507693,76518189,76523673,76566752,76576097,76577977,76578711,76580186,76584771,76584959,76587931,76603690	76508938,76518270,76523739,76566835,76576166,76578079,76578822,76580286,76584854,76585041,76588078,76603810	{}
15	89859550	89878055	NM_002693.3	0.0	-	MANE Select	9179	POLG	AD/AR	89859981	89876985	89859550,89860606,89861771,89862161,89862458,89863996,89864355,89864966,89865192,89865972,89866634,89867045,89867337,89868680,89869842,89870142,89870397,89871686,89871915,89872173,89873311,89876326,89877903	89860058,89860767,89861980,89862330,89862581,89864243,89864491,89865084,89865246,89866133,89866742,89867132,89867458,89868917,89869969,89870294,89870580,89871766,89872062,89872341,89873507,89877144,89878055	{}
15	90626276	90645700	NM_002168.4	0.0	-	MANE Select	5383	IDH2	AD/AR	90627497	90645622	90626276,90628047,90628232,90628506,90630343,90630670,90631590,90631818,90633710,90634784,90645507	90627585,90628140,90628330,90628619,90630495,90630807,90631734,90631979,90633876,90634876,90645700	{}
16	1821895	1823135	NM_023936.2	0.0	-	MANE Select	16618	MRPS34	AR	1822221	1823120	1821895,1822604,1822799	1822514,1822647,1823135	{}
16	2009538	2011976	NM_004548.3	0.0	+	MANE Select	7696	NDUFB10	AR	2009625	2011907	2009538,2011153,2011497,2011797	2009755,2011292,2011637,2011976	{}
16	2034193	2037750	NM_005262.3	0.0	+	MANE Select	4236	GFER	AR	2034219	2036029	2034193,2034747,2035866	2034477,2034944,2037750	{}
16	4390251	4401322	NM_016069.11	0.0	-	MANE Select	29679	PAM16	AR	4390319	4401235	4390251,4390920,4391368,4393207,4401232	4390406,4390986,4391505,4393292,4401322	{}
16	8768473	8878427	NM_020686.6	0.0	+	MANE Select	23	ABAT	AR	8829596	8875287	8768473,8829555,8839857,8841964,8844278,8851613,8857925,8858594,8860064,8862049,8862681,8866636,8868746,8870200,8873335,8875165	8768568,8829666,8839955,8841994,8844396,8851663,8858006,8858687,8860127,8862113,8862830,8866774,8868914,8870347,8873447,8878427	{}
16	19078935	19091417	NM_016138.5	0.0	+	MANE Select	2244	COQ7	AR	19078986	19089480	19078935,19083249,19085242,19087042,19088627,19089402	19079059,19083428,19085357,19087182,19088696,19091417	{}
16	21964681	21994981	NM_003366.4	0.0	+	MANE Select	12586	UQCRC2	AR	21964744	21994492	21964681,21968555,21968737,21969855,21973780,21974081,21976728,21979948,21982845,21983243,21985216,21987487,21991867,21994408	21964777,21968639,21968887,21969920,21973837,21974206,21976826,21980006,21982941,21983443,21985297,21987564,21992021,21994981	{}
16	23532074	23568671	NM_001083614.2	0.0	-	MANE Select	29419	EARS2	AR	23535691	23568664	23532074,23536564,23540822,23541064,23543977,23546208,23555834,23563469,23568525	23535775,23536700,23540953,23541218,23544086,23546681,23556024,23563625,23568671	{}
16	28853731	28857669	NM_003321.5	0.0	-	MANE Select	12420	TUFM	AR	28854295	28857590	28853731,28855056,28855270,28855550,28855739,28856018,28856271,28856634,28857232,28857538	28854469,28855176,28855422,28855655,28855872,28856183,28856376,28856801,28857427,28857669	{}
16	57481390	57495182	NM_020312.4	0.0	+	MANE Select	25302	COQ9	AR	57481417	57494536	57481390,57484951,57486712,57490415,57490842,57492157,57493476,57493962,57494500	57481490,57485120,57486848,57490558,57490927,57492262,57493632,57494016,57495182	{}
16	58741034	58768220	NM_002080.4	0.0	-	MANE Select	4433	GOT2	AR	58742074	58768132	58741034,58743320,58749917,58750566,58752099,58752430,58753099,58756053,58757649,58768043	58742197,58743471,58750083,58750717,58752204,58752592,58753159,58756182,58757806,58768220	{}
16	66541905	66584025	NM_004614.5	0.0	-	MANE Select	11831	TK2	AR	66545870	66583964	66541905,66547633,66551038,66551691,66562896,66565282,66570866,66575781,66582880,66583840	66545969,66547714,66551118,66551780,66562970,66565372,66570920,66575856,66582912,66584025	{}
16	70286200	70323409	NM_001605.3	0.0	-	MANE Select	20	AARS1	AD/AR	70286623	70316666	70286200,70287170,70287616,70287821,70288523,70289630,70291935,70292882,70294946,70296248,70298860,70299440,70301561,70302173,70303520,70304098,70305683,70310388,70310868,70316522,70323323	70286809,70287284,70287703,70287941,70288637,70289739,70292120,70293089,70295060,70296427,70299005,70299565,70301712,70302282,70303666,70304243,70305875,70310534,70311057,70316687,70323409	{}
16	75661621	75681563	NM_005548.3	0.0	-	MANE Select	6215	KARS1	AR	75661792	75681537	75661621,75662466,75663312,75664320,75665065,75665313,75665590,75668070,75669577,75669809,75670351,75674081,75675461,75681475	75661891,75662610,75663439,75664406,75665151,75665487,75665753,75668190,75669703,75669996,75670445,75674247,75675621,75681563	{}
16	78133550	79246564	NM_016373.4	0.0	+	MANE Select	12799	WWOX	AR	78133675	79245693	78133550,78142319,78143674,78148872,78198079,78420756,78458766,78466384,79245504	78133782,78142384,78143732,78149051,78198186,78420845,78458952,78466649,79246564	{}
16	81115549	81130000	NM_004483.5	0.0	-	MANE Select	4208	GCSH	AR	81116470	81129883	81115549,81118067,81121205,81124205,81129735	81116568,81118199,81121269,81124285,81130000	{}
16	87921618	87970135	NM_001739.2	0.0	-	MANE Select	1377	CA5A	AR	87921734	87970056	87921618,87925404,87935517,87936030,87938391,87960353,87969914	87921878,87925560,87935580,87936126,87938510,87960551,87970135	{}
16	89574810	89624174	NM_003119.4	0.0	+	MANE Select	11237	SPG7	AR	89574825	89623501	89574810,89576897,89579355,89590413,89592736,89595884,89597090,89598311,89598870,89611055,89613065,89614410,89616901,89619386,89620201,89620893,89623294	89575008,89577000,89579445,89590655,89592876,89595987,89597216,89598474,89599044,89611180,89613168,89614521,89617017,89619543,89620368,89620971,89624174	{}
17	5336096	5342475	NM_001212.4	0.0	-	MANE Select	1243	C1QBP	AR	5336334	5342393	5336096,5336612,5336988,5338192,5341442,5342161	5336484,5336735,5337087,5338286,5341593,5342475	{}
17	7123256	7128585	NM_000018.4	0.0	+	MANE Select	92	ACADVL	AR	7123303	7128416	7123256,7123440,7123782,7123922,7124084,7124242,7124856,7125270,7125495,7125985,7126451,7126962,7127131,7127286,7127464,7127639,7127798,7127960,7128127,7128275	7123365,7123516,7123848,7123995,7124149,7124377,7125001,7125400,7125621,7126184,7126556,7127049,7127194,7127388,7127562,7127712,7127871,7128033,7128203,7128585	{}
17	10424464	10452975	NM_017534.6	0.0	-	MANE Select	7572	MYH2	AD/AR	10424596	10451237	10424464,10426406,10426624,10426812,10427075,10427782,10428073,10428540,10428767,10429009,10429915,10430254,10431064,10432006,10432478,10432652,10432880,10433148,10434949,10436601,10436825,10438389,10438594,10439846,10440549,10440981,10442521,10442760,10443244,10443910,10446191,10446414,10447027,10447218,10447416,10448662,10450791,10451033,10452691,10452952	10424749,10426502,10426729,10426983,10427201,10427986,10428382,10428665,10428933,10429193,10430112,10430373,10431191,10432396,10432569,10432798,10433057,10433391,10435205,10436738,10436949,10438507,10438682,10439923,10440859,10441152,10442671,10442879,10443383,10444014,10446290,10446478,10447120,10447333,10447444,10448819,10450935,10451257,10452734,10452975	{}
17	10575790	10600850	NM_004589.4	0.0	-	MANE Select	10603	SCO1	AR	10584435	10600824	10575790,10590043,10595188,10596080,10599057,10600551	10584570,10590159,10595281,10596278,10599148,10600850	{}
17	12894928	12921344	NM_018127.7	0.0	-	MANE Select	14198	ELAC2	AR	12896134	12921264	12894928,12897003,12897741,12898080,12898279,12899019,12899256,12899863,12901728,12903472,12905590,12905757,12906795,12908305,12909069,12909237,12913929,12914979,12916523,12917755,12919084,12920178,12920387,12921019	12896362,12897148,12897820,12898201,12898379,12899129,12899295,12900002,12901825,12903591,12905676,12905896,12906891,12908418,12909142,12909296,12913988,12915099,12916592,12917813,12919149,12920249,12920438,12921344	{}
17	13972820	14111994	NM_001303.4	0.0	+	MANE Select	2260	COX10	AR	13972922	14110530	13972820,13977639,13980051,14005434,14063193,14095305,14110126	13972965,13977773,13980373,14005559,14063264,14095538,14111994	{}
17	15903137	15932718	NM_017775.4	0.0	+	MANE Select	26006	TTC19	AR	15903162	15930836	15903137,15903431,15905228,15906106,15907144,15907514,15909787,15928330,15929853,15930687	15903346,15903559,15905339,15906145,15907201,15907576,15909882,15928485,15930016,15932718	{}
17	17921334	17942482	NM_145691.4	0.0	-	MANE Select	18802	ATPAF2	AR	17921862	17942327	17921334,17924436,17925058,17927937,17929632,17931545,17931928,17942194	17922000,17924552,17925171,17928018,17929730,17931691,17931973,17942482	{}
17	36046433	36105050	NM_000458.4	0.0	-	MANE Select	11630	HNF1B	AD	36047374	36104875	36046433,36059081,36060987,36064923,36070510,36091585,36093549,36099430,36104531	36047395,36059200,36061182,36065056,36070671,36091821,36093814,36099630,36105050	{}
17	40714165	40718295	NM_025233.7	0.0	+	MANE Select	29932	COASY	AR	40714640	40717986	40714165,40715978,40716463,40716726,40717000,40717244,40717488,40717676,40717923	40715340,40716193,40716595,40716916,40717065,40717329,40717586,40717823,40718295	{}
17	40949642	40950722	NM_001040431.3	0.0	-	MANE Select	24990	COA3	AR	40950078	40950699	40949642,40950485	40950185,40950722	{}
17	55912141	55927405	NM_016070.4	0.0	-	MANE Select	14509	MRPS23	AR	55917143	55927371	55912141,55918286,55918543,55926600,55927327	55917296,55918413,55918621,55926771,55927405	{}
17	57774668	57784791	NM_016077.5	0.0	-	MANE Select	24265	PTRH2	AR	57774799	57775339	57774668,57784731	57775339,57784791	{}
17	61678253	61685725	NM_016360.4	0.0	+	MANE Select	24316	TACO1	AR	61678442	61685362	61678253,61681893,61683672,61684646,61685161	61678722,61682000,61683800,61684824,61685725	{}
17	62473901	62493172	NM_007215.4	0.0	-	MANE Select	9180	POLG2	AD/AR	62473939	62493086	62473901,62476405,62479035,62481844,62486912,62488783,62489011,62492524	62474105,62476506,62479116,62481985,62487086,62488889,62489138,62493172	{}
17	72858618	72869119	NM_024417.5	0.0	-	MANE Select	3642	FDXR	AR	72858938	72869069	72858618,72859197,72860017,72860269,72860601,72860945,72861840,72862252,72862567,72862905,72868160,72868990	72859069,72859368,72860189,72860469,72860686,72861053,72861942,72862366,72862690,72862998,72868258,72869119	{}
17	73257959	73262457	NM_015971.4	0.0	+	MANE Select	14499	MRPS7	AR	73257981	73262004	73257959,73258577,73258884,73259420,73261782	73258064,73258769,73258948,73259588,73262457	{}
17	73269072	73285514	NM_001126121.2	0.0	-	MANE Select	14409	SLC25A19	AR	73269531	73282845	73269072,73273433,73274232,73279503,73282384,73282713,73284582,73285434	73269720,73273564,73274416,73279674,73282540,73282883,73284672,73285514	{}
17	79670396	79674547	NM_002949.4	0.0	+	MANE Select	10378	MRPL12	AR	79670531	79674270	79670396,79671273,79671662,79673935,79674153	79670605,79671460,79671746,79674070,79674547	{}
17	79679313	79688042	NM_012140.5	0.0	+	MANE Select	10980	SLC25A10	AR	79679456	79687107	79679313,79681982,79682507,79682722,79683038,79683841,79684031,79684428,79684813,79686860,79687005	79679549,79682102,79682622,79682771,79683080,79683885,79684102,79684521,79684891,79686917,79688042	{}
18	9102696	9134339	NM_021074.5	0.0	+	MANE Select	7717	NDUFV2	AR	9102741	9134277	9102696,9117835,9119323,9119471,9122510,9124871,9126828,9134183	9102795,9117901,9119386,9119588,9122679,9124981,9126905,9134339	{}
18	12328942	12377226	NM_006796.3	0.0	-	MANE Select	315	AFG3L2	AD/AR	12329563	12377081	12328942,12337339,12340199,12344130,12348271,12351083,12351304,12353003,12356692,12358668,12359925,12363780,12366963,12367274,12370847,12371590,12376967	12329782,12337534,12340400,12344246,12348382,12351209,12351412,12353157,12356830,12358942,12360050,12363855,12367116,12367381,12370925,12371690,12377226	{}
18	43427573	43547295	NM_020964.3	0.0	-	MANE Select	29331	EPG5	AR	43432431	43547205	43427573,43435537,43437817,43438530,43440068,43445579,43446762,43447527,43450531,43456200,43458340,43458977,43460039,43462238,43464581,43467715,43469762,43479368,43480960,43483937,43487922,43490485,43492254,43493670,43495475,43495973,43496402,43497643,43502306,43503233,43505703,43508834,43510641,43514774,43519565,43523126,43523970,43526628,43528468,43529449,43531067,43532365,43534359,43547142	43432614,43435652,43438033,43438747,43440311,43445724,43446972,43447713,43450707,43456307,43458413,43459179,43460188,43462452,43464776,43467872,43469905,43479531,43481132,43484082,43488046,43490707,43492421,43493793,43495586,43496171,43496547,43497784,43502566,43503353,43505868,43508975,43510796,43514932,43519721,43523277,43524085,43526734,43528542,43529557,43531204,43532609,43535304,43547295	{}
18	43660213	43678262	NM_004046.6	0.0	-	MANE Select	823	ATP5F1A	AR	43664247	43678197	43660213,43664469,43666078,43666352,43666973,43667306,43668074,43669531,43669788,43671647,43675018,43678137	43664329,43664620,43666223,43666460,43667198,43667458,43668223,43669698,43669962,43671817,43675097,43678262	{}
19	1241749	1244824	NM_001687.5	0.0	+	MANE Select	837	ATP5F1D	AR	1241849	1244436	1241749,1242454,1244095,1244313	1241990,1242608,1244184,1244824	{}
19	1383905	1395583	NM_024407.5	0.0	+	MANE Select	7714	NDUFS7	AR	1383925	1395487	1383905,1387809,1388523,1388831,1390869,1391117,1393240,1395389	1383941,1387846,1388592,1388937,1391049,1391164,1393329,1395583	{}
19	1397024	1401541	NM_000156.6	0.0	-	MANE Select	4136	GAMT	AR	1397357	1401475	1397024,1398914,1399126,1399522,1399791,1401294	1397498,1399025,1399194,1399586,1399937,1401541	{}
19	5678432	5680527	NM_205767.3	0.0	-	MANE Select	33702	MICOS13	AR	5678561	5680497	5678432,5679355,5679596,5680468	5678659,5679407,5679774,5680527	{}
19	5691844	5720157	NM_004793.4	0.0	-	MANE Select	9479	LONP1	AR	5692042	5720143	5691844,5693308,5693562,5694397,5694771,5696064,5696259,5696680,5699037,5700799,5705782,5707070,5707707,5708352,5711781,5713144,5714193,5719714	5692219,5693473,5693780,5694563,5694912,5696181,5696382,5696768,5699216,5700938,5706003,5707154,5707837,5708414,5712013,5713264,5714282,5720157	{}
19	5894685	5903801	NM_175614.5	0.0	-	MANE Select	20371	NDUFA11	AR	5894752	5903719	5894685,5896463,5896915,5903622	5894865,5896586,5897008,5903801	{}
19	6361541	6370253	NM_006012.4	0.0	+	MANE Select	2084	CLPP	AR	6361585	6368721	6361541,6361879,6362456,6364462,6366268,6368548	6361783,6361951,6362553,6364650,6366374,6370253	{}
19	7600602	7626650	NM_001166114.2	0.0	+	MANE Select	16268	PNPLA6	AR	7600674	7626448	7600602,7601076,7601334,7604803,7605034,7605515,7605808,7606239,7606407,7606869,7607446,7607646,7607892,7614792,7615183,7615402,7615879,7616247,7618760,7619094,7619440,7619778,7620134,7620492,7621338,7621540,7622053,7623735,7625533,7625899,7626093,7626373	7600906,7601159,7601432,7604944,7605194,7605596,7605937,7606320,7606570,7606953,7607556,7607814,7607970,7614998,7615315,7615526,7615993,7616323,7618901,7619158,7619609,7619961,7620253,7620649,7621455,7621610,7622170,7624037,7625650,7625996,7626203,7626650	{}
19	7694678	7696842	NM_001171155.2	0.0	+	MANE Select	40038	PET100	AR	7694719	7696442	7694678,7695458,7695708,7696358	7694746,7695545,7695732,7696842	{}
19	10420720	10426691	NM_001397406.1	0.0	-	MANE Select	30546	FDX2	AR	10421161	10426672	10420720,10421528,10426061,10426380,10426527	10421318,10421616,10426168,10426435,10426691	{}
19	13001973	13010813	NM_000159.4	0.0	+	MANE Select	4189	GCDH	AR	13002118	13010355	13001973,13002084,13002300,13002644,13002929,13004296,13006805,13007018,13007723,13008116,13008516,13010281	13002016,13002209,13002336,13002788,13002992,13004467,13006935,13007235,13007827,13008242,13008677,13010813	{}
19	17448361	17453540	NM_032620.4	0.0	+	MANE Select	14880	GTPBP3	AR	17448420	17452512	17448361,17448816,17449173,17449347,17449762,17449931,17450242,17451852,17452286	17448473,17449064,17449260,17449550,17449835,17450075,17450408,17452131,17453540	{}
19	19174802	19223839	NM_178526.5	0.0	+	MANE Select	28380	SLC25A42	AR	19206933	19221685	19174802,19206899,19212589,19215721,19216369,19217077,19218702,19221377	19174924,19207014,19212695,19215747,19216536,19217194,19218854,19223839	{}
19	19627033	19639007	NM_015965.7	0.0	+	MANE Select	17194	NDUFA13	AR	19627047	19638935	19627033,19636990,19638089,19638509,19638815	19627141,19637069,19638161,19638579,19639007	{}
19	30189843	30206168	NM_031448.6	0.0	-	MANE Select	25443	C19orf12	AD/AR	30193618	30199320	30189843,30199160,30206031	30193884,30199330,30206168	{}
19	33366830	33462864	NM_032816.5	0.0	-	MANE Select	25907	CEP89	AR	33370067	33462780	33366830,33372749,33378657,33390762,33392150,33406242,33409129,33414344,33417095,33417839,33422334,33424356,33428536,33430762,33439171,33444520,33450805,33457265,33462741	33370284,33372919,33378747,33390904,33392318,33406423,33409245,33414448,33417179,33417890,33422477,33424575,33428579,33430791,33439274,33444707,33450964,33457372,33462864	{}
19	36139224	36149684	NM_001863.5	0.0	+	MANE Select	2280	COX6B1	AR	36142145	36149549	36139224,36142134,36145472,36149495	36139305,36142251,36145573,36149684	{}
19	36486089	36487214	NM_001042631.3	0.0	+	MANE Select	33867	SDHAF1	AR	36486176	36486524	36486089	36487214	{}
19	39405905	39421403	NM_017827.4	0.0	-	MANE Select	17697	SARS2	AR	39406245	39421376	39405905,39406480,39406676,39406860,39408363,39408560,39408733,39409061,39409405,39410401,39410725,39412031,39412166,39412877,39416844,39421109	39406389,39406546,39406769,39406954,39408473,39408648,39408779,39409170,39409453,39410507,39410789,39412086,39412307,39412907,39416940,39421403	{}
19	39971477	39984419	NM_001001563.5	0.0	+	MANE Select	23656	TIMM50	AR	39971493	39980460	39971477,39972522,39973524,39973774,39976183,39976327,39976826,39977036,39978700,39979178,39980358	39971601,39972673,39973556,39973796,39976242,39976447,39976931,39977135,39978857,39979285,39984419	{}
19	41197434	41222791	NM_024876.4	0.0	-	MANE Select	19041	COQ8B	AR	41197939	41220537	41197434,41198855,41201893,41205971,41206214,41208504,41209445,41209619,41211000,41211229,41215963,41219971,41220182,41220435,41222491	41198278,41198942,41201959,41206079,41206356,41208598,41209527,41209760,41211086,41211352,41216041,41220038,41220302,41220540,41222791	{}
19	44010870	44031353	NM_014297.5	0.0	-	MANE Select	23287	ETHE1	AR	44011001	44031329	44010870,44012095,44012926,44015588,44030352,44030666,44031248	44011054,44012212,44013016,44015718,44030501,44030811,44031353	{}
19	46049538	46088060	NM_025136.4	0.0	-	MANE Select	8142	OPA3	AD/AR	46056771	46088022	46049538,46087880	46057169,46088060	{}
19	49468565	49470136	NM_000146.4	0.0	+	MANE Select	3999	FTL	AD/AR	49468764	49469992	49468565,49469026,49469537,49469839	49468866,49469173,49469663,49470136	{}
19	51848422	51869642	NM_001985.3	0.0	-	MANE Select	3482	ETFB	AR	51848464	51869580	51848422,51850153,51853582,51856385,51857403,51869523	51848635,51850312,51853645,51856544,51857562,51869642	{}
20	2639040	2644862	NM_006899.5	0.0	-	MANE Select	5385	IDH3B	AR	2639396	2644834	2639040,2640170,2640344,2640675,2640908,2641102,2641342,2641554,2644091,2644305,2644570,2644798	2639483,2640231,2640439,2640822,2641011,2641236,2641475,2641615,2644212,2644404,2644651,2644862	{}
20	3870033	3910534	NM_001386393.1	0.0	+	MANE Select	15894	PANK2	AR	3870077	3903941	3870033,3888572,3891223,3893104,3897573,3899317,3903890	3870375,3888925,3891477,3893281,3897697,3899443,3910534	{}
20	13765673	13802226	NM_024120.5	0.0	+	MANE Select	15899	NDUFAF5	AR	13765714	13797856	13765673,13767957,13769234,13773825,13775483,13779106,13782131,13789487,13797108,13797520,13797763	13765936,13767998,13769298,13773873,13775587,13779146,13782329,13789548,13797192,13797603,13802226	{}
20	17949660	17971765	NM_052865.4	0.0	+	MANE Select	16205	MGME1	AR	17950502	17970752	17949660,17950443,17956326,17968808,17970581	17949784,17951013,17956546,17968941,17971765	{}
20	30225714	30232809	NM_032609.3	0.0	+	MANE Select	16232	COX4I2	AR	30226820	30232707	30225714,30226820,30227735,30231206,30232570	30225765,30226902,30227900,30231338,30232809	{}
20	34255973	34287274	NM_021100.5	0.0	-	MANE Select	15910	NFS1	AR	34257543	34287210	34255973,34260676,34261522,34262271,34262433,34262966,34268658,34269809,34278334,34284298,34285605,34286402,34287113	34257607,34260766,34261606,34262353,34262539,34263124,34268793,34269903,34278487,34284382,34285722,34286512,34287274	{}
20	35518631	35580111	NM_015474.4	0.0	-	MANE Select	15925	SAMHD1	AR	35521334	35580046	35518631,35526224,35526842,35532559,35533766,35539620,35540863,35545124,35545351,35547766,35555584,35559162,35563431,35569441,35575140,35579838	35521469,35526362,35526947,35532652,35533906,35539736,35540955,35545233,35545452,35547922,35555655,35559278,35563592,35569514,35575207,35580111	{}
20	57600529	57607390	NM_006886.4	0.0	-	MANE Select	838	ATP5F1E	AR	57605360	57607306	57600529,57605357,57607274	57603896,57605484,57607390	{}
22	19163093	19166249	NM_005984.5	0.0	-	MANE Select	10979	SLC25A1	AR	19163642	19166186	19163093,19163933,19164090,19164358,19164632,19165239,19165454,19165645,19166092	19163757,19164007,19164206,19164463,19164717,19165378,19165554,19165753,19166249	{}
22	24108020	24110159	NM_213720.3	0.0	-	MANE Select	15559	CHCHD10	AD	24108193	24110061	24108020,24108314,24109560,24110020	24108213,24108462,24109780,24110159	{}
22	36863092	36877687	NM_012473.4	0.0	-	MANE Select	17772	TXN2	AR	36863850	36876884	36863092,36872779,36876621,36877610	36863964,36872903,36876884,36877687	{}
22	41865120	41924978	NM_001098.3	0.0	+	MANE Select	118	ACO2	AR	41865150	41924617	41865120,41895729,41903794,41907879,41911380,41911770,41913530,41914484,41916174,41918833,41919208,41919833,41920849,41921196,41922265,41923291,41923904,41924482	41865186,41895866,41904053,41907972,41911539,41911921,41913635,41914576,41916280,41918991,41919282,41919945,41920972,41921352,41922457,41923424,41924026,41924978	{}
22	46731610	46753237	NM_018006.5	0.0	+	MANE Select	25481	TRMU	AR	46731661	46752903	46731610,46733675,46739158,46742318,46746187,46748017,46748160,46749663,46751340,46751886,46752738	46731743,46733841,46739265,46742441,46746360,46748071,46748227,46749764,46751485,46751969,46753237	{}
22	50961996	50964027	NM_005138.3	0.0	-	MANE Select	10604	SCO2	AR	50962039	50962840	50961996,50963900	50962853,50964027	{}
22	50964180	50968441	NM_001953.5	0.0	-	MANE Select	3148	TYMP	AR	50964198	50968138	50964180,50964429,50964674,50965004,50965593,50966016,50966940,50967564,50967924,50968332	50964347,50964570,50964905,50965167,50965712,50966146,50967039,50967767,50968148,50968441	{}
22	51017391	51021278	NM_005198.5	0.0	-	MANE Select	1938	CHKB	AR	51017609	51021210	51017391,51017854,51018155,51018402,51018618,51018786,51018993,51019848,51020177,51020677,51020986	51017684,51017936,51018259,51018511,51018700,51018845,51019089,51019982,51020291,51020786,51021278	{}
X	7866287	7895454	NM_004650.3	0.0	-	MANE Select	24887	PNPLA4	XD/XR	7868726	7894160	7866287,7870029,7880068,7889753,7890044,7893980,7895326	7868858,7870182,7880134,7889889,7890139,7894173,7895454	{}
X	11129451	11141206	NM_005333.5	0.0	+	MANE Select	4837	HCCS	XD/XR	11130180	11139930	11129451,11130138,11132954,11135386,11136620,11139026,11139731	11129638,11130280,11133106,11135535,11136740,11139113,11141206	{}
X	19362044	19379836	NM_000284.4	0.0	+	MANE Select	8806	PDHA1	XD/XR	19362155	19377771	19362044,19367429,19368054,19369398,19371199,19372608,19373466,19373803,19375769,19377033,19377606	19362212,19367489,19368228,19369525,19371291,19372701,19373622,19373875,19375837,19377142,19379836	{}
X	24483402	24552539	NM_005391.5	0.0	+	MANE Select	8811	PDK3	XD/XR	24483572	24552189	24483402,24512858,24516945,24521443,24523325,24537049,24544314,24545690,24546192,24549773,24552045	24483678,24513000,24517017,24521628,24523415,24537127,24544391,24545792,24546303,24549887,24552539	{}
X	38211856	38280699	NM_000531.6	0.0	+	MANE Select	8512	OTC	XD/XR	38211949	38280335	38211856,38226543,38229048,38240594,38260527,38262870,38267994,38268128,38271114,38280275	38212026,38226682,38229130,38240682,38260681,38262993,38268048,38268278,38271252,38280699	{}
X	47001614	47004101	NM_001135998.3	0.0	-	MANE Select	20372	NDUFB11	XD/XR	47001715	47004078	47001614,47002012,47003871	47001839,47002143,47004101	{}
X	48932100	48937546	NM_001029896.2	0.0	-	MANE Select	28912	WDR45	XD/XR	48932461	48935754	48932100,48932794,48933022,48933203,48933524,48934088,48934303,48935301,48935495,48935699,48937409	48932571,48932940,48933124,48933412,48933604,48934183,48934409,48935406,48935570,48935771,48937546	{}
X	53458208	53461317	NM_004493.3	0.0	-	MANE Select	4800	HSD17B10	XD/XR	53458351	53461292	53458208,53458745,53458935,53459194,53460668,53461265	53458542,53458854,53459064,53459359,53460833,53461317	{}
X	74270882	74376118	NM_001271696.3	0.0	-	MANE Select	48	ABCB7	XD/XR	74273204	74376107	74270882,74280057,74282162,74284904,74288841,74289125,74290199,74291343,74293523,74293702,74295196,74296356,74318776,74332720,74334588,74375939	74273420,74280165,74282266,74285076,74288971,74289289,74290357,74291518,74293611,74293791,74295465,74296489,74318896,74332807,74334666,74376118	{}
X	77154964	77162873	NM_001866.3	0.0	+	MANE Select	2291	COX7B	XD/XR	77155050	77160758	77154964,77158139,77160680	77155090,77158264,77162873	{}
X	100600648	100603730	NM_004085.4	0.0	-	MANE Select	11817	TIMM8A	XD/XR	100601486	100603652	100600648,100603520	100601648,100603730	{}
X	119005794	119010625	NM_004541.4	0.0	+	MANE Select	7683	NDUFA1	XD/XR	119005874	119010497	119005794,119007266,119010476	119005976,119007356,119010625	{}
X	129263336	129299815	NM_004208.4	0.0	-	MANE Select	8768	AIFM1	XD/XR	129263531	129299630	129263336,129263944,129265649,129267287,129270019,129270617,129271052,129272567,129273769,129274507,129279453,129281467,129281726,129283443,129290434,129299524	129263603,129264141,129265774,129267430,129270160,129270706,129271160,129272676,129273846,129274592,129279544,129281598,129281851,129283543,129290577,129299815	{}
X	152953380	152962043	NM_005629.4	0.0	+	MANE Select	11055	SLC6A8	XD/XR	152954029	152960669	152953380,152955829,152956758,152957429,152958495,152958717,152958916,152959359,152959584,152959798,152959987,152960173,152960528	152954291,152955961,152957008,152957562,152958630,152958821,152959041,152959472,152959722,152959901,152960088,152960344,152962043	{}
X	153639874	153650065	NM_000116.5	0.0	+	MANE Select	11577	TAFAZZIN	XD/XR	153640180	153649343	153639874,153640422,153641543,153641818,153642437,153647881,153648043,153648370,153648550,153648996,153649241	153640289,153640551,153641589,153641904,153642527,153647962,153648085,153648433,153648603,153649074,153650065	{}
