HGNC id,HGNC symbol
AARS1,20
ABCC9,60
ABCD1,61
ABCD4,68
ACADM,89
ACADS,90
ACADVL,92
ACAT1,93
SLC33A1,95
CNNM2,103
ACO2,118
ACOX1,119
ACTA2,130
ACTB,132
ACTG1,144
ACTL6B,160
ACVR1,171
ACVR2B,174
ACY1,177
ADAR,225
ADK,257
ADRA2B,282
ADSL,291
AFG3L2,315
AGA,318
AGL,321
AGPS,327
AGXT,341
AKT1,391
AKT3,393
ALDH3A2,403
ALDH4A1,406
ALDH5A1,408
ALDOA,414
ALDOB,417
ALMS1,428
ALPL,438
ALX3,449
ALX4,450
AMPD2,469
AMT,473
AP1S1,559
AP1S2,560
AP2M1,564
AP3B1,566
AP3B2,567
AP4B1,572
AP4E1,573
AP4M1,574
AP4S1,575
ARCN1,649
ARF1,652
ARG1,663
ARHGEF6,685
ARSA,713
ARSB,714
ARSL,719
ASAH1,735
ASL,746
ASNS,753
ASPA,756
ASS1,758
ATIC,794
ATM,795
ATP1A1,799
ATP1A3,801
ATP6V1A,851
ATP6V1B2,854
ATP7A,869
ALDH7A1,877
ATR,882
ATRX,886
KIF1A,888
AUH,890
B4GALT7,930
BBS1,966
BBS2,967
BBS4,969
BBS5,970
BCKDHA,986
BCKDHB,987
BCS1L,1020
BIN1,1052
BLM,1058
BMP4,1071
BRAF,1097
BTD,1122
BUB1B,1149
FERRY3,1184
SAMD9,1348
ERLIN2,1356
CA2,1373
CA5A,1377
CA8,1382
CACNA1A,1388
CACNA1B,1389
CACNA1C,1390
CACNA1D,1391
CACNA1E,1392
CACNA1G,1394
SLC25A20,1421
CAD,1424
CAMK2A,1460
CAMK2B,1461
CARS1,1493
ALX1,1494
CASK,1497
MICU1,1530
CBL,1541
CBS,1550
CCND2,1583
CDK13,1733
CDC42,1736
CDC6,1744
CDH11,1750
CDH15,1754
CDK10,1770
CDK8,1779
CDKN1C,1786
CENPF,1857
CHD2,1917
CHD3,1918
CHD4,1919
CHKB,1938
LYST,1968
CIT,1985
CLCN4,2022
TPP1,2073
CLN3,2074
CLN5,2076
CLN6,2077
CLN8,2079
CLPP,2084
CLTC,2092
VPS13B,2183
COL18A1,2195
COL4A1,2202
COL4A2,2203
CERT1,2205
COX10,2260
COX15,2263
COX6B1,2280
COX7B,2291
CPS1,2323
CRADD,2340
CREBBP,2348
MED23,2372
MED17,2375
CSNK2A1,2457
CSNK2B,2460
SMC3,2468
CSTB,2482
CTBP1,2494
CTDP1,2498
CTNNA2,2510
CTNNB1,2514
CTSD,2529
CUL4B,2555
CUX1,2557
OFD1,2567
CYC1,2579
DAG1,2666
DARS1,2678
DBT,2698
DCX,2714
DDC,2719
DDOST,2728
DDX11,2736
DDX3X,2745
DDX6,2747
DHCR24,2859
DHCR7,2860
DHFR,2861
DHPS,2869
CYB5R3,2873
DIAPH1,2876
DKC1,2890
DLAT,2896
DLD,2898
DLG3,2902
DLG4,2903
DMD,2928
DMPK,2933
DMXL2,2938
DNA2,2939
DYNC1H1,2961
DNM1,2972
DNMT3A,2978
DNMT3B,2979
DOCK3,2989
DPAGT1,2995
DPH1,3003
DPM1,3005
DPP6,3010
DPYD,3012
ATN1,3033
DSP,3052
DYRK1A,3091
EBP,3133
PHC1,3182
EED,3188
EEF1A2,3192
MEGF8,3233
EIF2AK3,3255
EIF2S3,3267
EIF3F,3275
EML1,3330
EMX2,3341
EP300,3373
ERCC1,3433
ERCC2,3434
ERCC3,3435
ERCC4,3436
ERCC5,3437
ERCC6,3438
ERCC8,3439
ERF,3444
ETFA,3481
ETFB,3482
ETFDH,3483
EVC,3497
EXTL3,3518
EZH2,3527
ACSL4,3571
BPTF,3581
FANCA,3582
FANCB,3583
FANCC,3584
FANCD2,3585
FANCE,3586
FANCF,3587
FANCG,3588
FBN1,3603
FBP1,3606
FKTN,3622
FGD1,3663
FGF12,3668
FGFR1,3688
FGFR2,3689
FGFR3,3690
FH,3700
FLNA,3754
FMR1,3775
AFF2,3776
FOLR1,3791
FOXG1,3811
FOXP1,3823
MTOR,3942
FTCD,3974
FTL,3999
FUCA1,4006
FUT8,4019
GAA,4065
GABRA1,4075
GABRA2,4076
GABRA5,4079
GABRB2,4082
GABRB3,4083
GABRG2,4087
GAD1,4092
GALC,4115
GALE,4116
B4GALNT1,4117
GALT,4135
GAMT,4136
GATM,4175
GBA1,4177
GCDH,4189
GCH1,4193
GCSH,4208
GDI1,4226
GFAP,4235
GFER,4236
GJA1,4274
GK,4289
GLB1,4298
GLDC,4313
GLI2,4318
GLI3,4319
GLUD1,4335
GLUL,4341
GM2A,4367
GNAI1,4384
GNAO1,4389
GNAS,4392
GNB1,4396
GNB2,4398
GNB5,4401
GNPAT,4416
GNS,4422
GPAA1,4446
GPC3,4451
GABBR2,4507
ADGRG1,4512
GRIA2,4572
GRIA3,4573
GRIA4,4574
GRID2,4576
GRIK2,4580
GRIN1,4584
GRIN2A,4585
GRIN2B,4586
GRIN2D,4588
GRM1,4593
GTPBP2,4670
GUSB,4696
H1-4,4718
HADH,4799
HSD17B10,4800
HADHA,4801
HCCS,4837
HCFC1,4839
HCN1,4845
HERC1,4867
HESX1,4877
HEXA,4878
HEXB,4879
HIBCH,4908
HIVEP2,4921
HK1,4922
HLCS,4976
HMGCL,5005
HMGCS2,5008
HNRNPH2,5042
HNRNPK,5044
HNRNPR,5047
HNRNPU,5048
HOXA1,5099
HPD,5147
HPRT1,5157
HRAS,5173
HSD17B4,5213
HSPD1,5261
HSPG2,5273
IARS1,5330
IDH2,5383
IDS,5389
IDUA,5391
IGBP1,5461
IGF1,5464
IGF1R,5465
RBPJ,5724
IL1RAPL1,5996
ITGA7,6143
STT3A,6172
ITPA,6176
ITPR1,6180
IVD,6186
JAG1,6188
KARS1,6215
KCNA2,6220
KCNB1,6231
KCNC1,6233
KCNC3,6235
KCNH1,6250
KCNJ10,6256
KCNJ11,6257
KCNJ6,6267
KCNK3,6278
KCNK9,6283
KCNMA1,6284
KCNQ2,6296
KCNQ3,6297
KCNQ5,6299
KIF2A,6318
KIF5A,6323
KIF5C,6325
KIF11,6388
KPTN,6404
KRAS,6407
L1CAM,6470
LAMA1,6481
LAMA2,6482
LAMB1,6486
LAMC3,6494
LAMP2,6501
LARGE1,6511
COG1,6545
LHX3,6595
LIG4,6601
LRP2,6694
LRP5,6697
LZTR1,6742
MAB21L1,6757
MAB21L2,6758
SMAD4,6770
MAF,6776
MAGEL2,6814
MAN1B1,6823
MAN2B1,6826
MANBA,6831
MAOA,6833
MAP2K1,6840
MAP2K2,6842
MAPK8IP3,6884
MASP1,6901
MAT1A,6903
MCCC1,6936
MCCC2,6937
MCM3AP,6946
MCPH1,6954
MDH2,6971
MECP2,6990
MEF2C,6996
MEIS2,7001
MGAT2,7045
MGP,7060
MID1,7095
MKKS,7108
MKS1,7121
KMT2A,7132
KMT2D,7133
MLYCD,7150
MOCS1,7190
MOCS2,7193
MPDU1,7207
MPI,7216
MPV17,7224
MRE11,7230
MSL3,7370
MTHFR,7436
MTR,7468
MTRR,7473
MMUT,7526
MVK,7530
MYCN,7559
MYH3,7573
MYO5A,7602
MYT1L,7623
NAGA,7631
NAGLU,7632
NBEA,7648
NBN,7652
NDP,7678
NDST1,7680
NDUFA1,7683
NDUFS1,7707
NDUFS4,7711
NDUFS7,7714
NDUFS8,7715
NDUFV1,7716
NEK1,7744
NEU1,7758
NF1,7765
NFIA,7784
NFIX,7788
NHS,7820
NONO,7871
CNOT1,7877
CNOT2,7878
CNOT3,7879
NOTCH1,7881
NPC1,7897
NPHP1,7905
NPHP3,7907
NR2F1,7975
NRAS,7989
NRXN1,8008
NT5C2,8022
NTRK1,8031
NTRK2,8032
NUP62,8066
OCLN,8104
OCRL,8108
ODC1,8109
OGT,8127
OPA3,8142
OPHN1,8148
ORC1,8487
OTC,8512
OTX2,8522
PAFAH1B1,8574
PAH,8582
PAK1,8590
PAK3,8592
PARN,8609
PAX6,8620
PAX8,8622
PBX1,8632
PC,8636
PCBD1,8646
PCCA,8653
PCCB,8654
PCDH12,8657
CHMP1A,8740
PCYT2,8756
AIFM1,8768
PDE4D,8783
PDGFRB,8804
PDHA1,8806
PEPD,8840
PEX1,8850
PEX10,8851
PEX11B,8853
PEX12,8854
PEX13,8855
PEX14,8856
PEX16,8857
PEX3,8858
PEX6,8859
PEX7,8860
PGK1,8896
PGM3,8907
PHGDH,8923
PIGA,8957
PIGB,8959
PIGL,8966
PIGN,8967
PIK3CA,8975
PIK3R2,8980
PLA2G6,9039
PLAA,9043
PLOD3,9083
PLP1,9086
PMM2,9115
PMPCB,9119
PRRX1,9142
PNKP,9154
POLA1,9173
POLG,9179
POLR2A,9187
POMT1,9202
POU1F1,9210
POU3F3,9216
CTSA,9251
PPM1D,9277
PPP1CB,9282
PPP2CA,9299
PPP2R1A,9302
PPP2R5D,9312
PPP3CA,9314
PPT1,9325
PQBP1,9330
PRKAR1A,9388
PRKD1,9407
PRODH,9453
PROP1,9455
PLPBP,9457
PRPS1,9462
PRSS12,9477
LONP1,9479
PSAP,9498
PSMD12,9557
PSPH,9577
PTCH1,9585
PTDSS1,9587
PTEN,9588
PTPN11,9644
PTS,9689
PURA,9701
PEX19,9713
PEX2,9717
PEX5,9719
PYCR1,9721
ALDH18A1,9722
QARS1,9751
QDPR,9752
RAB11B,9761
RAC1,9801
RAC3,9803
RAD21,9811
RAD50,9816
RAD51C,9820
RAF1,9829
RAI1,9834
RALA,9839
RANBP2,9848
RARB,9865
RBBP8,9891
RBM10,9896
RECQL4,9949
RELN,9957
DPF2,9964
RERE,9965
RIT1,10023
RNU4-2,10193
ROR2,10257
RORA,10258
RPIA,10297
RPL10,10298
RPS19,10402
RPS6KA3,10432
RYR1,10483
SACS,10519
SATB1,10541
MSMO1,10545
SC5D,10547
SCN1A,10585
SCN1B,10586
SCN2A,10588
SCN3A,10590
SCN8A,10596
SCO1,10603
SCO2,10604
AIMP1,10648
CWC27,10664
SDCCAG8,10671
SDHA,10680
SET,10760
SGPL1,10817
SGSH,10818
SHH,10848
ST3GAL3,10866
ST3GAL5,10872
STIL,10879
SIX3,10889
SKI,10896
SLC12A6,10914
SLC16A2,10923
SLC17A5,10933
SLC1A2,10940
SLC1A4,10942
SLC22A5,10969
SLC25A1,10979
SLC25A12,10982
SLC25A15,10985
SLC2A1,11005
SLC2A2,11006
SLC35A1,11021
SLC35A2,11022
SLC4A4,11030
SLC5A5,11040
SLC6A1,11042
SLC6A3,11049
SLC6A5,11051
SLC6A8,11055
SLC6A9,11056
SLC9A6,11079
SMARCA2,11098
SMARCA4,11100
SMARCB1,11103
SMARCC2,11105
SMARCD1,11106
SMARCE1,11109
ARID1A,11110
SMC1A,11111
KDM5C,11114
SMPD1,11120
SMS,11123
SNAP25,11132
SNAP29,11133
SIK1,11142
SNRPB,11153
SON,11183
SOS1,11187
SOS2,11188
SOX10,11190
SOX11,11191
SOX2,11195
SOX3,11199
SOX4,11200
SOX5,11201
SOX9,11204
SPG11,11226
ATL1,11231
SPR,11257
SPTAN1,11273
SPTBN2,11276
SSR4,11326
STAG1,11354
STAG2,11355
PLK4,11397
BRSK2,11405
CDKL5,11411
STXBP1,11444
SUCLG1,11449
SUOX,11460
SURF1,11474
SYN1,11494
SYNGAP1,11497
SYNJ1,11503
SYP,11506
SYT1,11509
TAC3,11521
TAF1,11535
TAF2,11536
TAF6,11540
BRF1,11551
TAT,11573
TAFAZZIN,11577
TBCD,11581
TBCE,11582
TBR1,11590
TCF12,11623
TCF20,11631
TCF4,11634
TCN2,11653
TFAP2A,11742
TFAP2B,11743
TFE3,11752
TGFBR1,11772
TGFBR2,11773
TGIF1,11776
TH,11782
THRA,11796
TIMM8A,11817
NKX2-1,11825
TK2,11831
TLK2,11842
TSPAN7,11854
MED12,11957
TREX1,12269
TRIO,12303
TRIP12,12306
TRRAP,12347
TSC1,12362
TSC2,12363
TSFM,12367
CEP41,12370
TSHB,12372
TUBA8,12410
TUBB2A,12412
TUBG1,12417
TUFM,12420
TWIST1,12428
UBE2A,12472
UBE3A,12496
UBTF,12511
UGT1A1,12530
UMPS,12563
UQCRB,12582
USP9X,12632
KDM6A,12637
VAMP1,12642
VAMP2,12643
VARS1,12651
VLDLR,12698
VPS33B,12712
VRK1,12718
WARS2,12730
WASF1,12732
NSD2,12766
WNT1,12774
WNT3,12782
WNT4,12783
WNT5A,12784
WWOX,12799
XPA,12814
XRCC4,12831
YWHAG,12852
YY1,12856
ZIC2,12873
ZNF142,12927
PCGF2,12929
ZBTB16,12930
KAT6A,13013
ZBTB18,13030
SCAPER,13081
ZNF711,13128
ARL6,13210
BCL11A,13221
BCL11B,13222
FTSJ1,13254
HDAC8,13315
KIF4A,13339
MCOLN1,13356
NSDHL,13398
PRUNE1,13420
RLIM,13429
SLC2A10,13444
UBE3B,13478
USP27X,13486
ZBTB20,13503
RXYLT1,13530
ATP8A2,13533
BRD4,13575
FBXO11,13590
FBXL3,13599
FBXL4,13601
FBXW11,13607
MACF1,13664
AAAS,13666
DCHS1,13681
DEGS1,13709
CTCF,13723
KMT2C,13726
CYFIP2,13760
GFM1,13780
SLC12A5,13818
CNTNAP2,13830
FOXP2,13875
ITCH,13890
HDAC4,14063
FMN2,14074
CCDC78,14153
ELAC2,14198
CIC,14214
NSD1,14234
RAB18,14244
BRPF1,14255
AUTS2,14262
RAB23,14263
PCDH19,14270
IRF2BPL,14282
NTNG2,14288
NLGN3,14289
SHANK3,14294
SHANK2,14295
HTRA2,14348
IRX5,14361
NHP2,14377
NOP10,14378
PTPN23,14406
SLC25A19,14409
ELOVL4,14415
TMEM237,14432
MRPS22,14508
NPC2,14537
ARHGEF9,14561
DEAF1,14677
COG5,14857
GTPBP3,14880
ZEB2,14881
PIGT,14938
PPP1R15B,14951
SNX14,14977
SHOC2,15454
MBTPS2,15455
ANKH,15492
MBOAT7,15505
TSEN34,15506
PUS1,15508
XYLT1,15516
JAM3,15532
SETBP1,15573
TRIM8,15579
KLHL7,15646
ALG9,15672
PHIP,15673
LRPPRC,15714
ADNP,15766
PIGU,15791
BSCL2,15832
ARFGEF2,15853
RTEL1,15888
PLCB1,15917
SAMHD1,15925
TOE1,15954
APTX,15984
MPLKIP,16002
PCNT,16068
TBC1D20,16133
YAP1,16262
SLC19A3,16266
PNPLA6,16268
NFU1,16287
TRIM32,16380
ZMIZ1,16493
RAB39B,16499
BSND,16512
MRPS34,16618
BCAP31,16695
DHX30,16716
UBR1,16808
COQ8A,16812
FIG4,16873
MFN2,16877
CD96,16892
SPEG,16901
BCKDK,16902
STAMBP,16950
ZMYND11,16966
SRCAP,16974
CLP1,16999
PUF60,17042
RAB3GAP1,17063
MLC1,17082
CDON,17104
RAB3GAP2,17168
BICD2,17208
COLEC11,17213
CPAP,17272
RRM2B,17296
WAC,17327
PRPF8,17340
BRWD3,17342
AASS,17366
GJC2,17494
SPEN,17575
KAT6B,17582
NDE1,17619
NGLY1,17646
PORCN,17652
PITRM1,17663
PDSS1,17759
TDP2,17768
AFF4,17869
PGAP2,17893
EXOSC3,17944
CEP83,17966
NAGS,17996
FKRP,17997
OSGEP,18028
ARID2,18037
KDM5B,18039
ARID1B,18040
ARX,18060
GPT2,18062
AFG2A,18119
TUBGCP6,18127
PHF6,18145
TMCO1,18188
ELP2,18248
ALG1,18294
ATP6AP2,18305
ASXL1,18318
WDR19,18340
SETD2,18420
DEPDC5,18423
ZDHHC9,18475
ATP6V0A2,18481
SPART,18514
RNASEH2A,18518
STX1B,18539
KMT2E,18541
IER3IP1,18550
COG4,18620
COG6,18621
COG7,18622
COG8,18623
RTN4IP1,18647
RTTN,18654
CDK5RAP2,18672
EIF4A3,18683
CRB2,18688
NAA10,18704
LGI4,18712
RHOBTB2,18756
BBS7,18758
POGZ,18801
CAMTA1,18806
KCNT1,18865
KCNT2,18866
MMAA,18871
IFIH1,18873
GBA2,18986
MAST1,19034
ASPM,19048
THOC2,19073
NALCN,19082
EBF3,19087
ASH1L,19088
PSAT1,19129
POMGNT1,19139
KIF14,19181
FRAS1,19185
DOCK6,19189
DOCK7,19190
DOCK8,19191
NANS,19237
MTO1,19261
KANK1,19309
MMAB,19331
CUX2,19347
SIN3A,19353
ALG12,19358
SBDS,19440
COQ4,19693
CNKSR2,19701
POMT2,19743
EVC2,19747
SLC25A22,19954
TECPR2,19957
KIAA0586,19960
CCDC88C,19967
TTC8,20087
FLVCR2,20105
CHD8,20153
SLC35C1,20197
B3GLCT,20207
SPRED1,20249
NUBPL,20278
TRIT1,20286
CHAMP1,20311
SMOC1,20318
ZDHHC15,20342
VIPAS39,20347
SUMF1,20376
UPF3B,20439
MBD5,20444
TRAF7,20456
BRIP1,20473
COA8,20492
L2HGDH,20499
CYP2U1,20582
UFM1,20597
DHDDS,20603
CHD7,20626
PHF8,20672
ARMC9,20730
FANCL,20748
ZFYVE26,20761
TUBA1A,20766
TUBB3,20772
TUBB4A,20774
TUBB,20778
SLC39A14,20858
SLC39A8,20862
BCOR,20893
NACC1,20967
PHACTR1,20990
HACE1,21033
ERMARD,21056
SERAC1,21061
FARS2,21062
ZBTB24,21143
RNF125,21150
GTF2H5,21157
RNF135,21158
RMND1,21176
FA2H,21197
WDR26,21208
KCTD3,21305
ANKRD11,21316
DYM,21317
PDHX,21350
ABHD5,21396
RARS2,21406
INPP5E,21474
ACAD9,21497
AHI1,21575
SATB2,21637
ZNF462,21684
RNASET2,21686
BRAT1,21701
LHX4,21734
DYNC2I1,21862
RBM28,21863
AGK,21869
KCTD7,21957
FAM20C,22140
GMPPA,22923
GMPPB,22932
MED13L,22962
PEX26,22965
GNPTG,23026
LMBRD1,23038
PDSS2,23041
ALG3,23056
TRAPPC6B,23066
SLC13A5,23089
FAT4,23109
ALG6,23157
ALG2,23159
ALG8,23161
PNPT1,23166
KIRREL3,23204
PIGW,23213
PIGO,23215
UBA5,23230
ETHE1,23287
DOLK,23406
KIFBP,23419
DHTKD1,23537
SKIC3,23639
TIMM50,23656
PGAP3,23719
PTF1A,23734
PACS2,23794
ASXL2,23805
SLX4,23845
APC2,24036
KNL1,24054
RNASEH2C,24116
ACTL6A,24124
BMPER,24154
PHF21A,24156
GLYCTK,24247
OTUD6B,24281
KMT5B,24283
TRAPPC12,24284
TACO1,24316
BOLA3,24415
CHST14,24464
WDR62,24502
TCTN3,24519
MMACHC,24525
INTS1,24555
C2CD3,24564
KANSL1,24565
HYCC1,24587
SIL1,24624
EHMT1,24650
FTO,24678
FLVCR1,24682
QRICH1,24713
FAM111A,24725
CCDC47,24856
MFF,24858
MOGS,24862
LARP7,24912
ZC4H2,24931
TMEM216,25018
WDR45B,25072
ADAT3,25151
TMEM240,25186
ALKBH8,25189
MMADHC,25221
COQ2,25223
AHDC1,25230
COQ9,25302
DDX59,25360
FREM2,25396
ARL13B,25419
TANGO2,25439
PUS3,25461
DARS2,25538
PRMT7,25557
SETD5,25566
ATAD3A,25567
FANCI,25568
VPS53,25608
CWF19L1,25613
TBC1D23,25622
RNASEH2B,25671
PGAP1,25712
LAS1L,25726
TRAPPC11,25751
TCTN2,25774
DCAF17,25784
CPLANE1,25801
SRD5A3,25812
CEP63,25815
POMGNT2,25902
WDR73,25928
RETREG1,25964
TRMT1,25980
PIGG,25985
NSUN2,25994
TTC19,26006
PIGV,26031
PUS7,26033
TMEM70,26050
TCTN1,26113
PALB2,26144
CTC1,26169
CSPP1,26193
FAR1,26222
TM4SF20,26230
TTI2,26262
BBS10,26291
HEPACAM,26361
PTCHD1,26392
UROC1,26444
HGSNAT,26527
HYLS1,26558
UNC80,26582
WDR81,26600
BBS12,26648
RNF168,26661
MTRFR,26784
AMER1,26837
CKAP2L,26877
TMTC3,26899
ERCC6L2,26922
FOXRED1,26927
BLTP1,26953
METTL23,26988
ESCO2,27230
IBA57,27302
TSEN54,27561
SLC6A19,27960
WDPCP,28027
XPNPEP3,28052
NDUFAF2,28086
TBCK,28261
DYNC2I2,28296
D2HGDH,28358
THOC6,28369
TMEM67,28396
TRMT10A,28403
TSEN2,28422
MFSD8,28486
GLIS3,28510
B3GALNT2,28596
DIS3L2,28648
MED25,28845
P4HTM,28858
NIPBL,28862
MAGT1,28880
DNAJC12,28908
CCDC22,28909
WDR45,28912
EMC1,28957
TMEM94,28983
RUBCN,28991
FRMPD4,29007
CEP290,29021
SPECC1L,29022
SZT2,29040
IQSEC2,29059
IFT140,29077
KDM1A,29079
CEP135,29086
TELO2,29099
DDHD2,29106
RPGRIP1L,29168
SETD1B,29187
TBC1D24,29203
SVBP,29204
SHROOM4,29215
ARHGAP31,29216
PRR12,29217
WDR35,29250
CC2D2A,29253
SOBP,29256
TAOK1,29259
DIP2B,29284
CEP152,29298
ZSWIM6,29316
EPG5,29331
KLHL15,29347
ASXL3,29357
CCBE1,29426
NEXMIF,29433
ROGDI,29478
GPSM2,29501
KIDINS220,29508
C12orf57,29521
TBL1XR1,29529
ARV1,29561
UQCRQ,29594
MEGF10,29634
MTFMT,29666
GNPTAB,29670
DCPS,29812
HECW2,29853
NFASC,29866
NKAP,29873
CSDE1,29905
COASY,29932
BBS9,30000
PACS1,30032
POLR3A,30074
STRADA,30172
CRBN,30185
ATP13A2,30213
RFT1,30220
CC2D1A,30237
TUSC3,30242
PNPO,30260
PYCR2,30262
POLR3B,30348
KLHL40,30372
IFT172,30391
KIF7,30497
SLC46A1,30521
DNAJC19,30528
SNIP1,30587
PPP1R21,30595
SEPSECS,30605
STT3B,30611
STRA6,30650
CLPB,30664
SRPX2,30668
TMX2,30739
TMEM165,30760
TRAIP,30764
GATAD2B,30778
NAA15,30782
CEP57,30794
TUBB2B,30829
TRAPPC9,30832
EFTUD2,30858
ALG13,30881
HUWE1,30892
LINS1,30922
SLC6A17,31399
WDR37,31406
ALG11,32456
SMPD4,32949
COA5,33848
SDHAF1,33867
INPP5K,33882
CRPPA,37276
PET100,40038
