2024-01-19 12:32:44 [summarize-panel-build]: Hjernekanal_v2.1.0.json:  NEW FILE
2024-01-19 12:32:44 [summarize-panel-build]: Hjernekanal_v2.1.0_genes_transcripts.tsv:  NEW FILE
2024-01-19 12:32:44 [summarize-panel-build]: Hjernekanal_v2.1.0_genetikkportalen.tsv:  NEW FILE
2024-01-19 12:32:44 [summarize-panel-build]: Hjernekanal_v2.1.0_phenotypes.tsv:  NEW FILE
2024-01-19 12:32:44 [summarize-panel-build]: Hjernekanal_v2.1.0_regions.bed:  NEW FILE
