HGNC id,HGNC symbol
ALMS1,428
BBS1,966
BBS2,967
BBS4,969
BBS5,970
CENPF,1857
CLCN5,2023
COL4A1,2202
OFD1,2567
DHCR7,2860
DLG5,2904
DYNC2H1,2962
GANAB,4138
GLA,4296
LZTFL1,6741
MKKS,7108
MKS1,7121
NOTCH2,7882
NPHP1,7905
NPHP3,7907
PAX2,8616
PKD1,9008
PKD2,9009
PKHD1,9016
PMM2,9115
PRKCSH,9411
SALL1,10524
SDCCAG8,10671
HNF1B,11630
TSC1,12362
TSC2,12363
CEP41,12370
TULP3,12425
UMOD,12559
VHL,12687
ARL6,13210
NEK8,13387
IFT122,13556
TMEM237,14432
DNAJB11,14889
ALG9,15672
TRAF3IP1,17861
INVS,17870
CEP83,17966
WDR19,18340
IFT27,18626
CRB2,18688
BBS7,18758
NPHP4,19104
KIAA0586,19960
TTC8,20087
ALG5,20266
TXNDC15,20652
SEC63,21082
CILK1,21219
INPP5E,21474
AHI1,21575
DYNC2I1,21862
ALG8,23161
TCTN3,24519
CEP104,24866
TMEM216,25018
DDX59,25360
ARL13B,25419
TTC21B,25660
TCTN2,25774
CPLANE1,25801
TCTN1,26113
CSPP1,26193
BBS10,26291
DZIP1L,26551
HYLS1,26558
BBS12,26648
ANKS6,26724
TMEM138,26944
FLCN,27310
WDPCP,28027
XPNPEP3,28052
TMEM107,28128
TMEM67,28396
B9D2,28636
IQCB1,28949
CEP290,29021
IFT140,29077
KIAA0753,29110
RPGRIP1L,29168
CEP164,29182
WDR35,29250
CC2D2A,29253
MAPKBP1,29536
IFT43,29669
BBS9,30000
IFT172,30391
KIF7,30497
TMEM231,37234
