# Gene panel: Nyresykdommer-v2.3.0 -- Date: 2025-03-03
HGNC id	HGNC symbol	inheritance	phenotype MIM number	phenotype	PMID	inheritance info	comment
10250	ROBO2	AD	610878	Vesicoureteral reflux 2			
10257	ROR2	AD	113000	Brachydactyly, type B1			
10257	ROR2	AR	268310	Robinow syndrome, autosomal recessive			
1037	CFB	AD	612924	{Hemolytic uremic syndrome, atypical, susceptibility to, 4}			
1037	CFB	AD	615489	{Macular degeneration, age-related, 14, reduced risk of}			
1037	CFB	AR	615561	?Complement factor B deficiency			
10524	SALL1	AD	107480	Townes-Brocks branchiootorenal-like syndrome; Townes-Brocks syndrome 1			
10599	SCNN1A	AD	613021	Bronchiectasis with or without elevated sweat chloride 2			
10599	SCNN1A	AD	618126	?Liddle syndrome 3			
10599	SCNN1A	AR	264350	Pseudohypoaldosteronism, type IB1, autosomal recessive			
10600	SCNN1B	AD	177200	Liddle syndrome 1			
10600	SCNN1B	AD	211400	Bronchiectasis with or without elevated sweat chloride 1; {Bronchiectasis with or without elevated sweat chloride 1, modifier of}			
10600	SCNN1B	AR	620125	Pseudohypoaldosteronism, type IB2, autosomal recessive			
10602	SCNN1G	AD	613071	Bronchiectasis with or without elevated sweat chloride 3			
10602	SCNN1G	AD	618114	Liddle syndrome 2			
10602	SCNN1G	AR	620126	Pseudohypoaldosteronism, type IB3, autosomal recessive			
10671	SDCCAG8	AR	613615	Senior-Loken syndrome 7			
10671	SDCCAG8	AR	615993	Bardet-Biedl syndrome 16			
1071	BMP4	AD	600625	Orofacial cleft 11			
1071	BMP4	AD	607932	Microphthalmia, syndromic 6			
10817	SGPL1	AR	617575	RENI syndrome			
10891	SIX5		610896	Branchiootorenal syndrome 2			
10910	SLC12A1	AR	601678	Bartter syndrome, type 1			
10912	SLC12A3	AR	263800	Gitelman syndrome			
10993	SLC26A1	AR	167030	?Nephrolithiasis, calcium oxalate, 1			
10993	SLC26A1	AR	620372	?Hypersulfaturia			
11006	SLC2A2	AD	125853	Diabetes mellitus, noninsulin-dependent; Diabetes mellitus, noninsulin-dependent, late onset; Diabetes mellitus, type 2; Diabetes mellitus, type II; Insulin resistance, severe, digenic; Type 2 diabetes mellitus; {Diabetes mellitus, non-insulin-dependent, susceptibility to}; {Diabetes mellitus, noninsulin-dependent, 2}; {Diabetes mellitus, noninsulin-dependent, association with}; {Diabetes mellitus, noninsulin-dependent, susceptibility to}; {Diabetes mellitus, noninsulin-dependent}; {Diabetes mellitus, type 2, susceptibility to}; {Diabetes mellitus, type II, susceptibility to}; {Diabetes, type 2}; {Hypertension, insulin resistance-related, susceptibility to}; {Insulin resistance, susceptibility to}; {Type 2 diabetes mellitus, susceptibility to}; {Type 2 diabetes mellitus}			
11006	SLC2A2	AR	227810	Fanconi-Bickel syndrome			
11019	SLC34A1	AD	612286	Nephrolithiasis/osteoporosis, hypophosphatemic, 1			
11019	SLC34A1	AR	613388	?Fanconi renotubular syndrome 2			
11019	SLC34A1	AR	616963	Hypercalcemia, infantile, 2			
11025	SLC3A1	AD/AR	220100	Cystinuria			
11027	SLC4A1		110500	[Blood group, Diego]			
11027	SLC4A1		112010	[Blood group, Waldner]			
11027	SLC4A1		112050	[Blood group, Wright]			
11027	SLC4A1		601550	[Blood group, Swann]			
11027	SLC4A1		601551	[Blood group, Froese]			
11027	SLC4A1		611162	{Malaria, cerebral, reduced risk of}; {Malaria, cerebral, susceptibility to}; {Malaria, protection against}; {Malaria, resistance to}; {Malaria, severe, resistance to}; {Malaria, severe, susceptibility to}; {Malaria, susceptibility to}; {Malaria, vivax, protection against}; {Resistance to malaria due to G6PD deficiency}			
11027	SLC4A1	AD	166900	Ovalocytosis, SA type			
11027	SLC4A1	AD	179800	Distal renal tubular acidosis 1			
11027	SLC4A1	AD	185020	Cryohydrocytosis			
11027	SLC4A1	AD	612653	Spherocytosis, type 4			
11027	SLC4A1	AR	611590	Distal renal tubular acidosis 4 with hemolytic anemia			
11030	SLC4A4	AR	604278	Proximal renal tubular acidosis-ocular anomaly syndrome			
11037	SLC5A2	AD/AR	233100	Renal glucosuria			
11067	SLC7A9	AD/AR	220100	Cystinuria			
11075	NHERF1	AD	612287	Nephrolithiasis/osteoporosis, hypophosphatemic, 2			
11102	SMARCAL1	AR	242900	Schimke immunoosseous dysplasia			
11595	TBX18	AD	143400	Congenital anomalies of kidney and urinary tract 2			
11630	HNF1B		144700	?Renal cell carcinoma, clear cell; Renal carcinoma, chromophobe, somatic; Renal cell carcinoma; Renal cell carcinoma, clear cell, somatic; Renal cell carcinoma, somatic; {Renal cell carcinoma}			
11630	HNF1B	AD	125853	Diabetes mellitus, noninsulin-dependent; Diabetes mellitus, noninsulin-dependent, late onset; Diabetes mellitus, type 2; Diabetes mellitus, type II; Insulin resistance, severe, digenic; Type 2 diabetes mellitus; {Diabetes mellitus, non-insulin-dependent, susceptibility to}; {Diabetes mellitus, noninsulin-dependent, 2}; {Diabetes mellitus, noninsulin-dependent, association with}; {Diabetes mellitus, noninsulin-dependent, susceptibility to}; {Diabetes mellitus, noninsulin-dependent}; {Diabetes mellitus, type 2, susceptibility to}; {Diabetes mellitus, type II, susceptibility to}; {Diabetes, type 2}; {Hypertension, insulin resistance-related, susceptibility to}; {Insulin resistance, susceptibility to}; {Type 2 diabetes mellitus, susceptibility to}; {Type 2 diabetes mellitus}			
11630	HNF1B	AD	137920	Renal cysts and diabetes syndrome			
11742	TFAP2A	AD	113620	Branchiooculofacial syndrome			
11784	THBD	AD	612926	{Hemolytic uremic syndrome, atypical, susceptibility to, 6}			
11784	THBD	AD	614486	Thrombophilia 12 due to thrombomodulin defect			
11976	TNXB	AD	615963	Vesicoureteral reflux 8			
11976	TNXB	AR	606408	Ehlers-Danlos syndrome, classic-like, 1			
12338	TRPC6	AD	603965	Glomerulosclerosis, focal segmental, 2			
12362	TSC1		606690	Lymphangioleiomyomatosis; Lymphangioleiomyomatosis, somatic			
12362	TSC1		607341	?Focal cortical dysplasia, type II, somatic; Focal cortical dysplasia, type II, somatic			
12362	TSC1	AD	191100	Tuberous sclerosis-1			
12363	TSC2		606690	Lymphangioleiomyomatosis; Lymphangioleiomyomatosis, somatic			
12363	TSC2		607341	?Focal cortical dysplasia, type II, somatic; Focal cortical dysplasia, type II, somatic			
12363	TSC2	AD	613254	Tuberous sclerosis-2; {TSC2 angiomyolipomas, renal, modifier of}			
12370	CEP41	AR	614464	Joubert syndrome 15			
1241	C1QA	AR	613652	C1q deficiency 1			
1242	C1QB	AR	620321	C1q deficiency 2			
1245	C1QC	AR	620322	C1q deficiency 3			
12559	UMOD	AD	162000	Tubulointerstitial kidney disease, autosomal dominant, 1			
12687	VHL		144700	?Renal cell carcinoma, clear cell; Renal carcinoma, chromophobe, somatic; Renal cell carcinoma; Renal cell carcinoma, clear cell, somatic; Renal cell carcinoma, somatic; {Renal cell carcinoma}			
12687	VHL	AD	171300	Pheochromocytoma; {Pheochromocytoma, susceptibility to}			
12687	VHL	AD	193300	von Hippel-Lindau syndrome; {von Hippel-Lindau syndrome, modifier of}			
12687	VHL	AR	263400	Erythrocytosis, familial, 2			
12712	VPS33B	AR	208085	Arthrogryposis, renal dysfunction, and cholestasis 1			
12712	VPS33B	AR	620009	Keratoderma-ichthyosis-deafness syndrome, autosomal recessive			
12712	VPS33B	AR	620010	Cholestasis, progressive familial intrahepatic, 12			
12756	WDR4	AR	618346	Microcephaly, growth deficiency, seizures, and brain malformations			
12756	WDR4	AR	618347	Galloway-Mowat syndrome 6			
12783	WNT4	AD	158330	Mullerian aplasia and hyperandrogenism			
12783	WNT4	AR	611812	?SERKAL syndrome			
12784	WNT5A	AD	180700	Robinow syndrome, autosomal dominant 1			
12796	WT1		156240	Mesothelioma, somatic; {Mesothelioma, somatic}			
12796	WT1	AD	136680	Frasier syndrome			
12796	WT1	AD	194070	Wilms tumor; Wilms tumor, somatic; Wilms tumor, type 1			
12796	WT1	AD	194080	Denys-Drash syndrome			
12796	WT1	AD	256370	Nephrotic syndrome, type 4			
12796	WT1	AD	608978	Meacham syndrome			
12805	XDH	AR	278300	Xanthinuria, type I			
12874	ZIC3	XD/XR	306955	Congenital heart defects, nonsyndromic, multiple types, 1, X-linked; Heterotaxy, visceral, 1, X-linked			
12874	ZIC3	XD/XR	314390	VACTERL association, X-linked			
12877	ZMPSTE24	AR	275210	Restrictive dermopathy 1			
12877	ZMPSTE24	AR	608612	Mandibuloacral dysplasia with type B lipodystrophy			
1318	C3		611378	{Macular degeneration, age-related, 9}			
1318	C3	AD	612925	{Hemolytic uremic syndrome, atypical, susceptibility to, 5}			
1318	C3	AR	613779	C3 deficiency			
13210	ARL6	AR	209900	Bardet-Biedl syndrome 1; {Bardet-Biedl syndrome 1, modifier of}			
13210	ARL6	AR	600151	Bardet-Biedl syndrome 3			
13210	ARL6	AR	613575	Retinitis pigmentosa 55			
13387	NEK8		613824	?Nephronophthisis 9			
13387	NEK8	AD	620903	Polycystic kidney disease 8			
13387	NEK8	AR	615415	Renal-hepatic-pancreatic dysplasia 2			
13394	NPHS2	AR	600995	Nephrotic syndrome, type 2			
13446	SLC2A9	AD/AR	612076	Hypouricemia, renal, 2; {Uric acid concentration, serum, QTL 2}			
13556	IFT122	AR	218330	Cranioectodermal dysplasia 1			
1366	ADAMTS13	AR	274150	Thrombotic thrombocytopenic purpura, hereditary			
1373	CA2	AR	259730	Osteopetrosis, autosomal recessive 3, with renal tubular acidosis			
1391	CACNA1D	AD	615474	Primary aldosteronism, seizures, and neurologic abnormalities			
1391	CACNA1D	AR	614896	Sinoatrial node dysfunction and deafness			
1395	CACNA1H		611942	{Epilepsy, childhood absence, susceptibility to, 6}; {Epilepsy, idiopathic generalized, susceptibility to, 6}			
1395	CACNA1H	AD	617027	Hyperaldosteronism, familial, type IV			
14082	ANLN	AD	616032	Focal segmental glomerulosclerosis 8			
14188	AVIL	AR	618594	Nephrotic syndrome, type 21			
14258	CD2AP		607832	Glomerulosclerosis, focal segmental, 3			
14432	TMEM237	AR	614424	Joubert syndrome 14			
145	ACTG2	AD	155310	Visceral myopathy 1			
145	ACTG2	AD	619431	Megacystis-microcolon-intestinal hypoperistalsis syndrome 5			
14540	WNK1	AD	614492	Pseudohypoaldosteronism, type IIC			
14540	WNK1	AR	201300	Neuropathy, hereditary sensory and autonomic, type II			
14544	WNK4	AD	614491	Pseudohypoaldosteronism, type IIB			
1514	CASR	AD	145980	Hypocalciuric hypercalcemia, type I			
1514	CASR	AD	601198	Hypocalcemia, autosomal dominant; Hypocalcemia, autosomal dominant, with Bartter syndrome			
1514	CASR	AD	612899	{?Epilepsy idiopathic generalized, susceptibility to, 8}			
1514	CASR	AD/AR	239200	Hyperparathyroidism, neonatal			
15672	ALG9	AR	263210	Gillessen-Kaesbach-Nishimura syndrome			
15672	ALG9	AR	608776	Congenital disorder of glycosylation, type Il			
16067	MYOCD	AD	618719	Megabladder, congenital			
16197	TP53RK	AR	617730	Galloway-Mowat syndrome 4			
16353	MAGED2	XD/XR	300971	Bartter syndrome, type 5, antenatal, transient			
16380	TRIM32	AR	254110	Muscular dystrophy, limb-girdle, autosomal recessive 8			
16380	TRIM32	AR	615988	?Bardet-Biedl syndrome 11			
16512	BSND	AR	602522	Bartter syndrome, type 4a; Sensorineural deafness with mild renal dysfunction			
166	ACTN4	AD	603278	Glomerulosclerosis, focal segmental, 1			
1665	SCARB2	AR	254900	Epilepsy, progressive myoclonic 4, with or without renal failure			
16762	ZNF423	AD/AR	614844	Joubert syndrome 19; Nephronophthisis 14			
16859	NOS1AP	AR	619155	Nephrotic syndrome, type 22			
16980	CFHR3	AD	603075	{?Macular degeneration, age-related}; {Macular degeneration, age-related, 1}; {Macular degeneration, age-related, reduced risk of}			
16980	CFHR3	AD/AR	235400	{Hemolytic uremic syndrome, atypical, susceptibility to, 1}; {Hemolytic uremic syndrome, atypical, susceptibility to}			
17175	PLCE1	AR	610725	Nephrotic syndrome, type 3			
17296	RRM2B	AD	613077	Progressive external ophthalmoplegia with mitochondrial DNA deletions, autosomal dominant 5			
17296	RRM2B	AR	268315	Rod-cone dystrophy, sensorineural deafness, and Fanconi-type renal dysfunction			
17296	RRM2B	AR	612075	Mitochondrial DNA depletion syndrome 8A (encephalomyopathic type with renal tubulopathy); Mitochondrial DNA depletion syndrome 8B (MNGIE type)			
17748	DACT1	AD	617466	Townes-Brocks syndrome 2			
17861	TRAF3IP1	AR	616629	Senior-Loken syndrome 9			
17870	INVS	AR	602088	Nephronophthisis 2, infantile			
17966	CEP83	AR	615862	Nephronophthisis 18			
17989	SLC22A12	AR	220150	Hypouricemia, renal			
18016	NUP133	AR	618177	Nephrotic syndrome, type 18			
18016	NUP133	AR	618349	?Galloway-Mowat syndrome 8			
18017	NUP160	AR	618178	?Nephrotic syndrome, type 19			
18028	OSGEP	AR	617729	Galloway-Mowat syndrome 3			
18122	SOX17	AD	613674	Vesicoureteral reflux 3			
18141	DCDC2	AR	610212	?Deafness, autosomal recessive 66			
18141	DCDC2	AR	616217	Nephronophthisis 19			
18141	DCDC2	AR	617394	Sclerosing cholangitis, neonatal			
18234	MOCOS	AR	603592	Xanthinuria, type II			
18276	SEC61A1	AD	617056	Tubulointerstitial kidney disease, autosomal dominant, 5			
18276	SEC61A1	AD	620670	Immunodeficiency, common variable, 15			
18276	SEC61A1	AD	620674	?Neutropenia, severe congenital, 11, autosomal dominant			
18340	WDR19	AR	614376	Short-rib thoracic dysplasia 5 with or without polydactyly			
18340	WDR19	AR	614377	Nephronophthisis 13			
18340	WDR19	AR	614378	Cranioectodermal dysplasia 4			
18340	WDR19	AR	616307	Senior-Loken syndrome 8			
18340	WDR19	AR	619867	?Spermatogenic failure 72			
18374	HPSE2	AR	236730	Urofacial syndrome 1			
1857	CENPF	AR	243605	Stromme syndrome			
18626	IFT27	AR	615996	Bardet-Biedl syndrome 19			
18658	NUP205	AR	616893	?Nephrotic syndrome, type 13			
18688	CRB2	AR	219730	Ventriculomegaly with cystic kidney disease			
18688	CRB2	AR	616220	Focal segmental glomerulosclerosis 9			
18708	GRIP1	AR	617667	Fraser syndrome 3			
18758	BBS7	AR	615984	Bardet-Biedl syndrome 7			
18762	SLC36A2	AD	138500	[Hyperglycinuria]			
18762	SLC36A2	AR	242600	[Iminoglycinuria]			
18957	MAGI2	AR	617609	Nephrotic syndrome, type 15			
19041	COQ8B	AR	615573	Nephrotic syndrome, type 9			
19104	NPHP4	AR	606966	Nephronophthisis 4			
19104	NPHP4	AR	606996	Senior-Loken syndrome 4			
19185	FRAS1	AR	219000	Fraser syndrome 1			
19351	BICC1	AD	601331	{Renal dysplasia, cystic, susceptibility to}			
1952	CHRM3	AR	100100	Prune belly syndrome			
1957	CHRNA3		612052	{Lung cancer susceptibility 2}; {Nicotine dependence, susceptibility to}			
1957	CHRNA3	AR	191800	Bladder dysfunction, autonomic, with impaired pupillary reflex and secondary CAKUT			
2023	CLCN5	XD/XR	300009	Dent disease 1			
2023	CLCN5	XD/XR	300554	Hypophosphatemic rickets			
2023	CLCN5	XD/XR	308990	Proteinuria, low molecular weight, with hypercalciuric nephrocalcinosis			
2023	CLCN5	XD/XR	310468	Nephrolithiasis, type I			
20233	COQ6	AR	614650	Coenzyme Q10 deficiency, primary, 6			
2026	CLCNKA	AR	613090	Bartter syndrome, type 4b, digenic			
2027	CLCNKB	AR	607364	Bartter syndrome, type 3			
2027	CLCNKB	AR	613090	Bartter syndrome, type 4b, digenic			
20305	SLC34A3	AR	241530	Hypophosphatemic rickets with hypercalciuria			
2033	CLDN10	AR	617671	HELIX syndrome			
2037	CLDN16	AR	248250	Hypomagnesemia 3, renal			
2040	CLDN19	AR	248190	Hypomagnesemia 5, renal, with ocular involvement			
20626	CHD7	AD	214800	CHARGE syndrome			
20626	CHD7	AD	612370	Hypogonadotropic hypogonadism 5 with or without anosmia			
20889	LRIG2	AR	615112	Urofacial syndrome 2			
21285	ADCY10	AD	143870	{Hypercalciuria, absorptive, susceptibility to}			
21474	INPP5E	AR	213300	Joubert syndrome 1			
21474	INPP5E	AR	610156	Impaired intellectual development, truncal obesity, retinal dystrophy, and micropenis syndrome			
21575	AHI1	AR	608629	Joubert syndrome 3			
21862	DYNC2I1	AR	615503	Short-rib thoracic dysplasia 8 with or without polydactyly			
2202	COL4A1		614519	{Hemorrhage, intracerebral, susceptibility to}; {Stroke, hemorrhagic}			
2202	COL4A1	AD	175780	Brain small vessel disease with or without ocular anomalies			
2202	COL4A1	AD	180000	?Retinal arteries, tortuosity of			
2202	COL4A1	AD	611773	Angiopathy, hereditary, with nephropathy, aneurysms, and muscle cramps			
2202	COL4A1	AD	618564	Microangiopathy and leukoencephalopathy, pontine, autosomal dominant			
2204	COL4A3		620536	Alport syndrome 3B, autosomal recessive			
2204	COL4A3	AD	104200	Alport syndrome 3A, autosomal dominant			
2204	COL4A3	AD	620320	Hematuria, benign familial, 2			
2206	COL4A4	AD	141200	Hematuria, familial benign, 1			
2206	COL4A4	AR	203780	Alport syndrome 2, autosomal recessive			
2207	COL4A5	XD/XR	301050	Alport syndrome 1, X-linked			
23015	FAM20A	AR	204690	Amelogenesis imperfecta, type IG (enamel-renal syndrome)			
23041	PDSS2	AR	614652	Coenzyme Q10 deficiency, primary, 3			
23399	FREM1	AD	614485	Trigonocephaly 2			
23399	FREM1	AR	248450	Manitoba oculotrichoanal syndrome			
23399	FREM1	AR	608980	Bifid nose with or without anorectal and renal anomalies			
23791	INF2		613237	Glomerulosclerosis, focal segmental, 5			
23791	INF2	AD	614455	Charcot-Marie-Tooth disease, dominant intermediate E			
24123	B9D1	AR	614209	?Meckel syndrome 9			
24123	B9D1	AR	617120	Joubert syndrome 27			
24259	TPRKB	AR	617731	Galloway-Mowat syndrome 5			
24668	CFHR5	AD	614809	Nephropathy due to CFHR5 deficiency			
24715	TBC1D8B	XD/XR	301028	Nephrotic syndrome, type 20			
25018	TMEM216	AR	603194	Meckel syndrome 2			
25018	TMEM216	AR	608091	Joubert syndrome 2			
25018	TMEM216	AR	620996	Retinitis pigmentosa 98			
25155	HOGA1	AR	613616	Hyperoxaluria, primary, type III			
2518	CTNS	AR	219750	Cystinosis, ocular nonnephropathic			
2518	CTNS	AR	219800	Cystinosis, atypical nephropathic; Cystinosis, nephropathic			
2518	CTNS	AR	219900	Cystinosis, late-onset juvenile or adolescent nephropathic			
25223	COQ2	AD/AR	146500	{Multiple system atrophy, susceptibility to}			
25223	COQ2	AR	607426	Coenzyme Q10 deficiency, primary, 1			
25396	FREM2	AR	123570	Cryptophthalmos, unilateral or bilateral, isolated			
25396	FREM2	AR	617666	Fraser syndrome 2			
25660	TTC21B	AD/AR	613820	Nephronophthisis 12			
25660	TTC21B	AR	613819	Short-rib thoracic dysplasia 4 with or without polydactyly			
2567	OFD1	XD/XR	300209	Simpson-Golabi-Behmel syndrome, type 2			
2567	OFD1	XD/XR	300424	?Retinitis pigmentosa 23			
2567	OFD1	XD/XR	300804	Joubert syndrome 10			
2567	OFD1	XD/XR	311200	Orofaciodigital syndrome I			
25774	TCTN2	AR	613885	?Meckel syndrome 8			
25774	TCTN2	AR	616654	Joubert syndrome 24			
25801	CPLANE1	AR	277170	Orofaciodigital syndrome VI			
25801	CPLANE1	AR	614615	Joubert syndrome 17			
25928	WDR73	AR	251300	Galloway-Mowat syndrome 1			
2602	CYP24A1	AR	143880	Hypercalcemia, infantile, 1			
26058	LAGE3	XD/XR	301006	Galloway-Mowat syndrome 2, X-linked			
26193	CSPP1	AR	615636	Joubert syndrome 21			
26291	BBS10	AR	615987	Bardet-Biedl syndrome 10			
26551	DZIP1L	AR	617610	Polycystic kidney disease 5			
26648	BBS12	AR	615989	Bardet-Biedl syndrome 12			
26724	ANKS6	AR	615382	Nephronophthisis 16			
26944	TMEM138	AR	614465	Joubert syndrome 16			
2707	ACE		612624	{Microvascular complications of diabetes 3}			
2707	ACE		614519	{Hemorrhage, intracerebral, susceptibility to}; {Stroke, hemorrhagic}			
2707	ACE	AR	267430	Renal tubular dysgenesis			
27310	FLCN		114500	Colon cancer, advanced, somatic; Colon cancer, somatic; Colorectal cancer with chromosomal instability, somatic; Colorectal cancer, somatic; {?Colorectal cancer, susceptibility to}; {Colon cancer, susceptibility to}; {Colorectal cancer, susceptibility to}; {Colorectal cancer}			
27310	FLCN		144700	?Renal cell carcinoma, clear cell; Renal carcinoma, chromophobe, somatic; Renal cell carcinoma; Renal cell carcinoma, clear cell, somatic; Renal cell carcinoma, somatic; {Renal cell carcinoma}			
27310	FLCN	AD	135150	Birt-Hogg-Dube syndrome			
27310	FLCN	AD	173600	Pneumothorax, primary spontaneous			
27960	SLC6A19	AR	234500	Hartnup disorder			
28005	CTU2	AR	618142	Microcephaly, facial dysmorphism, renal agenesis, and ambiguous genitalia syndrome			
28052	XPNPEP3	AR	613159	Nephronophthisis-like nephropathy 1			
28128	TMEM107	AR	617562	?Joubert syndrome 29; Meckel syndrome 13			
28128	TMEM107	AR	617563	Orofaciodigital syndrome XVI			
28163	CCDC28B	AR	209900	Bardet-Biedl syndrome 1; {Bardet-Biedl syndrome 1, modifier of}			
28296	DYNC2I2	AR	615633	Short-rib thoracic dysplasia 11 with or without polydactyly			
28396	TMEM67	AR	216360	COACH syndrome 1			
28396	TMEM67	AR	602152	?RHYNS syndrome			
28396	TMEM67	AR	607361	Meckel syndrome 3			
28396	TMEM67	AR	610688	Joubert syndrome 6			
28396	TMEM67	AR	613550	Nephronophthisis 11			
28396	TMEM67	AR	615991	?Bardet-Biedl syndrome 14; {Bardet-Biedl syndrome 14, modifier of}			
28434	CCNQ	XD/XR	300707	STAR syndrome			
2852	DGKE	AR	615008	Nephrotic syndrome, type 7; {Hemolytic uremic syndrome, atypical, susceptibility to, 7}			
2860	DHCR7	AR	270400	Smith-Lemli-Opitz syndrome			
28636	B9D2	AR	614175	?Meckel syndrome 10; Joubert syndrome 34			
28862	NIPBL	AD	122470	Cornelia de Lange syndrome 1			
28949	IQCB1	AR	609254	Senior-Loken syndrome 5			
28958	NUP93	AR	616892	Nephrotic syndrome, type 12			
29021	CEP290		611755	Leber congenital amaurosis 10			
29021	CEP290	AR	610188	Joubert syndrome 5			
29021	CEP290	AR	610189	Senior-Loken syndrome 6			
29021	CEP290	AR	611134	Meckel syndrome 4			
29021	CEP290	AR	615991	?Bardet-Biedl syndrome 14; {Bardet-Biedl syndrome 14, modifier of}			
29043	DSTYK	AD	610805	Congenital anomalies of kidney and urinary tract 1			
29043	DSTYK	AR	270750	Spastic paraplegia 23, autosomal recessive			
29077	IFT140	AR	266920	Short-rib thoracic dysplasia 9 with or without polydactyly			
29077	IFT140	AR	617781	Retinitis pigmentosa 80			
29168	RPGRIP1L	AR	611560	Joubert syndrome 7			
29168	RPGRIP1L	AR	611561	Meckel syndrome 5			
29168	RPGRIP1L	AR	619113	?COACH syndrome 3			
29170	FAN1	AR	614817	Interstitial nephritis, karyomegalic			
29182	CEP164	AR	614845	Nephronophthisis 15			
29250	WDR35	AR	613610	Cranioectodermal dysplasia 2			
29250	WDR35	AR	614091	Short-rib thoracic dysplasia 7 with or without polydactyly			
29253	CC2D2A	AR	612284	Meckel syndrome 6			
29253	CC2D2A	AR	612285	Joubert syndrome 9			
29253	CC2D2A	AR	619111	COACH syndrome 2			
29253	CC2D2A	AR	619845	Retinitis pigmentosa 93			
29262	IFT80	AR	611263	Short-rib thoracic dysplasia 2 with or without polydactyly			
29300	KANK2	AR	616099	Palmoplantar keratoderma and woolly hair			
29300	KANK2	AR	617783	Nephrotic syndrome, type 16			
2932	DMP1	AR	241520	Hypophosphatemic rickets, AR			
29450	GLIS2	AR	611498	Nephronophthisis 7			
29536	MAPKBP1	AR	617271	Nephronophthisis 20			
2962	DYNC2H1	AR	613091	Short-rib thoracic dysplasia 3 with or without polydactyly			
29669	IFT43	AR	614099	?Cranioectodermal dysplasia 3			
29669	IFT43	AR	617866	Short-rib thoracic dysplasia 18 with polydactyly			
29669	IFT43	AR	617871	?Retinitis pigmentosa 81			
29832	NADSYN1	AR	618845	Vertebral, cardiac, renal, and limb defects syndrome 3			
29914	NUP107	AR	616730	Nephrotic syndrome, type 11			
29914	NUP107	AR	618078	?Ovarian dysgenesis 6			
29914	NUP107	AR	618348	Galloway-Mowat syndrome 7			
30000	BBS9	AR	615986	Bardet-Biedl syndrome 9			
30391	IFT172	AR	615630	Short-rib thoracic dysplasia 10 with or without polydactyly			
30391	IFT172	AR	616394	Retinitis pigmentosa 71			
30391	IFT172	AR	619471	Bardet-Biedl syndrome 20			
30650	STRA6	AR	601186	Microphthalmia, isolated, with coloboma 8; Microphthalmia, syndromic 9			
31042	GREB1L	AD	617805	Renal hypodysplasia/aplasia 3			
31042	GREB1L	AD	619274	Deafness, autosomal dominant 80			
3247	EHHADH	AD	615605	?Fanconi renotubular syndrome 3			
333	AGT	AR	267430	Renal tubular dysgenesis			
3334	EMP2	AR	615861	Nephrotic syndrome, type 10			
3356	ENPP1	AD	125853	Diabetes mellitus, noninsulin-dependent; Diabetes mellitus, noninsulin-dependent, late onset; Diabetes mellitus, type 2; Diabetes mellitus, type II; Insulin resistance, severe, digenic; Type 2 diabetes mellitus; {Diabetes mellitus, non-insulin-dependent, susceptibility to}; {Diabetes mellitus, noninsulin-dependent, 2}; {Diabetes mellitus, noninsulin-dependent, association with}; {Diabetes mellitus, noninsulin-dependent, susceptibility to}; {Diabetes mellitus, noninsulin-dependent}; {Diabetes mellitus, type 2, susceptibility to}; {Diabetes mellitus, type II, susceptibility to}; {Diabetes, type 2}; {Hypertension, insulin resistance-related, susceptibility to}; {Insulin resistance, susceptibility to}; {Type 2 diabetes mellitus, susceptibility to}; {Type 2 diabetes mellitus}			
3356	ENPP1	AD	615522	Cole disease			
3356	ENPP1	AD/AR	601665	Obesity, mild, early-onset; Obesity, severe; {?Obesity, susceptibility to}; {Leanness, inherited}; {Obesity, association with}; {Obesity, early-onset, susceptibility to}; {Obesity, late-onset}; {Obesity, severe, and type II diabetes}; {Obesity, susceptibility to}			
3356	ENPP1	AR	208000	Arterial calcification, generalized, of infancy, 1			
3356	ENPP1	AR	613312	Hypophosphatemic rickets, autosomal recessive, 2			
336	AGTR1		145500	Hypertension, essential; [Blood pressure regulation QTL]; {Hypertension, essential, salt-sensitive}; {Hypertension, essential, susceptibility to}; {Hypertension, essential}; {Hypertension, salt-sensitive essential, susceptibility to}; {Hypertension, susceptibility to}			
336	AGTR1	AR	267430	Renal tubular dysgenesis			
341	AGXT	AR	259900	Hyperoxaluria, primary, type 1			
3519	EYA1	AD	113650	Branchiootorenal syndrome 1, with or without cataracts			
3519	EYA1	AD	166780	?Otofaciocervical syndrome			
3519	EYA1	AD	602588	Anterior segment anomalies with or without cataract; Branchiootic syndrome 1			
3579	FAH	AR	276700	Tyrosinemia, type I			
3677	FGF20	AR	615721	?Renal hypodysplasia/aplasia 2			
3680	FGF23	AD	193100	Hypophosphatemic rickets, autosomal dominant			
3680	FGF23	AR	617993	Tumoral calcinosis, hyperphosphatemic, familial, 2			
37234	TMEM231	AR	614970	Joubert syndrome 20			
37234	TMEM231	AR	615397	Meckel syndrome 11			
3778	FN1	AD	184255	Spondylometaphyseal dysplasia, corner fracture type			
3778	FN1	AD	601894	Glomerulopathy with fibronectin deposits 2			
4026	FXYD2	AD	154020	Hypomagnesemia 2, renal			
4138	GANAB	AD	600666	Polycystic kidney disease 3			
4172	GATA3	AD	146255	Hypoparathyroidism, sensorineural deafness, and renal dysplasia			
4175	GATM	AD	134600	Fanconi renotubular syndrome 1			
4175	GATM	AR	612718	Cerebral creatine deficiency syndrome 3			
428	ALMS1	AR	203800	Alstrom syndrome			
4296	GLA	XD/XR	301500	Fabry disease; Fabry disease, cardiac variant			
4319	GLI3	AD	146510	Pallister-Hall syndrome			
4319	GLI3	AD	174200	Polydactyly, postaxial, types A1 and B			
4319	GLI3	AD	174700	Polydactyly, preaxial, type IV			
4319	GLI3	AD	175700	Greig cephalopolysyndactyly syndrome			
4451	GPC3		194070	Wilms tumor; Wilms tumor, somatic; Wilms tumor, type 1			
4451	GPC3	XD/XR	312870	Simpson-Golabi-Behmel syndrome, type 1			
4570	GRHPR	AR	260000	Hyperoxaluria, primary, type II			
4796	HAAO	AR	617660	Vertebral, cardiac, renal, and limb defects syndrome 1			
4883	CFH	AD	126700	Basal laminar drusen			
4883	CFH	AD	610698	{Macular degeneration, age-related, 4}			
4883	CFH	AD/AR	235400	{Hemolytic uremic syndrome, atypical, susceptibility to, 1}; {Hemolytic uremic syndrome, atypical, susceptibility to}			
4883	CFH	AD/AR	609814	Complement factor H deficiency			
4888	CFHR1	AD	603075	{?Macular degeneration, age-related}; {Macular degeneration, age-related, 1}; {Macular degeneration, age-related, reduced risk of}			
4888	CFHR1	AD/AR	235400	{Hemolytic uremic syndrome, atypical, susceptibility to, 1}; {Hemolytic uremic syndrome, atypical, susceptibility to}			
5024	HNF4A	AD	125850	MODY, type I			
5024	HNF4A	AD	125853	Diabetes mellitus, noninsulin-dependent; Diabetes mellitus, noninsulin-dependent, late onset; Diabetes mellitus, type 2; Diabetes mellitus, type II; Insulin resistance, severe, digenic; Type 2 diabetes mellitus; {Diabetes mellitus, non-insulin-dependent, susceptibility to}; {Diabetes mellitus, noninsulin-dependent, 2}; {Diabetes mellitus, noninsulin-dependent, association with}; {Diabetes mellitus, noninsulin-dependent, susceptibility to}; {Diabetes mellitus, noninsulin-dependent}; {Diabetes mellitus, type 2, susceptibility to}; {Diabetes mellitus, type II, susceptibility to}; {Diabetes, type 2}; {Hypertension, insulin resistance-related, susceptibility to}; {Insulin resistance, susceptibility to}; {Type 2 diabetes mellitus, susceptibility to}; {Type 2 diabetes mellitus}			
5024	HNF4A	AD	616026	Fanconi renotubular syndrome 4, with maturity-onset diabetes of the young			
5102	HOXA13	AD	140000	Hand-foot-genital syndrome			
5102	HOXA13	AD	176305	?Guttmacher syndrome			
5157	HPRT1	XD/XR	300322	Lesch-Nyhan syndrome			
5157	HPRT1	XD/XR	300323	Hyperuricemia, HRPT-related			
5209	HSD11B2	AR	218030	Apparent mineralocorticoid excess			
5394	CFI	AD	612923	{Hemolytic uremic syndrome, atypical, susceptibility to, 3}			
5394	CFI	AD	615439	{Macular degeneration, age-related, 13, susceptibility to}			
5394	CFI	AR	610984	Complement factor I deficiency			
6139	ITGA3	AR	614748	Epidermolysis bullosa, junctional 7, with interstitial lung disease and nephrotic syndrome			
6144	ITGA8	AR	191830	Renal hypodysplasia/aplasia 1			
6188	JAG1	AD	118450	Alagille syndrome 1			
6188	JAG1	AD	187500	Tetralogy of Fallot			
6188	JAG1	AD	617992	?Deafness, congenital heart defects, and posterior embryotoxon			
6188	JAG1	AD	619574	Charcot-Marie-Tooth disease, axonal, type 2HH			
6211	ANOS1	XD/XR	308700	Hypogonadotropic hypogonadism 1 with or without anosmia (Kallmann syndrome 1)			
6255	KCNJ1	AR	241200	Bartter syndrome, type 2			
626	APRT	AR	614723	Adenine phosphoribosyltransferase deficiency			
634	AQP2	AD/AR	125800	Diabetes insipidus, nephrogenic, 2			
6354	KLHL3	AD/AR	614495	Pseudohypoaldosteronism, type IID			
6469	KYNU	AR	236800	?Hydroxykynureninuria			
6469	KYNU	AR	617661	Vertebral, cardiac, renal, and limb defects syndrome 2			
6487	LAMB2	AR	609049	Pierson syndrome			
6487	LAMB2	AR	614199	Nephrotic syndrome, type 5, with or without ocular abnormalities			
6654	LMX1B	AD	161200	Nail-patella syndrome			
6654	LMX1B	AD	256020	Focal segmental glomerulosclerosis 10			
6696	LRP4	AD/AR	614305	Sclerosteosis 2			
6696	LRP4	AR	212780	Cenani-Lenz syndactyly syndrome			
6696	LRP4	AR	616304	?Myasthenic syndrome, congenital, 17			
6741	LZTFL1	AR	615994	Bardet-Biedl syndrome 17			
678	ARHGDIA	AR	615244	Nephrotic syndrome, type 8			
6953	CD46	AD/AR	612922	{Hemolytic uremic syndrome, atypical, susceptibility to, 2}			
6998	MEFV	AD	134610	Familial Mediterranean fever, AD			
6998	MEFV	AD	608068	Neutrophilic dermatosis, acute febrile			
6998	MEFV	AR	249100	Familial Mediterranean fever, AR			
7108	MKKS	AR	236700	McKusick-Kaufman syndrome			
7108	MKKS	AR	605231	Bardet-Biedl syndrome 6			
7121	MKS1	AR	249000	Meckel syndrome 1			
7121	MKS1	AR	615990	Bardet-Biedl syndrome 13			
7121	MKS1	AR	617121	Joubert syndrome 28			
7133	KMT2D	AD	147920	Kabuki syndrome 1			
7133	KMT2D	AD	620186	Branchial arch abnormalities, choanal atresia, athelia, hearing loss, and hypothyroidism syndrome			
7508	MUC1	AD	174000	Tubulointerstitial kidney disease, autosomal dominant, 2			
7599	MYO1E	AR	614131	Glomerulosclerosis, focal segmental, 6			
7744	NEK1	AD	617892	{Amyotrophic lateral sclerosis, susceptibility to, 24}			
7744	NEK1	AR	252100	?Orofaciodigital syndrome II			
7744	NEK1	AR	263520	Short-rib thoracic dysplasia 6 with or without polydactyly			
7882	NOTCH2	AD	102500	Hajdu-Cheney syndrome			
7882	NOTCH2	AD	610205	Alagille syndrome 2			
7905	NPHP1	AR	256100	Nephronophthisis 1, juvenile			
7905	NPHP1	AR	266900	Senior-Loken syndrome-1			
7905	NPHP1	AR	609583	Joubert syndrome 4			
7907	NPHP3	AR	208540	Renal-hepatic-pancreatic dysplasia 1			
7907	NPHP3	AR	267010	Meckel syndrome 7			
7907	NPHP3	AR	604387	Nephronophthisis 3			
7908	NPHS1	AR	256300	Nephrotic syndrome, type 1			
7978	NR3C1	AD	615962	Glucocorticoid resistance			
7979	NR3C2		605115	Hypertension, early-onset, autosomal dominant, with exacerbation in pregnancy			
7979	NR3C2	AD	177735	Pseudohypoaldosteronism type I, autosomal dominant			
8108	OCRL	XD/XR	300555	Dent disease 2			
8108	OCRL	XD/XR	309000	Lowe syndrome			
853	ATP6V1B1	AR	267300	Distal renal tubular acidosis 2 with progressive sensorineural hearing loss			
8616	PAX2	AD	120330	Papillorenal syndrome			
8616	PAX2	AD	616002	Glomerulosclerosis, focal segmental, 7			
8632	PBX1	AD	617641	Congenital anomalies of kidney and urinary tract syndrome with or without hearing loss, abnormal ears, or developmental delay			
866	ATP6V0A4	AR	602722	Distal renal tubular acidosis 3, with or without sensorineural hearing loss			
8734	NUP85	AR	618176	Nephrotic syndrome, type 17			
8788	PDE6D	AR	615665	Joubert syndrome 22			
8918	PHEX	XD/XR	307800	Hypophosphatemic rickets, X-linked dominant			
897	AVPR2	XD/XR	300539	Nephrogenic syndrome of inappropriate antidiuresis			
897	AVPR2	XD/XR	304800	Diabetes insipidus, nephrogenic, 1			
9008	PKD1	AD	173900	Polycystic kidney disease 1			
9009	PKD2	AD	613095	Polycystic kidney disease 2			
9016	PKHD1	AR	263200	Polycystic kidney disease 4, with or without hepatic disease			
9115	PMM2	AR	212065	Congenital disorder of glycosylation, type Ia			
9462	PRPS1	XD/XR	300661	Gout, PRPS-related; Phosphoribosylpyrophosphate synthetase superactivity			
9462	PRPS1	XD/XR	301835	Arts syndrome			
9462	PRPS1	XD/XR	304500	Deafness, X-linked 1			
9462	PRPS1	XD/XR	311070	Charcot-Marie-Tooth disease, X-linked recessive, 5			
966	BBS1	AR	209900	Bardet-Biedl syndrome 1; {Bardet-Biedl syndrome 1, modifier of}			
967	BBS2	AR	615981	Bardet-Biedl syndrome 2			
967	BBS2	AR	616562	Retinitis pigmentosa 74			
9678	PTPRO	AR	614196	Nephrotic syndrome, type 6			
969	BBS4	AR	615982	Bardet-Biedl syndrome 4			
970	BBS5	AR	615983	Bardet-Biedl syndrome 5			
9958	REN	AD	613092	Tubulointerstitial kidney disease, autosomal dominant, 4			
9958	REN	AR	267430	Renal tubular dysgenesis			
