# Gene panel: Arvelig kreft APC-v1.2.0 -- Date: 2025-03-03
HGNC id	HGNC symbol	inheritance	phenotype MIM number	phenotype	PMID	inheritance info	comment
583	APC		114500	Colon cancer, advanced, somatic; Colon cancer, somatic; Colorectal cancer with chromosomal instability, somatic; Colorectal cancer, somatic; {?Colorectal cancer, susceptibility to}; {Colon cancer, susceptibility to}; {Colorectal cancer, susceptibility to}; {Colorectal cancer}			
583	APC		114550	Hepatoblastoma, somatic; Hepatocellular cancer, somatic; Hepatocellular carcinoma, childhood type, somatic; Hepatocellular carcinoma, somatic			
583	APC		175100	Adenoma, periampullary, somatic; Adenomatous polyposis coli; Brain tumor-polyposis syndrome 2; Gardner syndrome			
583	APC		613659	Gastric cancer, somatic; {Gastric cancer risk after H. pylori infection}			
583	APC	AD	135290	Desmoid disease, hereditary			
583	APC	AD	175100	Adenoma, periampullary, somatic; Adenomatous polyposis coli; Brain tumor-polyposis syndrome 2; Gardner syndrome			
583	APC	AD	619182	Gastric adenocarcinoma and proximal polyposis of the stomach			
