# Gene panel: Pulmonal hypertensjon-v3.1.0 -- Date: 2025-03-03
#chromosome	read start	read end	name	score	strand	tags	HGNC id	HGNC symbol	inheritance	coding start	coding end	exon starts	exon ends	metadata
2	26915589	26956288	NM_002246.3	0.0	+	MANE Select	6278	KCNK3	AD	26915743	26951436	26915589,26950534	26916026,26956288	{}
2	69623257	69664567	NM_001002755.4	0.0	-	MANE Select	16287	NFU1	AR	69623377	69664554	69623257,69627495,69633153,69642316,69646669,69650713,69659033,69664492	69623422,69627670,69633214,69642431,69646736,69650849,69659137,69664567	{}
2	203241049	203432472	NM_001204.7	0.0	+	MANE Select	1078	BMPR2	AD	203242197	203424669	203241049,203329531,203332241,203378441,203379610,203383544,203384809,203395516,203397307,203407033,203417438,203419974,203424418	203242273,203329702,203332412,203378552,203379702,203383775,203384924,203395677,203397455,203407170,203417611,203421254,203432472	{}
3	194123405	194207731	NM_001367549.1	0.0	-	MANE Select	24113	ATP13A3	AD	194126647	194182919	194123405,194132927,194134487,194140607,194146070,194147803,194149573,194150406,194150800,194151001,194151671,194151832,194152445,194154500,194157823,194158039,194158284,194159584,194162039,194165453,194167655,194168580,194169185,194170873,194174434,194174986,194176621,194177822,194180199,194180517,194181386,194182868,194206522,194207294	194126845,194133017,194134568,194140696,194146258,194147981,194149646,194150503,194150910,194151044,194151751,194151955,194152621,194154625,194157944,194158193,194158302,194159701,194162190,194165515,194167844,194168738,194169365,194171005,194174507,194175121,194176691,194177903,194180270,194180700,194181560,194182965,194206564,194207731	{}
4	55944647	55991762	NM_002253.4	0.0	-	MANE Select	6307	KDR	AD	55946107	55991460	55944647,55948122,55948702,55953773,55955034,55955540,55955857,55956122,55958783,55960968,55961743,55962395,55963828,55964303,55964863,55968063,55968528,55970809,55971998,55972853,55973903,55976569,55976820,55979470,55980292,55981040,55981447,55984770,55987263,55991393	55946330,55948208,55948802,55953925,55955140,55955640,55955969,55956245,55958881,55961122,55961832,55962509,55963933,55964439,55964970,55968195,55968675,55971151,55972107,55972977,55974060,55976733,55976935,55979648,55980432,55981209,55981578,55984967,55987357,55991762	{}
8	55370494	55373452	NM_022454.4	0.0	+	MANE Select	18122	SOX17	AD	55370698	55372555	55370494,55371617	55371005,55373452	{}
9	130577294	130616937	NM_001114753.3	0.0	-	MANE Select	3349	ENG	AD	130577960	130616634	130577294,130578221,130579427,130580398,130580994,130581900,130582178,130586582,130587078,130587509,130587973,130588788,130591965,130605372,130616567	130578085,130578332,130579482,130580656,130581111,130581939,130582316,130586725,130587253,130587636,130588139,130588951,130592106,130605524,130616937	{}
10	48411773	48416908	NM_016204.4	0.0	-	MANE Select	4217	GDF2	AD	48413577	48416693	48411773,48416347	48414521,48416908	{}
11	17414431	17498392	NM_000352.6	0.0	-	MANE Select	59	ABCC8	AD	17414537	17498323	17414431,17415243,17415812,17416718,17417156,17417398,17418462,17418739,17419230,17419885,17424207,17426058,17427040,17428168,17428434,17428900,17429938,17432062,17434212,17434940,17436058,17436850,17438476,17448595,17449413,17449835,17450111,17452360,17453750,17464266,17464724,17470062,17474665,17482034,17483129,17484984,17491647,17496432,17498175	17414675,17415306,17415946,17416822,17417265,17417477,17418593,17418860,17419344,17419988,17424300,17426216,17427110,17428335,17428676,17429000,17430064,17432200,17434293,17435025,17436157,17436886,17438509,17448701,17449489,17449952,17450217,17452506,17453791,17464429,17464859,17470218,17474830,17482223,17483372,17485151,17491769,17496574,17498392	{}
12	52301287	52317145	NM_000020.3	0.0	+	MANE Select	175	ACVRL1	AD	52306258	52314677	52301287,52306253,52306882,52307342,52307757,52308222,52309008,52309819,52312768,52314542	52301479,52306319,52307134,52307554,52307857,52308369,52309284,52310017,52312899,52317145	{}
13	37418967	37494375	NM_001127217.3	0.0	-	MANE Select	6774	SMAD9	AD	37422812	37453826	37418967,37427555,37439673,37441409,37446794,37453414,37494252	37422956,37427812,37439895,37441520,37447052,37454012,37494375	{}
15	40226315	40327792	NM_001013703.4	0.0	+	MANE Select	19687	EIF2AK4	AR	40226396	40327285	40226315,40231705,40235583,40241316,40246104,40247820,40253984,40257886,40259544,40265108,40265792,40268614,40270278,40278005,40280183,40282473,40284375,40284969,40289164,40290931,40293188,40294913,40295393,40299216,40300227,40301814,40303481,40308702,40309308,40311293,40313099,40314719,40318177,40321606,40322559,40324369,40324957,40326526,40327227	40226540,40231818,40235686,40241469,40246185,40247969,40254100,40258044,40260080,40265215,40265950,40269045,40270348,40278089,40280306,40282578,40284430,40285049,40289266,40290985,40293425,40294989,40295515,40299266,40300396,40301931,40303547,40308873,40309443,40311401,40313228,40314806,40318290,40321665,40322657,40324438,40325002,40326645,40327792	{}
17	59529782	59562471	NM_001321120.2	0.0	+	MANE Select	11603	TBX4	AD	59533851	59560877	59529782,59533848,59534897,59543179,59544870,59555987,59557241,59557450,59560257	59529938,59534037,59534992,59543299,59545018,59556140,59557330,59557680,59562471	{}
19	39405905	39421403	NM_017827.4	0.0	-	MANE Select	17697	SARS2	AR	39406245	39421376	39405905,39406480,39406676,39406860,39408363,39408560,39408733,39409061,39409405,39410401,39410725,39412031,39412166,39412877,39416844,39421109	39406389,39406546,39406769,39406954,39408473,39408648,39408779,39409170,39409453,39410507,39410789,39412086,39412307,39412907,39416940,39421403	{}
