# Gene panel: Orbitasykdommer-v1.2.0 -- Date: 2025-03-03
HGNC id	HGNC symbol	inheritance	phenotype MIM number	phenotype	PMID	inheritance info	comment
1092	FOXL2	AD	608996	Premature ovarian failure 3			
1092	FOXL2	AD/AR	110100	Blepharophimosis, epicanthus inversus, and ptosis, type 1; Blepharophimosis, epicanthus inversus, and ptosis, type 2			
11654	TCOF1	AD	154500	Treacher Collins syndrome 1			
13433	ROBO3	AR	607313	Gaze palsy, familial horizontal, with progressive scoliosis, 1			
17582	KAT6B	AD	603736	SBBYSS syndrome			
17582	KAT6B	AD	606170	Genitopatellar syndrome			
19349	KIF21A	AD	135700	Fibrosis of extraocular muscles, congenital, 1; Fibrosis of extraocular muscles, congenital, 3B			
1943	CHN1	AD	604356	Duane retraction syndrome 2			
20194	POLR1C	AR	248390	Treacher Collins syndrome 3			
20194	POLR1C	AR	616494	Leukodystrophy, hypomyelinating, 11			
20422	POLR1D	AD/AR	613717	Treacher Collins syndrome 2			
2860	DHCR7	AR	270400	Smith-Lemli-Opitz syndrome			
3801	FOXC2	AD	153400	Lymphedema-distichiasis syndrome; Lymphedema-distichiasis syndrome with renal disease and diabetes mellitus			
5111	HOXB1	AR	614744	Facial paresis, hereditary congenital, 3			
6408	MAFB	AD	166300	Multicentric carpotarsal osteolysis syndrome			
6408	MAFB	AD	617041	Duane retraction syndrome 3			
691	PHOX2A	AR	602078	Fibrosis of extraocular muscles, congenital, 2			
7133	KMT2D	AD	147920	Kabuki syndrome 1			
7133	KMT2D	AD	620186	Branchial arch abnormalities, choanal atresia, athelia, hearing loss, and hypothyroidism syndrome			
