# Gene panel: Cerebral småkarsykdom-v2.0.0 -- Date: 2025-03-03
HGNC id	HGNC symbol	inheritance	phenotype MIM number	phenotype	PMID	inheritance info	comment
12269	TREX1	AD	152700	{Lupus nephritis, susceptibility to}; {Systemic lupus erythematosus susceptibility to}; {Systemic lupus erythematosus, susceptibility to}			
12269	TREX1	AD	192315	Vasculopathy, retinal, with cerebral leukoencephalopathy and systemic manifestations			
12269	TREX1	AD	610448	Chilblain lupus			
12269	TREX1	AD/AR	225750	Aicardi-Goutieres syndrome 1, dominant and recessive			
1388	CACNA1A	AD	108500	Episodic ataxia, type 2			
1388	CACNA1A	AD	141500	Migraine, familial hemiplegic, 1; Migraine, familial hemiplegic, 1, with progressive cerebellar ataxia			
1388	CACNA1A	AD	183086	Spinocerebellar ataxia 6			
1388	CACNA1A	AD	617106	Developmental and epileptic encephalopathy 42			
2201	COL3A1	AD	130050	Ehlers-Danlos syndrome, vascular type			
2201	COL3A1	AR	618343	Polymicrogyria with or without vascular-type EDS			
2202	COL4A1		614519	{Hemorrhage, intracerebral, susceptibility to}; {Stroke, hemorrhagic}			
2202	COL4A1	AD	175780	Brain small vessel disease with or without ocular anomalies			
2202	COL4A1	AD	180000	?Retinal arteries, tortuosity of			
2202	COL4A1	AD	611773	Angiopathy, hereditary, with nephropathy, aneurysms, and muscle cramps			
2202	COL4A1	AD	618564	Microangiopathy and leukoencephalopathy, pontine, autosomal dominant			
2203	COL4A2		614519	{Hemorrhage, intracerebral, susceptibility to}; {Stroke, hemorrhagic}			
2203	COL4A2	AD	614483	Brain small vessel disease 2			
26182	COLGALT1	AR	618360	Brain small vessel disease 3			
3800	FOXC1	AD	601631	Anterior segment dysgenesis 3, multiple subtypes			
3800	FOXC1	AD	602482	Axenfeld-Rieger syndrome, type 3			
4296	GLA	XD/XR	301500	Fabry disease; Fabry disease, cardiac variant			
57	ABCC6	AD	177850	Pseudoxanthoma elasticum, forme fruste			
57	ABCC6	AR	264800	Pseudoxanthoma elasticum; {Pseudoxanthoma elasticum, modifier of severity of}			
57	ABCC6	AR	614473	Arterial calcification, generalized, of infancy, 2			
620	APP	AD	104300	Alzheimer disease 1, familial; {Alzheimer disease, late-onset, susceptibility to}; {Alzheimer disease, susceptibility to}			
620	APP	AD	605714	Cerebral amyloid angiopathy, Dutch, Italian, Iowa, Flemish, Arctic variants			
7883	NOTCH3	AD	125310	Cerebral arteriopathy with subcortical infarcts and leukoencephalopathy 1			
7883	NOTCH3	AD	130720	Lateral meningocele syndrome			
7883	NOTCH3	AD	615293	?Myofibromatosis, infantile 2			
800	ATP1A2	AD	104290	Alternating hemiplegia of childhood 1			
800	ATP1A2	AD	602481	Migraine, familial basilar; Migraine, familial hemiplegic, 2			
800	ATP1A2	AD	619605	Developmental and epileptic encephalopathy 98			
800	ATP1A2	AR	619602	Fetal akinesia, respiratory insufficiency, microcephaly, polymicrogyria, and dysmorphic facies			
9476	HTRA1		610149	{Macular degeneration, age-related, 7}; {Macular degeneration, age-related, neovascular type}			
9476	HTRA1	AD	616779	Cerebral arteriopathy, autosomal dominant, with subcortical infarcts and leukoencephalopathy, type 2			
9476	HTRA1	AR	600142	CARASIL syndrome			
