HGNC symbol	HGNC id
PRDM16	14000
LDLRAP1	18640
PCSK9	20001
NEXN	29557
CASQ2	1513
LMNA	6636
LMNA	6636
TNNT2	11949
TNNT2	11949
ACTN2	164
RYR2	10484
APOB	603
ABCG5	13886
ABCG8	13887
TTN	12403
TTN	12403
TTN	12403
DES	2770
TMEM43	28472
SCN5A	10593
SCN5A	10593
MYL3	7584
TNNC1	11943
ANK2	493
SGCD	10807
NKX2-5	2488
DSP	3052
HFE	4886
MYO6	7605
PLN	9080
EYA4	3522
TBX20	11598
ELN	3327
CACNA2D1	1399
GATAD1	29941
KCNH2	6251
PRKAG2	9386
LPL	6677
GPIHBP1	24945
FKTN	3622
DOLK	23406
CACNB2	1402
CACNB2	1402
MYPN	23246
VCL	12665
LDB3	15710
LDB3	15710
ANKRD1	15819
RBM20	27424
BAG3	939
KCNQ1	6294
CSRP3	2472
MYBPC3	7551
KCNE3	6243
CRYAB	2389
APOA5	17288
APOA4	602
CACNA1C	1390
CACNA1C	1390
ABCC9	60
PKP2	9024
PKP2	9024
MYL2	7583
MYH6	7576
MYH7	7577
CALM1	1442
ACTC1	143
TPM1	12010
HCN4	16882
LMF1	14154
CETP	1869
TCAP	11610
JUP	6207
KCNJ2	6263
DSC2	3036
DSG2	3049
TTR	12405
LDLR	6547
APOE	613
APOC2	609
FKRP	17997
TNNI3	11947
MYLK2	16243
JPH2	14202
KCNE2	6242
KCNE1	6240
SREBF2	11290
DMD	2928
GLA	4296
LAMP2	6501
FHL1	3702
FHL1	3702
EMD	3331
TAFAZZIN	11577
