HGNC symbol	HGNC id
GJB4	4286
GJB3	4285
RSPO1	21679
ELOVL1	14418
FLG	3748
FLG2	33276
LORICRIN	6663
ASPRV1	26321
ERCC3	3435
ABCA12	14637
SUMF1	20376
ABHD5	21396
CSTA	2481
CLDN1	2032
SMARCAD1	18398
MSMO1	10545
CAST	1515
SPINK5	15464
NIPAL4	28018
DSP	3052
CDSN	1802
PNPLA1	21246
ELOVL4	14415
GJA1	4274
ENPP1	3356
GTF2H5	21157
AP1S1	559
GTF2E2	4651
SLURP1	18746
SLC27A4	10998
ST14	11344
AQP5	638
KRT6B	6444
KRT6C	20406
KRT6A	6443
KRT2	6439
KRT1	6412
SDR9C7	29958
GJB2	4284
GJB6	4288
POMP	20330
CLDN10	2033
TGM1	11777
TGM5	11781
AAGAB	25662
VPS33B	12712
CERS3	23752
TAT	11573
TRPV3	18084
ALOX12B	430
ALOXE3	13743
PIGL	8966
SREBF1	11289
ALDH3A2	403
KRT10	6413
KRT9	6447
KRT14	6416
KRT16	6423
KRT17	6427
JUP	6207
RHBDF2	20788
CARD14	16446
DSC2	3036
DSG1	3048
KDSR	4021
SERPINB7	13902
SERPINB8	8952
CASP14	1502
CYP4F22	26820
ERCC2	3434
SULT2B1	11459
SNAP29	11133
AP1B1	554
STS	11425
MBTPS2	15455
EBP	3133
NSDHL	13398
