# Gene panel: Iktyose-v4.1.0 -- Date: 2025-03-03
HGNC id	HGNC symbol	inheritance	phenotype MIM number	phenotype	PMID	inheritance info	comment
10545	MSMO1	AR	616834	Microcephaly, congenital cataract, and psoriasiform dermatitis			
10998	SLC27A4	AR	608649	Ichthyosis prematurity syndrome			
11133	SNAP29	AR	609528	Cerebral dysgenesis, neuropathy, ichthyosis, and palmoplantar keratoderma syndrome			
11289	SREBF1	AD	158310	Mucoepithelial dysplasia, hereditary			
11289	SREBF1	AD	619016	Ichthyosis, follicular, with atrichia and photophobia syndrome 2			
11344	ST14	AR	602400	Ichthyosis, congenital, autosomal recessive 11			
11425	STS	XD/XR	308100	Ichthyosis, X-linked			
11459	SULT2B1	AR	617571	Ichthyosis, congenital, autosomal recessive 14			
11573	TAT	AR	276600	Tyrosinemia, type II			
11777	TGM1	AR	242300	Ichthyosis, congenital, autosomal recessive 1			
11781	TGM5	AR	609796	Peeling skin syndrome 2			
12712	VPS33B	AR	208085	Arthrogryposis, renal dysfunction, and cholestasis 1			
12712	VPS33B	AR	620009	Keratoderma-ichthyosis-deafness syndrome, autosomal recessive			
12712	VPS33B	AR	620010	Cholestasis, progressive familial intrahepatic, 12			
13398	NSDHL	XD/XR	300831	CK syndrome			
13398	NSDHL	XD/XR	308050	CHILD syndrome			
13743	ALOXE3	AR	606545	Ichthyosis, congenital, autosomal recessive 3			
13902	SERPINB7	AR	615598	Palmoplantar keratoderma, Nagashima type			
14415	ELOVL4	AD	133190	Spinocerebellar ataxia 34			
14415	ELOVL4	AD	600110	Stargardt disease 3			
14415	ELOVL4	AR	614457	Ichthyosis, spastic quadriplegia, and impaired intellectual development			
14418	ELOVL1	AD/AR	618527	Ichthyotic keratoderma, spasticity, hypomyelination, and dysmorphic facies			
14637	ABCA12	AR	242500	Ichthyosis, congenital, autosomal recessive 4B (harlequin)			
14637	ABCA12	AR	601277	Ichthyosis, congenital, autosomal recessive 4A			
1502	CASP14	AR	617320	Ichthyosis, congenital, autosomal recessive 12			
1515	CAST	AR	616295	Peeling skin with leukonychia, acral punctate keratoses, cheilitis, and knuckle pads			
15455	MBTPS2	XD/XR	300918	?Olmsted syndrome, X-linked			
15455	MBTPS2	XD/XR	301014	Osteogenesis imperfecta, type XIX			
15455	MBTPS2	XD/XR	308205	IFAP syndrome with or without BRESHECK syndrome			
15455	MBTPS2	XD/XR	308800	Keratosis follicularis spinulosa decalvans, X-linked			
15464	SPINK5	AR	256500	Netherton syndrome			
16446	CARD14	AD	173200	Pityriasis rubra pilaris			
16446	CARD14	AD	602723	Psoriasis 2			
1802	CDSN	AD	146520	Hypotrichosis 2			
1802	CDSN	AR	270300	Peeling skin syndrome 1			
18084	TRPV3	AD	614594	Olmsted syndrome 1			
18084	TRPV3	AD	616400	?Palmoplantar keratoderma, nonepidermolytic, focal 2			
18398	SMARCAD1	AD	129200	Basan syndrome			
18398	SMARCAD1	AD	136000	Adermatoglyphia			
18398	SMARCAD1	AD	181600	Huriez syndrome			
18746	SLURP1	AR	248300	Meleda disease			
2032	CLDN1	AR	607626	Ichthyosis, leukocyte vacuoles, alopecia, and sclerosing cholangitis			
2033	CLDN10	AR	617671	HELIX syndrome			
20330	POMP	AD	618048	Proteasome-associated autoinflammatory syndrome 2			
20330	POMP	AR	601952	Keratosis linearis with ichthyosis congenita and sclerosing keratoderma			
20376	SUMF1	AR	272200	Multiple sulfatase deficiency			
20406	KRT6C	AD	615735	Palmoplantar keratoderma, nonepidermolytic, focal or diffuse			
20788	RHBDF2	AD	148500	Tylosis with esophageal cancer			
21157	GTF2H5	AR	616395	Trichothiodystrophy 3, photosensitive			
21246	PNPLA1	AR	615024	Ichthyosis, congenital, autosomal recessive 10			
21396	ABHD5	AR	275630	Chanarin-Dorfman syndrome			
21679	RSPO1	AR	610644	Palmoplantar hyperkeratosis and true hermaphroditism; Palmoplantar hyperkeratosis with squamous cell carcinoma of skin and sex reversal			
23752	CERS3	AR	615023	Ichthyosis, congenital, autosomal recessive 9			
2481	CSTA	AR	607936	Peeling skin syndrome 4			
25662	AAGAB	AD	148600	Keratoderma, palmoplantar, punctate type IA			
26321	ASPRV1	AD	146750	Ichthyosis, lamellar, autosomal dominant			
26820	CYP4F22	AR	604777	Ichthyosis, congenital, autosomal recessive 5			
28018	NIPAL4	AR	612281	Ichthyosis, congenital, autosomal recessive 6			
29958	SDR9C7	AR	617574	Ichthyosis, congenital, autosomal recessive 13			
3036	DSC2	AD/AR	610476	Arrhythmogenic right ventricular dysplasia 11; Arrhythmogenic right ventricular dysplasia 11 with mild palmoplantar keratoderma and woolly hair			
3048	DSG1	AD	148700	Keratosis palmoplantaris striata I, AD			
3048	DSG1	AR	615508	Erythroderma, congenital, with palmoplantar keratoderma, hypotrichosis, and hyper IgE			
3052	DSP	AD	607450	Arrhythmogenic right ventricular dysplasia 8			
3052	DSP	AD	612908	Keratosis palmoplantaris striata II			
3052	DSP	AD	615821	Dilated cardiomyopathy with woolly hair, keratoderma, and tooth agenesis			
3052	DSP	AR	605676	Cardiomyopathy, dilated, with woolly hair and keratoderma			
3052	DSP	AR	609638	Epidermolysis bullosa, lethal acantholytic			
3133	EBP	XD/XR	300960	MEND syndrome			
3133	EBP	XD/XR	302960	Chondrodysplasia punctata, X-linked dominant			
33276	FLG2	AR	618084	Peeling skin syndrome 6			
3356	ENPP1	AD	125853	Diabetes mellitus, noninsulin-dependent; Diabetes mellitus, noninsulin-dependent, late onset; Diabetes mellitus, type 2; Diabetes mellitus, type II; Insulin resistance, severe, digenic; Type 2 diabetes mellitus; {Diabetes mellitus, non-insulin-dependent, susceptibility to}; {Diabetes mellitus, noninsulin-dependent, 2}; {Diabetes mellitus, noninsulin-dependent, association with}; {Diabetes mellitus, noninsulin-dependent, susceptibility to}; {Diabetes mellitus, noninsulin-dependent}; {Diabetes mellitus, type 2, susceptibility to}; {Diabetes mellitus, type II, susceptibility to}; {Diabetes, type 2}; {Hypertension, insulin resistance-related, susceptibility to}; {Insulin resistance, susceptibility to}; {Type 2 diabetes mellitus, susceptibility to}; {Type 2 diabetes mellitus}			
3356	ENPP1	AD	615522	Cole disease			
3356	ENPP1	AD/AR	601665	Obesity, mild, early-onset; Obesity, severe; {?Obesity, susceptibility to}; {Leanness, inherited}; {Obesity, association with}; {Obesity, early-onset, susceptibility to}; {Obesity, late-onset}; {Obesity, severe, and type II diabetes}; {Obesity, susceptibility to}			
3356	ENPP1	AR	208000	Arterial calcification, generalized, of infancy, 1			
3356	ENPP1	AR	613312	Hypophosphatemic rickets, autosomal recessive, 2			
3434	ERCC2	AR	278730	Xeroderma pigmentosum, group D			
3434	ERCC2	AR	601675	Trichothiodystrophy 1, photosensitive			
3434	ERCC2	AR	610756	?Cerebrooculofacioskeletal syndrome 2			
3435	ERCC3	AR	610651	Xeroderma pigmentosum, group B			
3435	ERCC3	AR	616390	Trichothiodystrophy 2, photosensitive			
3748	FLG	AD	605803	{Dermatitis, atopic, susceptibility to, 2}			
3748	FLG	AD/AR	146700	Ichthyosis vulgaris			
4021	KDSR	AR	617526	Erythrokeratodermia variabilis et progressiva 4			
403	ALDH3A2	AR	270200	Sjogren-Larsson syndrome			
4274	GJA1	AD	104100	Palmoplantar keratoderma with congenital alopecia			
4274	GJA1	AD	164200	Oculodentodigital dysplasia			
4274	GJA1	AD	186100	Syndactyly, type III			
4274	GJA1	AD	617525	Erythrokeratodermia variabilis et progressiva 3			
4274	GJA1	AR	218400	Craniometaphyseal dysplasia, autosomal recessive			
4274	GJA1	AR	257850	Oculodentodigital dysplasia, autosomal recessive			
4284	GJB2		220290	Deafness, autosomal recessive 1A; Deafness, digenic GJB2/GJB6; Deafness, digenic, GJB2/GJB3			
4284	GJB2	AD	124500	Vohwinkel syndrome			
4284	GJB2	AD	148210	Keratitis-ichthyosis-deafness syndrome			
4284	GJB2	AD	148350	Keratoderma, palmoplantar, with deafness			
4284	GJB2	AD	149200	Bart-Pumphrey syndrome			
4284	GJB2	AD	601544	Deafness, autosomal dominant 3A			
4284	GJB2	AD	602540	Hystrix-like ichthyosis with deafness			
4285	GJB3		220290	Deafness, autosomal recessive 1A; Deafness, digenic GJB2/GJB6; Deafness, digenic, GJB2/GJB3			
4285	GJB3	AD	612644	Deafness, autosomal dominant 2B, with or without peripheral neuropathy			
4285	GJB3	AD/AR	133200	Erythrokeratodermia variabilis et progressiva 1			
4286	GJB4	AD	617524	Erythrokeratodermia variabilis et progressiva 2			
4288	GJB6		220290	Deafness, autosomal recessive 1A; Deafness, digenic GJB2/GJB6; Deafness, digenic, GJB2/GJB3			
4288	GJB6	AD	129500	Ectodermal dysplasia 2, Clouston type			
4288	GJB6	AD	612643	Deafness, autosomal dominant 3B			
4288	GJB6	AR	612645	Deafness, autosomal recessive 1B			
430	ALOX12B	AR	242100	Ichthyosis, congenital, autosomal recessive 2			
4651	GTF2E2	AR	616943	Trichothiodystrophy 6, nonphotosensitive			
554	AP1B1	AR	242150	Keratitis-ichthyosis-deafness syndrome, autosomal recessive			
559	AP1S1	AR	609313	MEDNIK syndrome			
6207	JUP	AD	611528	?Arrhythmogenic right ventricular dysplasia 12			
6207	JUP	AR	601214	Naxos disease			
638	AQP5	AD	600231	Palmoplantar keratoderma, Bothnian type			
6412	KRT1		607654	Keratosis palmoplantaris striata III			
6412	KRT1	AD	113800	Epidermolytic hyperkeratosis 1			
6412	KRT1	AD	146590	Ichthyosis histrix, Curth-Macklin type			
6412	KRT1	AD	600962	Palmoplantar keratoderma, nonepidermolytic			
6412	KRT1	AD	620148	Ichthyosis, annular epidermolytic 2			
6412	KRT1	AD	620411	Palmoplantar keratoderma, epidermolytic, 2			
6413	KRT10	AD	146600	?Ichthyosis histrix, Lambert type			
6413	KRT10	AD	607602	Ichthyosis, annular epidermolytic 1			
6413	KRT10	AD	609165	Ichthyosis with confetti			
6413	KRT10	AD	620150	Epidermolytic hyperkeratosis 2A, autosomal dominant			
6413	KRT10	AR	620707	Epidermolytic hyperkeratosis 2B, autosomal recessive			
6416	KRT14	AD	125595	Dermatopathia pigmentosa reticularis			
6416	KRT14	AD	131760	Epidermolysis bullosa simplex 1A, generalized severe			
6416	KRT14	AD	131800	Epidermolysis bullosa simplex 1C, localized			
6416	KRT14	AD	131900	Epidermolysis bullosa simplex 1B, generalized intermediate			
6416	KRT14	AD	161000	Naegeli-Franceschetti-Jadassohn syndrome			
6416	KRT14	AR	601001	Epidermolysis bullosa simplex 1D, generalized, intermediate or severe, autosomal recessive			
6423	KRT16	AD	167200	Pachyonychia congenita 1			
6423	KRT16	AD	613000	Palmoplantar keratoderma, nonepidermolytic, focal			
6427	KRT17	AD	167210	Pachyonychia congenita 2			
6427	KRT17	AD	184500	Steatocystoma multiplex			
6439	KRT2	AD	146800	Ichthyosis bullosa of Siemens			
6443	KRT6A	AD	615726	Pachyonychia congenita 3			
6444	KRT6B	AD	615728	Pachyonychia congenita 4			
6447	KRT9	AD	144200	Palmoplantar keratoderma, epidermolytic, 1			
6663	LORICRIN	AD	604117	Vohwinkel syndrome with ichthyosis			
8952	SERPINB8	AR	617115	Peeling skin syndrome 5			
8966	PIGL	AR	280000	CHIME syndrome			
