# Gene panel: Genpanel for leppe-kjeve- og ganespalte-v3.1.0 -- Date: 2025-03-03
#chromosome	read start	read end	name	score	strand	tags	HGNC id	HGNC symbol	inheritance	coding start	coding end	exon starts	exon ends	metadata
1	1270657	1284798	NM_001330311.2	0.0	-	MANE Select	3084	DVL1	AD	1271521	1284445	1270657,1273356,1273648,1273901,1274666,1274961,1275115,1275417,1275626,1275789,1277046,1277432,1277742,1278068,1284275	1271895,1273563,1273816,1274033,1274819,1275029,1275192,1275557,1275696,1275883,1277185,1277536,1277864,1278138,1284798	{}
1	24645846	24681808	NM_198173.3	0.0	+	MANE Select	25839	GRHL3	AD	24646041	24680978	24645846,24657915,24661134,24662971,24663567,24664125,24664481,24666157,24668604,24669183,24669381,24671386,24673042,24673957,24676547,24680863	24646058,24658102,24661196,24663317,24663641,24664279,24664593,24666252,24668763,24669262,24669515,24671421,24673131,24674043,24676612,24681808	{}
1	27114440	27127150	NM_017837.4	0.0	+	MANE Select	26031	PIGV	AR	27117306	27124335	27114440,27117249,27120603,27124053	27114759,27117384,27121725,27127150	{}
1	64059081	64125916	NM_002633.3	0.0	+	MANE Select	8905	PGM1	AR	64059159	64125346	64059081,64095095,64095612,64097327,64100499,64101904,64104355,64114187,64117339,64120002,64125256	64059405,64095258,64095759,64097453,64100690,64102059,64104471,64114323,64117523,64120137,64125916	{}
1	93297596	93307481	NM_000969.5	0.0	+	MANE Select	10360	RPL5	AD	93297671	93307422	93297596,93298945,93299101,93300335,93301746,93303012,93306107,93307322	93297674,93299015,93299217,93300470,93301949,93303190,93306196,93307481	{}
1	94634460	94703140	NM_004815.4	0.0	-	MANE Select	30207	ARHGAP29	AD	94639424	94697167	94634460,94643167,94643407,94645280,94649706,94650427,94650897,94652054,94654392,94654771,94655481,94667275,94668099,94668473,94668655,94669485,94670616,94671190,94674387,94674809,94685813,94696962,94702970	94640305,94643276,94643723,94645513,94649844,94650616,94651037,94652153,94654497,94654908,94655639,94667413,94668288,94668554,94668766,94669550,94670754,94671239,94674460,94674906,94685948,94697199,94703140	{}
1	103342028	103574078	NM_001854.4	0.0	-	MANE Select	2186	COL11A1	AD	103343574	103573734	103342028,103345238,103347252,103348754,103352362,103354132,103354278,103354421,103355010,103356006,103363680,103364221,103364496,103377714,103379192,103379907,103380259,103381186,103385866,103387073,103388891,103400004,103400615,103404590,103405882,103412404,103427421,103427731,103428208,103431042,103435774,103440385,103444263,103444415,103444615,103444937,103449693,103453188,103455073,103461419,103461544,103462635,103463865,103467480,103467983,103468302,103468770,103469999,103470163,103471393,103471623,103471817,103474018,103477968,103480066,103481223,103483375,103484373,103487262,103488297,103491076,103491771,103496671,103540173,103544213,103548360,103573628	103343721,103345472,103347321,103348867,103352612,103354186,103354314,103354475,103355118,103356060,103363734,103364329,103364550,103377768,103379246,103379961,103380367,103381240,103385920,103387127,103388945,103400112,103400669,103404644,103405990,103412512,103427475,103427821,103428316,103431096,103435828,103440439,103444308,103444469,103444660,103444991,103449747,103453296,103455127,103461464,103461598,103462680,103463919,103467525,103468037,103468347,103468824,103470044,103470217,103471447,103471677,103471871,103474072,103478025,103480150,103481298,103483438,103484415,103487325,103488552,103491169,103491888,103496800,103540336,103544427,103548528,103574078	{}
1	149895208	149899695	NM_005850.5	0.0	-	MANE Select	10771	SF3B4	AD	149895433	149899651	149895208,149895732,149897727,149898267,149899057,149899617	149895621,149895906,149897934,149898810,149899186,149899695	{}
1	165696031	165738105	NM_019026.6	0.0	-	MANE Select	18188	TMCO1	AR	165697259	165737988	165696031,165712403,165721338,165723464,165728761,165737428,165737918	165697358,165712548,165721406,165723511,165728821,165737506,165738105	{}
1	209958961	209979487	NM_006147.4	0.0	-	MANE Select	6121	IRF6	AD	209961764	209974758	209958961,209963011,209963839,209965613,209968634,209969692,209974584,209975316,209979291	209961989,209963130,209964232,209965772,209968763,209969897,209974761,209975388,209979487	{}
2	3642701	3692234	NM_024027.5	0.0	+	MANE Select	17213	COLEC11	AR	3651930	3691708	3642701,3651904,3660900,3685122,3687867,3691033,3691316	3642758,3652060,3660972,3685194,3687921,3691129,3692234	{}
2	27667243	27712610	NM_015662.3	0.0	-	MANE Select	30391	IFT172	AR	27667298	27712520	27667243,27667880,27668162,27668611,27668795,27669126,27670381,27670678,27671781,27672160,27672365,27672557,27672864,27676250,27676496,27676848,27677220,27677433,27679377,27680505,27680707,27680992,27681645,27682244,27682575,27683881,27684135,27684625,27685567,27685963,27688277,27688612,27693794,27695116,27699507,27700083,27700425,27700861,27702375,27702892,27703912,27706155,27706446,27706738,27707093,27707884,27708226,27712481	27667388,27667972,27668316,27668710,27668855,27669222,27670501,27670789,27671898,27672247,27672429,27672667,27672963,27676380,27676606,27677029,27677285,27677527,27679520,27680622,27680843,27681090,27681735,27682389,27682696,27683960,27684384,27684703,27685660,27686048,27688385,27688749,27693962,27695229,27699593,27700187,27700479,27701023,27702471,27703016,27704127,27706243,27706526,27706804,27707133,27707997,27708370,27712610	{}
2	44001177	44037149	NM_016008.4	0.0	+	MANE Select	24595	DYNC2LI1	AR	44001277	44036906	44001177,44003920,44010658,44014319,44016771,44021595,44023028,44023856,44027979,44028777,44031780,44032292,44036843	44001285,44004038,44010693,44014389,44016860,44021782,44023097,44023934,44028056,44028848,44031878,44032385,44037149	{}
2	45168840	45173210	NM_005413.4	0.0	+	MANE Select	10889	SIX3	AD	45169243	45171899	45168840,45171706	45170049,45173210	{}
2	74056087	74094295	NM_213622.4	0.0	+	MANE Select	16950	STAMBP	AR	74057983	74089386	74056087,74057971,74071939,74072293,74074513,74076489,74077502,74086380,74087178,74089329	74056637,74058186,74072015,74072389,74074880,74076614,74077640,74086493,74087278,74094295	{}
2	113300041	113337395	NM_019014.6	0.0	+	MANE Select	20454	POLR1B	AD	113300071	113333306	113300041,113304588,113304997,113306843,113308442,113309351,113310221,113315486,113316869,113321942,113325543,113326322,113330138,113331138,113332423	113300248,113304756,113305144,113306976,113308579,113309575,113310393,113315658,113317151,113322076,113325714,113326479,113330335,113331392,113337395	{}
2	121493443	121750229	NM_001374353.1	0.0	+	MANE Select	4318	GLI2	AD	121554896	121748251	121493443,121554866,121684936,121708818,121712820,121726289,121727968,121729516,121732550,121736009,121740291,121742046,121743853,121745783	121493861,121555044,121685042,121709021,121713006,121726491,121728182,121729639,121732685,121736159,121740456,121742319,121744190,121750229	{}
2	145141647	145277686	NM_014795.4	0.0	-	MANE Select	14881	ZEB2	AD	145147017	145274917	145141647,145153978,145155867,145158765,145161482,145162402,145182362,145187335,145274844,145277505	145147595,145154159,145157837,145158874,145161697,145162591,145182434,145187593,145274986,145277686	{}
2	200134227	200322662	NM_001172509.2	0.0	-	MANE Select	21637	SATB2	AD	200136933	200320760	200134227,200173482,200188525,200193420,200213423,200233327,200245086,200246416,200298060,200320591,200322061	200137395,200173680,200188681,200193633,200213896,200233430,200245210,200246543,200298237,200320819,200322662	{}
2	223064605	223163717	NM_181458.4	0.0	-	MANE Select	8617	PAX3	AD	223066126	223163334	223064605,223066662,223084858,223085940,223096796,223158885,223160246,223161696,223163249	223066161,223066909,223085073,223086106,223097002,223159020,223160376,223161932,223163717	{}
2	233404401	233412825	NM_005199.5	0.0	+	MANE Select	1967	CHRNG	AR	233404457	233410426	233404401,233404701,233405090,233405311,233406083,233407132,233407591,233407984,233408294,233409076,233409481,233410252	233404512,233404841,233405135,233405421,233406239,233407230,233407792,233408099,233408409,233409290,233409612,233412825	{}
3	30648092	30735634	NM_003242.6	0.0	+	MANE Select	11773	TGFBR2	AD	30648375	30733091	30648092,30686238,30691761,30713129,30715596,30729875,30732911	30648469,30686407,30691952,30713929,30715738,30730003,30735634	{}
3	55499742	55521334	NM_003392.7	0.0	-	MANE Select	12784	WNT5A	AD	55504119	55521013	55499742,55508364,55513341,55514812,55521007	55504578,55508657,55513592,55514946,55521334	{}
3	57994148	58157978	NM_001457.4	0.0	+	MANE Select	3755	FLNB	AD	57994291	58156489	57994148,58062772,58064443,58067355,58080562,58081867,58083541,58084437,58087929,58089685,58090806,58092406,58094184,58094905,58095302,58095736,58097517,58097875,58104598,58106967,58108819,58110058,58111307,58112328,58116467,58118534,58120342,58121705,58124008,58127584,58128376,58129199,58131647,58132546,58133932,58134375,58135576,58135831,58139101,58140517,58141686,58145280,58148880,58154166,58155316,58156301	57994583,58063021,58064541,58067503,58080681,58081945,58083704,58084635,58088067,58089812,58090943,58092600,58094298,58095049,58095426,58095897,58097608,58098045,58104716,58107230,58109417,58110232,58111470,58112489,58116635,58118658,58120499,58121895,58124256,58127656,58128479,58129340,58131776,58132720,58134091,58134579,58135729,58135954,58139368,58140655,58141802,58145413,58149057,58154385,58155520,58157978	{}
3	69024375	69062835	NM_001278689.2	0.0	-	MANE Select	28526	EOGT	AR	69026768	69058997	69024375,69027483,69028818,69031961,69036595,69037445,69037656,69038075,69047161,69050758,69053528,69054290,69056863,69057578,69058787,69061086,69061665,69062724	69026915,69027586,69028938,69032023,69036664,69037532,69037728,69038168,69047265,69050865,69053633,69054385,69056972,69057679,69059011,69061142,69061950,69062835	{}
3	119013229	119139561	NM_020754.4	0.0	+	MANE Select	29216	ARHGAP31	AD	119013751	119135111	119013229,119084162,119087218,119099750,119101138,119101930,119109631,119112313,119118045,119120668,119128342,119132702	119013851,119084265,119087363,119099833,119101246,119102073,119109830,119112438,119118108,119121244,119128623,119139561	{}
3	159974773	160117013	NM_020800.3	0.0	-	MANE Select	29262	IFT80	AR	159976312	160102388	159974773,159986200,159995093,159995368,159996980,159998454,160000265,160003591,160018670,160021702,160025450,160037547,160073800,160075276,160083830,160093599,160095217,160099290,160102351,160116933	159976423,159986324,159995266,159995458,159997152,159998602,160000401,160003656,160018834,160021777,160025569,160037727,160073938,160075366,160083940,160093668,160095328,160099512,160102434,160117013	{}
3	183873164	183891402	NM_004423.4	0.0	+	MANE Select	3087	DVL3	AD	183873423	183888543	183873164,183881444,183882054,183882279,183882583,183882900,183883209,183883913,183884233,183884393,183884613,183885367,183885685,183887793,183888106	183873584,183881514,183882176,183882389,183882719,183882994,183883279,183884053,183884310,183884461,183884763,183885499,183885853,183888009,183891402	{}
3	186935069	187009525	NM_001879.6	0.0	-	MANE Plus Clinical	6901	MASP1	AR	186937858	187009420	186935069,186938822,186940914,186943111,186944194,186947547,186959268,186961271,186968038,186969421,186970955,186974451,186978528,186980330,187003612,187009415	186938049,186938922,186940982,186943297,186944308,186947685,186959343,186961409,186968117,186969540,186971103,186974648,186978660,186980508,187003844,187009525	{}
3	186951869	187009525	NM_139125.4	0.0	-	MANE Select	6901	MASP1	AR	186953471	187009420	186951869,186959268,186961271,186968038,186969421,186970955,186974451,186978528,186980330,187003612,187009415	186954355,186959343,186961409,186968117,186969540,186971103,186974648,186978660,186980508,187003844,187009525	{}
3	189349177	189615065	NM_003722.5	0.0	+	MANE Select	15979	TP63	AD	189349304	189612291	189349177,189455528,189456430,189526060,189582020,189584470,189585621,189586368,189587112,189590647,189604182,189607128,189608577,189611994	189349366,189455657,189456563,189526315,189582207,189584586,189585731,189586505,189587195,189590784,189604340,189607273,189608671,189615065	{}
3	189507447	189615065	NM_001114980.2	0.0	+	MANE Plus Clinical	15979	TP63	AD	189507589	189612291	189507447,189526060,189582020,189584470,189585621,189586368,189587112,189590647,189604182,189607128,189608577,189611994	189507631,189526315,189582207,189584586,189585731,189586505,189587195,189590784,189604340,189607273,189608671,189615065	{}
4	4861391	4865663	NM_002448.3	0.0	+	MANE Select	7391	MSX1	AD	4861626	4864870	4861391,4864427	4862095,4865663	{}
4	15471505	15603175	NM_001378615.1	0.0	+	MANE Select	29253	CC2D2A	AR	15477556	15603048	15471505,15477538,15480346,15482327,15504051,15504444,15511761,15512869,15516329,15517490,15518247,15529069,15530242,15534815,15538542,15539521,15542459,15552446,15554780,15556694,15558926,15560787,15562153,15564977,15568999,15569299,15570915,15572020,15575772,15581590,15587779,15589438,15591167,15597707,15599029,15601151,15602859	15471681,15477595,15480430,15482451,15504140,15504546,15511863,15513046,15516492,15517627,15518379,15529279,15530349,15534956,15538699,15539760,15542637,15552603,15554928,15556833,15559130,15560880,15562245,15565145,15569105,15569409,15571012,15572119,15575949,15581794,15587869,15589552,15591302,15597830,15599088,15601329,15603175	{}
4	78978476	79465423	NM_025074.7	0.0	+	MANE Select	19185	FRAS1	AR	78979163	79462278	78978476,78987138,79158663,79166386,79173545,79176395,79186178,79187987,79188394,79199808,79202551,79203973,79205558,79207558,79229219,79236747,79238521,79239963,79254425,79258827,79284666,79285061,79290991,79293871,79295264,79296892,79300879,79305212,79308528,79321887,79328816,79334122,79340102,79343016,79345541,79350248,79351445,79353510,79359723,79360055,79362315,79366675,79367880,79369206,79371304,79372925,79373328,79385174,79385596,79387361,79391131,79393333,79394591,79396591,79398968,79400527,79402957,79403541,79410028,79417958,79420874,79428574,79429884,79432427,79434545,79436952,79440484,79442676,79443802,79447694,79455602,79458148,79460447,79461684	78979239,78987170,79158771,79166479,79173705,79176529,79186262,79188089,79188586,79199898,79202587,79204121,79205702,79207693,79229363,79236888,79238662,79240140,79254566,79258971,79284819,79285208,79291138,79294012,79295405,79297033,79301150,79305297,79308855,79322041,79328995,79334239,79340217,79343154,79345574,79350380,79351571,79353758,79359872,79360218,79362451,79366866,79368034,79369470,79371493,79373045,79373508,79385299,79385737,79387589,79391245,79393484,79394751,79396760,79399215,79400872,79403118,79403689,79410234,79418115,79421075,79428762,79430160,79432660,79434706,79437167,79440635,79442784,79443962,79447811,79455769,79458354,79460594,79465423	{}
4	148402248	148466106	NM_001957.4	0.0	+	MANE Select	3179	EDNRA	AD	148406833	148463770	148402248,148406763,148441002,148453657,148457028,148460968,148461528,148463629	148402528,148407253,148441130,148453856,148457181,148461102,148461637,148466106	{}
4	170313959	170533734	NM_001199397.3	0.0	-	MANE Select	7744	NEK1	AR	170315660	170523781	170313959,170321375,170321671,170322802,170327746,170345703,170347296,170354695,170359233,170384393,170398274,170398582,170400553,170428187,170428865,170429398,170429919,170458959,170476870,170477082,170482630,170482837,170482982,170483287,170498078,170501992,170506499,170508709,170509799,170510597,170511876,170520250,170523158,170523664,170533170,170533372	170315674,170321508,170321802,170323011,170327898,170345951,170347385,170354816,170359410,170384546,170398503,170398648,170400685,170428283,170428943,170429482,170430003,170459062,170477002,170477246,170482705,170482888,170483042,170483347,170498230,170502053,170506700,170508764,170509886,170510665,170511960,170520348,170523255,170523829,170533294,170533734	{}
5	36876870	37066515	NM_133433.4	0.0	+	MANE Select	28862	NIPBL	AD	36953798	37064994	36876870,36953719,36955573,36958205,36961585,36962224,36970977,36972046,36975877,36984777,36995723,37000474,37000918,37001090,37002763,37003362,37006458,37007424,37008109,37008724,37010188,37014784,37016139,37017120,37019412,37020560,37020876,37022152,37022345,37024686,37026330,37027460,37036480,37038703,37044448,37044737,37045544,37046210,37048603,37049212,37051880,37052467,37057287,37058992,37060945,37063891,37064628	36877280,36953862,36955739,36958333,36961685,36962376,36971138,36972143,36976504,36986403,36995906,37000672,37000990,37001180,37002867,37003449,37006690,37007576,37008190,37008825,37010327,37014867,37016272,37017264,37019502,37020775,37020979,37022251,37022492,37024821,37026429,37027514,37036589,37038840,37044589,37044831,37045699,37046301,37048777,37049403,37051988,37052668,37057434,37059267,37061120,37064080,37066515	{}
5	37106336	37249478	NM_001384732.1	0.0	-	MANE Select	25801	CPLANE1	AR	37107703	37247800	37106336,37108394,37115061,37120317,37121718,37122531,37125345,37138821,37139441,37142411,37148282,37153841,37157414,37157771,37158325,37162566,37164374,37165640,37167148,37168892,37170142,37173856,37176010,37177722,37179462,37180118,37180958,37182861,37184889,37186387,37187515,37187834,37195959,37198803,37201692,37205416,37206298,37213660,37221425,37224354,37224633,37226405,37227344,37227669,37230968,37238958,37239814,37243114,37244476,37245580,37245811,37247719,37249346	37107880,37108573,37115151,37120442,37121886,37122590,37125511,37138950,37139472,37142582,37148370,37154095,37157522,37157970,37158447,37162668,37164429,37165773,37167315,37169663,37170433,37174049,37176088,37177802,37179545,37180285,37181107,37183801,37185181,37186496,37187674,37187944,37196098,37198968,37201910,37205556,37206527,37213834,37221590,37224435,37224842,37227175,37227494,37227919,37231151,37239062,37239971,37243221,37244709,37245700,37245947,37247847,37249478	{}
5	60628084	60841999	NM_020928.2	0.0	+	MANE Select	29316	ZSWIM6	AD	60628099	60840144	60628084,60768507,60786612,60790086,60817089,60821626,60822076,60825878,60827291,60831310,60834640,60835422,60837710,60839281	60628775,60768864,60786761,60790237,60817269,60821803,60822223,60826025,60827552,60831446,60834798,60835586,60837792,60841999	{}
5	149340320	149366963	NM_000112.4	0.0	+	MANE Select	10994	SLC26A2	AR	149357215	149361376	149340320,149357190,149359855	149340542,149357914,149366963	{}
5	149737259	149779856	NM_001371623.1	0.0	+	MANE Select	11654	TCOF1	AD	149737309	149778611	149737259,149740718,149743675,149747406,149748278,149749091,149751568,149753736,149754179,149754516,149754901,149755283,149755644,149755985,149758467,149758791,149759094,149767464,149769449,149771106,149771519,149772267,149772934,149775844,149777916,149778584,149779372	149737417,149740774,149743815,149747480,149748465,149749165,149751799,149753949,149754374,149754726,149755117,149755472,149755893,149756183,149758605,149758971,149759295,149767651,149769586,149771220,149771739,149772353,149773115,149776405,149778014,149778633,149779856	{}
6	10396909	10415307	NM_001372066.1	0.0	-	MANE Select	11742	TFAP2A	AD	10398649	10415224	10396909,10400680,10402724,10404740,10407025,10410133,10415173	10398938,10400822,10402843,10404972,10407077,10410568,10415307	{}
6	30688128	30693199	NM_178014.4	0.0	+	MANE Select	20778	TUBB	AD	30688283	30692174	30688128,30690313,30690694,30691116	30688340,30690422,30690805,30693199	{}
6	33130470	33160244	NM_080680.3	0.0	-	MANE Select	2187	COL11A2	AD	33131454	33160017	33130470,33132043,33132628,33133325,33133707,33133947,33134289,33134496,33134846,33135040,33135202,33135575,33136295,33136482,33136731,33137159,33137607,33137823,33138102,33138333,33138586,33138890,33139047,33139243,33139489,33139826,33140065,33140306,33140836,33141124,33141278,33141477,33141649,33141787,33141941,33142303,33143350,33143792,33144035,33144209,33144497,33144768,33144957,33145188,33145438,33145908,33146084,33146211,33146455,33146696,33146849,33147007,33147207,33147495,33148034,33148444,33148740,33148887,33151921,33152768,33153477,33154403,33156138,33156754,33157096,33159935	33131595,33132250,33132741,33133593,33133761,33133983,33134343,33134604,33134900,33135094,33135310,33135629,33136349,33136536,33136785,33137267,33137661,33137877,33138156,33138387,33138694,33138944,33139101,33139351,33139597,33139880,33140155,33140414,33140890,33141178,33141332,33141522,33141703,33141832,33141995,33142357,33143458,33143846,33144080,33144263,33144542,33144822,33145002,33145242,33145483,33145962,33146129,33146265,33146509,33146750,33146903,33147061,33147264,33147582,33148109,33148507,33148782,33148947,33152101,33152831,33153555,33154595,33156301,33156965,33157246,33160244	{}
6	43484826	43489251	NM_203290.4	0.0	+	MANE Select	20194	POLR1C	AR	43484847	43489038	43484826,43485043,43487070,43487443,43487803,43488012,43488362,43488669,43488919	43484916,43485115,43487178,43487576,43487923,43488165,43488512,43488786,43489251	{}
6	52866100	52926622	NM_014920.5	0.0	-	MANE Select	21219	CILK1	AR	52869946	52906034	52866100,52871112,52874236,52876566,52876834,52878459,52880880,52883127,52884024,52895862,52897330,52902736,52905933,52926393	52870101,52871235,52874365,52876715,52877025,52878780,52881048,52883299,52884157,52895942,52897452,52902791,52906206,52926622	{}
6	70925828	71012787	NM_001851.6	0.0	-	MANE Select	2217	COL9A1	AD/AR	70926599	71012627	70925828,70935634,70942285,70944241,70944496,70948956,70950391,70951121,70951666,70952364,70961822,70961964,70963087,70964178,70964665,70964852,70965039,70966470,70970359,70972946,70976419,70978506,70979335,70980016,70981357,70981767,70983749,70984421,70990514,70990706,70991092,70992600,70993439,71003869,71009745,71010011,71011703,71012613	70926784,70935712,70942474,70944296,70944643,70948989,70950436,70951157,70951738,70952418,70961876,70962018,70963132,70964232,70964719,70964906,70965093,70966524,70970413,70973000,70976473,70978563,70979368,70980070,70981411,70981791,70983785,70984475,70990577,70990742,70991167,70992621,70993523,71004266,71009878,71010089,71011777,71012787	{}
6	91223297	91296791	NM_145331.3	0.0	-	MANE Select	6859	MAP3K7	AD	91226219	91296602	91223297,91228165,91228976,91233396,91246055,91254270,91256976,91257765,91260186,91261767,91263176,91266218,91269794,91271340,91278276,91281415,91296482	91226400,91228281,91229038,91233502,91246120,91254351,91257106,91257896,91260268,91261898,91263305,91266343,91269933,91271386,91278342,91281526,91296791	{}
6	121756791	121770873	NM_000165.5	0.0	+	MANE Select	4274	GJA1	AD	121767993	121769142	121756791,121767977	121756978,121770873	{}
7	192570	300738	NM_020223.4	0.0	+	MANE Select	22140	FAM20C	AR	193199	299946	192570,195553,208897,286380,288280,295814,296619,296970,298611,299696	193804,195732,208976,286473,288396,295995,296729,297052,298671,300738	{}
7	5566778	5570232	NM_001101.5	0.0	-	MANE Select	132	ACTB	AD	5567378	5569288	5566778,5567634,5567911,5568791,5569165,5570154	5567522,5567816,5568350,5569031,5569294,5570232	{}
7	42000546	42276808	NM_000168.6	0.0	-	MANE Select	4319	GLI3	AD	42003927	42262852	42000546,42007193,42011935,42017156,42018197,42063066,42064862,42065797,42079636,42084982,42088089,42116350,42187824,42262728,42276569	42006239,42007521,42012226,42017321,42018347,42063207,42064976,42066011,42079838,42085129,42088295,42116456,42188067,42262894,42276808	{}
7	98476154	98610864	NM_001375524.1	0.0	+	MANE Select	12347	TRRAP	AD	98478773	98609978	98476154,98478712,98479597,98487957,98490046,98491420,98493386,98495363,98497044,98497301,98498246,98501001,98503799,98506350,98507678,98508132,98508699,98509644,98513345,98515045,98519375,98522734,98524789,98527611,98528255,98529027,98530863,98533201,98534778,98535272,98540571,98543369,98543552,98545843,98546188,98547039,98547282,98547686,98548498,98550789,98552720,98553768,98554021,98555603,98556966,98558883,98559924,98562251,98563318,98564663,98565107,98567734,98569421,98573771,98574105,98574561,98575833,98576391,98579391,98580886,98581715,98582566,98586387,98588077,98589759,98591160,98592209,98601812,98602753,98605999,98608674,98608963,98609693	98476260,98478873,98479647,98488068,98490151,98491504,98493443,98495489,98497122,98497390,98498343,98501140,98503878,98506585,98508042,98508230,98508894,98509836,98513511,98515302,98519576,98522886,98524989,98527829,98528453,98529288,98531025,98533298,98534900,98535443,98540640,98543423,98543573,98545963,98546308,98547204,98547464,98547885,98548627,98551056,98552927,98553927,98554156,98555714,98557113,98559097,98560050,98562398,98563518,98564785,98565321,98567914,98569568,98573891,98574393,98574699,98575946,98576527,98579583,98581082,98581981,98582667,98586589,98588242,98589850,98591360,98592471,98602038,98602971,98606184,98608878,98609158,98610864	{}
7	155592673	155605157	NM_000193.4	0.0	-	MANE Select	10848	SHH	AD	155595593	155604816	155592673,155598989,155604516	155596420,155599251,155605157	{}
8	27632070	27662833	NM_001017420.3	0.0	+	MANE Select	27230	ESCO2	AR	27633031	27660955	27632070,27633015,27633878,27637690,27641516,27645401,27646363,27649479,27650184,27657057,27660822	27632124,27633084,27634686,27637784,27641574,27645519,27646495,27649569,27650328,27657233,27662833	{}
8	38268660	38326153	NM_023110.3	0.0	-	MANE Select	3688	FGFR1	AD	38271145	38314964	38268660,38271435,38271669,38272076,38272296,38273387,38274823,38275387,38275745,38277050,38279314,38282026,38283639,38285438,38285863,38287199,38314873,38325498	38271322,38271541,38271807,38272147,38272419,38273578,38274934,38275509,38275891,38277253,38279459,38282217,38283763,38285611,38285953,38287466,38315052,38326153	{}
8	57870489	57906426	NM_017813.5	0.0	-	MANE Select	26019	BPNT2	AR	57876351	57906144	57870489,57878749,57890608,57892593,57905757	57876623,57878911,57890704,57892756,57906426	{}
8	61591298	61780587	NM_017780.4	0.0	+	MANE Select	20626	CHD7	AD	61653991	61778492	61591298,61653817,61693558,61707544,61712946,61714086,61720775,61728945,61732565,61734348,61734582,61735061,61736398,61741221,61742880,61748631,61749375,61750226,61750634,61754202,61754405,61757422,61757808,61761073,61761609,61763051,61763590,61763820,61764577,61765056,61765387,61766921,61768533,61769003,61773462,61774754,61775106,61777574	61591641,61655656,61693989,61707686,61713084,61714152,61720831,61729060,61732649,61734486,61734704,61735305,61736575,61741365,61743136,61748842,61749571,61750394,61750814,61754313,61754611,61757622,61757968,61761163,61761713,61763181,61763663,61763878,61764806,61765265,61766059,61767082,61768761,61769447,61773684,61774895,61775211,61780587	{}
8	72109667	72274304	NM_000503.6	0.0	-	MANE Select	3519	EYA1	AD	72111574	72267140	72109667,72123390,72127621,72127848,72128926,72129199,72156837,72181974,72183992,72211281,72211872,72229786,72233968,72234433,72246331,72267016,72268696,72273881	72111655,72123491,72127743,72127963,72129087,72129258,72156927,72182058,72184132,72211468,72211955,72229924,72234114,72234503,72246409,72267144,72268746,72274304	{}
8	117858172	117887015	NM_006265.3	0.0	-	MANE Select	9811	RAD21	AD/AR	117859738	117878968	117858172,117861184,117862856,117864186,117864787,117866483,117868404,117868884,117869505,117870590,117874079,117875368,117878824,117886849	117859930,117861268,117863006,117864335,117864947,117866707,117868527,117869010,117869712,117870697,117874179,117875498,117879000,117887015	{}
8	120079485	120120694	NM_006438.5	0.0	+	MANE Select	2220	COLEC10	AR	120079520	120118430	120079485,120101918,120103387,120114586,120116038,120118038	120079668,120101990,120103459,120114640,120116134,120120694	{}
8	140739967	141467843	NM_001160372.4	0.0	-	MANE Select	30832	TRAPPC9	AR	140743303	141461472	140739967,140744221,140898122,140922390,140998933,141034033,141231557,141262875,141285756,141293987,141297706,141301091,141310567,141321346,141370148,141381062,141407718,141415675,141436713,141445210,141449150,141460888,141467737	140743471,140744445,140898213,140922544,140999044,141034176,141231682,141263028,141285920,141294120,141297833,141301177,141310713,141321473,141370292,141381279,141407844,141415797,141436740,141445339,141449296,141461482,141467843	{}
9	86582997	86595130	NM_031263.4	0.0	-	MANE Select	5044	HNRNPK	AD	86584321	86593167	86582997,86585076,86585651,86585811,86586187,86586586,86586796,86587758,86588200,86588816,86589431,86590376,86591909,86592603,86593109,86593287,86595067	86584355,86585246,86585734,86585827,86586271,86586641,86587104,86587887,86588314,86588888,86589504,86590420,86591966,86592701,86593194,86593367,86595130	{}
9	98205261	98271548	NM_000264.5	0.0	-	MANE Select	9585	PTCH1	AD	98209193	98270643	98205261,98209192,98211350,98212122,98215759,98218557,98220294,98221881,98224137,98229397,98231032,98232094,98238315,98239040,98239828,98240336,98241281,98242250,98242671,98244230,98244415,98247966,98268688,98270442	98208673,98209733,98211605,98212222,98215902,98218695,98220575,98222065,98224280,98229707,98231435,98232213,98238441,98239139,98239984,98240468,98241429,98242372,98242870,98244322,98244485,98248156,98268881,98271548	{}
9	98205261	98279253	NM_001083603.3	0.0	-	MANE Plus Clinical	9585	PTCH1	AD	98209193	98279102	98205261,98209192,98211350,98212122,98215759,98218557,98220294,98221881,98224137,98229397,98231032,98232094,98238315,98239040,98239828,98240336,98241281,98242250,98242671,98244230,98244415,98247966,98268688,98278904	98208673,98209733,98211605,98212222,98215902,98218695,98220575,98222065,98224280,98229707,98231435,98232213,98238441,98239139,98239984,98240468,98241429,98242372,98242870,98244322,98244485,98248156,98268881,98279253	{}
9	101867394	101916474	NM_004612.4	0.0	+	MANE Select	11772	TGFBR1	AD	101867487	101911587	101867394,101891136,101894790,101900140,101904817,101907013,101908766,101909935,101911461	101867584,101891382,101895021,101900371,101904985,101907170,101908891,101910066,101916474	{}
9	136379707	136390081	NM_001080483.3	0.0	-	MANE Select	33778	MYMK	AR	136379757	136389966	136379707,136380612,136383995,136385295,136389831	136379907,136380729,136384144,136385410,136390081	{}
10	76586357	76792382	NM_012330.4	0.0	+	MANE Select	17582	KAT6B	AD	76602615	76790804	76586357,76598440,76602357,76719727,76729417,76729777,76732264,76735156,76737073,76738981,76741544,76744837,76748776,76780339,76780883,76781638,76784715,76788246	76586543,76598510,76603236,76719836,76729533,76729859,76732397,76736088,76737195,76739097,76741686,76744999,76748870,76780571,76781043,76781989,76785007,76792382	{}
10	97423157	97453684	NM_015631.6	0.0	-	MANE Select	24519	TCTN3	AR	97423823	97453656	97423157,97440228,97442407,97442857,97443278,97444255,97445312,97446251,97446800,97447003,97447348,97452676,97453109,97453400	97424057,97440366,97442561,97442952,97443386,97444381,97445393,97446287,97446916,97447112,97447476,97452795,97453233,97453684	{}
10	112327452	112365806	NM_005445.4	0.0	+	MANE Select	2468	SMC3	AD	112327574	112364060	112327452,112328695,112333464,112335093,112337178,112337592,112338385,112340661,112341680,112342319,112343141,112343598,112343940,112349362,112349649,112350169,112350748,112352830,112356155,112357896,112359411,112360196,112360779,112361394,112361723,112362231,112362582,112362941,112363988	112327589,112328771,112333503,112335161,112337250,112337672,112338464,112340779,112341856,112342400,112343306,112343720,112344154,112349466,112349749,112350330,112350890,112352981,112356308,112358048,112359570,112360304,112360888,112361642,112361936,112362423,112362760,112363048,112365806	{}
10	123237845	123357958	NM_000141.5	0.0	-	MANE Select	3689	FGFR2	AD	123239370	123353331	123237845,123243211,123244908,123246867,123247504,123256045,123258008,123260339,123263303,123274630,123276832,123279492,123298105,123310803,123324015,123324951,123353222,123357475	123239535,123243317,123245046,123246938,123247627,123256236,123258119,123260461,123263455,123274833,123276977,123279683,123298229,123310973,123324093,123325218,123353481,123357958	{}
10	123237845	123357958	NM_022970.4	0.0	-	MANE Plus Clinical	3689	FGFR2	AD	123239370	123353331	123237845,123243211,123244908,123246867,123247504,123256045,123258008,123260339,123263303,123274630,123278195,123279492,123298105,123310803,123324015,123324951,123353222,123357475	123239535,123243317,123245046,123246938,123247627,123256236,123258119,123260461,123263455,123274833,123278343,123279683,123298229,123310973,123324093,123325218,123353481,123357958	{}
11	2904447	2907005	NM_001122630.2	0.0	-	MANE Select	1786	CDKN1C	AD	2905233	2906686	2904447,2905228,2905899,2906863	2905145,2905364,2906696,2907005	{}
11	57529273	57587012	NM_001085458.2	0.0	+	MANE Select	2515	CTNND1	AD	57558950	57583780	57529273,57556508,57558856,57561481,57563048,57563928,57569204,57571092,57572134,57573353,57573932,57574386,57575636,57575861,57576745,57577580,57578870,57581782,57582865,57583386,57583768	57529591,57556627,57559145,57561553,57563201,57564464,57569668,57571276,57572252,57573507,57573950,57574455,57575764,57576012,57576938,57577695,57578958,57581845,57582972,57583473,57587012	{}
11	65819834	65836779	NM_006842.3	0.0	+	MANE Select	10769	SF3B2	AD	65819855	65836216	65819834,65820143,65820497,65822546,65823005,65824308,65824736,65825524,65825784,65826300,65826671,65826985,65827252,65828052,65829156,65829361,65830479,65830870,65831098,65835416,65835618,65836144	65819988,65820190,65820575,65822786,65823056,65824426,65824846,65825621,65825876,65826516,65826809,65827066,65827480,65828202,65829246,65829469,65830587,65831013,65831200,65835516,65835804,65836779	{}
11	71145456	71159439	NM_001360.3	0.0	-	MANE Select	2860	DHCR7	AR	71146420	71155998	71145456,71148857,71149924,71152272,71153308,71155038,71155900,71158655,71159335	71146885,71148989,71150129,71152486,71153399,71155261,71156004,71158780,71159439	{}
11	73723762	73882047	NM_001286577.2	0.0	-	MANE Select	24564	C2CD3	AR	73724429	73881837	73723762,73739331,73744395,73748522,73753098,73759249,73760381,73765651,73768450,73785297,73789159,73795925,73796662,73801857,73803460,73804860,73806272,73809053,73811569,73814175,73817415,73820078,73824824,73825428,73829272,73834032,73843888,73844469,73849764,73850649,73872443,73879388,73881782	73724570,73739443,73745323,73748743,73753263,73759383,73760587,73765716,73768589,73785645,73789762,73796015,73796931,73801981,73803633,73805044,73806453,73809300,73811721,73814670,73817538,73820197,73824937,73825638,73829427,73834180,73844017,73844602,73850012,73850873,73872601,73879658,73882047	{}
11	94501521	94609913	NM_130847.3	0.0	+	MANE Select	17811	AMOTL1	N/A	94501677	94603960	94501521,94528176,94532555,94554695,94563215,94564617,94583278,94587097,94592689,94597899,94599106,94602362,94603853	94501726,94528326,94533477,94554987,94563360,94564707,94583424,94587247,94592880,94598025,94599333,94602638,94609913	{}
11	102980154	103350591	NM_001080463.2	0.0	+	MANE Plus Clinical	2962	DYNC2H1	AR	102980303	103349981	102980154,102984265,102984831,102985905,102987298,102988359,102991175,102991417,102991653,102992100,102993553,102995828,102999638,103004283,103005049,103006223,103006448,103013996,103018500,103019218,103022864,103024031,103025179,103025423,103026059,103027116,103029405,103029638,103031660,103033756,103036626,103039483,103040836,103041614,103043810,103044783,103046963,103048284,103049754,103052485,103055624,103056970,103058068,103059225,103060400,103062245,103062825,103068661,103069956,103070774,103074391,103075550,103080604,103082517,103086449,103090643,103091351,103092758,103093693,103101988,103104762,103106400,103107158,103112255,103114421,103115979,103124013,103126143,103126834,103128336,103130616,103151076,103152907,103153736,103156983,103158261,103173821,103175323,103178449,103182606,103187273,103191757,103194613,103228970,103270390,103306670,103325913,103327002,103339316,103349822	102980498,102984436,102984967,102986024,102987443,102988592,102991310,102991531,102991765,102992225,102993729,102996024,102999734,103004436,103005148,103006363,103006677,103014124,103018616,103019346,103023014,103024237,103025335,103025538,103026230,103027499,103029538,103029756,103031773,103033876,103036777,103039689,103041019,103041797,103044034,103044899,103047163,103048549,103049962,103052615,103055780,103057230,103058315,103059377,103060545,103062348,103062993,103068792,103070205,103070883,103074505,103075693,103080689,103082672,103086587,103090757,103091512,103092882,103093815,103102075,103104889,103106542,103107268,103112276,103114520,103116103,103124177,103126263,103126969,103128480,103130706,103151142,103152958,103153814,103157115,103158334,103173982,103175449,103178560,103182762,103187349,103191966,103194718,103229087,103270600,103306760,103326023,103327084,103339433,103350591	{}
11	102980154	103350591	NM_001377.3	0.0	+	MANE Select	2962	DYNC2H1	AR	102980303	103349981	102980154,102984265,102984831,102985905,102987298,102988359,102991175,102991417,102991653,102992100,102993553,102995828,102999638,103004283,103005049,103006223,103006448,103013996,103018500,103019218,103022864,103024031,103025179,103025423,103026059,103027116,103029405,103029638,103031660,103033756,103036626,103039483,103040836,103041614,103043810,103044783,103046963,103048284,103049754,103052485,103055624,103056970,103058068,103059225,103060400,103062245,103062825,103068661,103069956,103070774,103074391,103075550,103080604,103082517,103086449,103090643,103091351,103092758,103093693,103101988,103104762,103106400,103107158,103114421,103115979,103124013,103126143,103126834,103128336,103130616,103151076,103152907,103153736,103156983,103158261,103173821,103175323,103178449,103182606,103187273,103191757,103194613,103228970,103270390,103306670,103325913,103327002,103339316,103349822	102980498,102984436,102984967,102986024,102987443,102988592,102991310,102991531,102991765,102992225,102993729,102996024,102999734,103004436,103005148,103006363,103006677,103014124,103018616,103019346,103023014,103024237,103025335,103025538,103026230,103027499,103029538,103029756,103031773,103033876,103036777,103039689,103041019,103041797,103044034,103044899,103047163,103048549,103049962,103052615,103055780,103057230,103058315,103059377,103060545,103062348,103062993,103068792,103070205,103070883,103074505,103075693,103080689,103082672,103086587,103090757,103091512,103092882,103093815,103102075,103104889,103106542,103107268,103114520,103116103,103124177,103126263,103126969,103128480,103130706,103151142,103152958,103153814,103157115,103158334,103173982,103175449,103178560,103182762,103187349,103191966,103194718,103229087,103270600,103306760,103326023,103327084,103339433,103350591	{}
11	119531701	119599910	NM_002855.5	0.0	-	MANE Select	9706	NECTIN1	AR	119535456	119599263	119531701,119545868,119547811,119548264,119549124,119599184	119536007,119546020,119547929,119548567,119549475,119599910	{}
11	125757562	125770541	NM_001134793.2	0.0	+	MANE Select	26558	HYLS1	AR	125769263	125770163	125757562,125761317,125769238	125757660,125761367,125770541	{}
12	48366749	48398259	NM_001844.5	0.0	-	MANE Select	2200	COL2A1	AD	48367189	48398104	48366749,48367871,48368457,48369099,48369745,48370296,48370594,48370884,48371102,48371382,48371792,48372073,48372379,48373293,48373791,48374336,48374697,48375125,48375558,48375889,48376284,48376630,48376875,48377167,48377465,48377869,48378328,48378777,48379316,48379510,48379694,48380118,48380617,48380860,48381051,48381393,48383010,48383543,48386660,48387240,48387591,48387776,48388206,48389037,48389492,48389657,48390330,48391388,48391653,48391814,48391951,48392197,48393701,48398019	48367336,48368114,48368645,48369388,48369853,48370350,48370702,48370938,48371210,48371436,48371900,48372181,48372541,48373347,48373845,48374444,48374751,48375179,48375612,48375943,48376392,48376729,48376920,48377221,48377519,48377923,48378382,48378876,48379370,48379609,48379748,48380226,48380671,48380959,48381096,48381492,48383064,48383588,48386714,48387285,48387645,48387830,48388260,48389091,48389546,48389702,48390408,48391490,48391707,48391847,48391984,48392214,48393908,48398259	{}
12	49412760	49454577	NM_003482.4	0.0	-	MANE Select	7133	KMT2D	AD	49415562	49449107	49412760,49415825,49416062,49416372,49418360,49418592,49419964,49421585,49421791,49422610,49422843,49423183,49424062,49424383,49424675,49424957,49427849,49428192,49428364,49428594,49430907,49433004,49433217,49433506,49435437,49435699,49435871,49436343,49436523,49436858,49437145,49437417,49437650,49437982,49438185,49438526,49439702,49439847,49440042,49440391,49441747,49442441,49442887,49443464,49444668,49446346,49446697,49446989,49447258,49447760,49448089,49448310,49448682,49449058,49453395	49415655,49415934,49416136,49416658,49418491,49418729,49421105,49421713,49421924,49422741,49423019,49423259,49424222,49424551,49424816,49427747,49428082,49428259,49428449,49428718,49432772,49433141,49433400,49435318,49435488,49435773,49436113,49436428,49436661,49436969,49437211,49437565,49437781,49438087,49438305,49438748,49439750,49439957,49440207,49440573,49441852,49442552,49443001,49444573,49446207,49446492,49446855,49447104,49447424,49447923,49448199,49448534,49448809,49449144,49454577	{}
12	56136905	56151048	NM_005811.5	0.0	+	MANE Select	4216	GDF11	AD	56137100	56143666	56136905,56142369,56143285	56137545,56142767,56151048	{}
12	56435701	56438481	NM_001029.5	0.0	+	MANE Select	10414	RPS26	AD	56435950	56437938	56435701,56436208,56437146,56437902	56435953,56436386,56437277,56438481	{}
12	85673997	85695562	NM_006982.3	0.0	+	MANE Select	1494	ALX1	AR	85674039	85695253	85673997,85677349,85680630,85694932	85674265,85677654,85680759,85695562	{}
13	28196028	28197586	NM_015972.4	0.0	+	MANE Select	20422	POLR1D	AD/AR	28196120	28197387	28196028,28197011	28196146,28197586	{}
13	31774111	31906413	NM_194318.4	0.0	+	MANE Select	20207	B3GLCT	AR	31774221	31903805	31774111,31789187,31797088,31803321,31821159,31821991,31835082,31843350,31848645,31850838,31858784,31860856,31891702,31897887,31903637	31774291,31789237,31797128,31803431,31821236,31822103,31835219,31843414,31848765,31850908,31858898,31860956,31891822,31898032,31906413	{}
13	95226307	95248406	NM_014305.4	0.0	-	MANE Select	20324	TGDS	AR	95227035	95248390	95226307,95228567,95229624,95230258,95230983,95232147,95233344,95235347,95243106,95244494,95246094,95248304	95227106,95228665,95229683,95230424,95231027,95232207,95233443,95235490,95243197,95244563,95246161,95248406	{}
13	100634037	100639019	NM_007129.5	0.0	+	MANE Select	12873	ZIC2	AD	100634318	100637936	100634037,100637199,100637576	100635393,100637363,100639019	{}
14	58894436	59018015	NM_001329943.3	0.0	+	MANE Select	19960	KIAA0586	AR	58894982	59014650	58894436,58896080,58897365,58899105,58909423,58910671,58915057,58917296,58920067,58923419,58924476,58925190,58926560,58927703,58932552,58934452,58937330,58938916,58941324,58943840,58949230,58953724,58954604,58955338,58956881,58958861,58965500,58975272,58979239,59006788,59014498	58895181,58896151,58897435,58899175,58909598,58910893,58915211,58917464,58920191,58923528,58924697,58925263,58926788,58927878,58932747,58934640,58937441,58938997,58941515,58943959,58949430,58953884,58954827,58955592,58956958,58958993,58965678,58975427,58979345,59006854,59018015	{}
14	76424439	76448338	NM_003239.5	0.0	-	MANE Select	11769	TGFB3	AD	76425529	76447236	76424439,76427265,76429658,76431930,76437468,76437897,76446884	76425688,76427419,76429830,76432038,76437598,76438061,76448338	{}
15	37181404	37392750	NM_170675.5	0.0	-	MANE Select	7001	MEIS2	AD	37184373	37391667	37181404,37187351,37188828,37242524,37329014,37375971,37385781,37386727,37387764,37388489,37390167,37391655	37184660,37187462,37188887,37242601,37329160,37376086,37385931,37386778,37387815,37388631,37390400,37392750	{}
15	40763182	40765357	NM_130468.4	0.0	+	MANE Select	24464	CHST14	AR	40763412	40764543	40763182	40765357	{}
15	41221537	41231271	NM_019074.4	0.0	+	MANE Select	2910	DLL4	AD	41221866	41230232	41221537,41222044,41222822,41223700,41224368,41224514,41226745,41227095,41228425,41229615,41230226	41221932,41222314,41222880,41223964,41224429,41224645,41226915,41227315,41229128,41229724,41231271	{}
15	67357939	67487507	NM_005902.4	0.0	+	MANE Select	6769	SMAD3	AD	67358492	67482874	67357939,67457232,67457590,67459116,67462891,67473578,67477064,67479702,67482750	67358698,67457426,67457722,67459191,67462942,67473791,67477202,67479847,67487507	{}
15	90171207	90198698	NM_198525.3	0.0	-	MANE Select	30497	KIF7	AR	90171649	90196161	90171207,90172206,90172605,90173517,90174725,90176050,90176371,90176916,90185433,90188243,90188566,90189123,90190060,90190826,90191485,90192204,90192971,90195833,90198629	90172017,90172353,90172804,90173724,90174941,90176227,90176497,90177114,90185636,90188396,90188682,90189257,90190288,90190943,90192005,90192598,90193172,90196185,90198698	{}
16	17195625	17564817	NM_022166.4	0.0	-	MANE Select	15516	XYLT1	AR	17202551	17564653	17195625,17211502,17221522,17228329,17232211,17235009,17252685,17292068,17294338,17352844,17451868,17564290	17202874,17211836,17221718,17228592,17232388,17235226,17252766,17292271,17294511,17353355,17451907,17564817	{}
16	67596428	67673080	NM_006565.4	0.0	+	MANE Select	13723	CTCF	AD	67644735	67671775	67596428,67605050,67644726,67645853,67650647,67654599,67655344,67660457,67662272,67663300,67670592,67671590	67596627,67605167,67645516,67646024,67650781,67654720,67655494,67660618,67662455,67663436,67670754,67673080	{}
16	68771194	68869440	NM_004360.5	0.0	+	MANE Select	1748	CDH1	AD	68771318	68867402	68771194,68772199,68835572,68842326,68842595,68844099,68845586,68846037,68847215,68849417,68853182,68855903,68857301,68862076,68863556,68867192	68771366,68772314,68835796,68842470,68842751,68844244,68845762,68846166,68847398,68849662,68853328,68856128,68857529,68862207,68863700,68869440	{}
16	72042642	72061558	NM_001361.5	0.0	+	MANE Select	2867	DHODH	AR	72042663	72058098	72042642,72045948,72048371,72050922,72055022,72056260,72057063,72057372,72058043	72042684,72046161,72048571,72051005,72055210,72056374,72057217,72057532,72061558	{}
16	86600434	86603334	NM_005251.3	0.0	+	MANE Select	3801	FOXC2	AD	86600941	86602447	86600434	86603334	{}
16	89334037	89556969	NM_013275.6	0.0	-	MANE Select	21316	ANKRD11	AD	89334885	89383427	89334037,89337224,89341221,89341500,89345479,89352446,89354935,89357032,89357420,89371613,89383340,89484691,89556652	89335071,89337317,89341365,89341599,89352057,89352594,89355078,89357236,89357591,89371752,89383486,89484776,89556969	{}
17	37827374	37844310	NM_033419.5	0.0	-	MANE Select	23719	PGAP3	AR	37829055	37844267	37827374,37829303,37829766,37830245,37830869,37840849,37842174,37844086	37829119,37829508,37829903,37830307,37830932,37841002,37842272,37844310	{}
17	40834548	40852011	NM_003632.3	0.0	+	MANE Select	8011	CNTNAP1	AR	40834847	40850928	40834548,40835838,40836053,40837008,40837234,40837974,40838920,40839737,40840479,40840893,40841538,40842105,40842756,40843154,40843401,40843823,40844516,40845314,40847538,40848042,40849291,40849571,40849920,40850635	40834914,40835940,40836247,40837156,40837438,40838159,40839064,40839999,40840629,40841065,40841645,40842225,40842960,40843311,40843529,40844009,40844738,40845554,40847892,40848170,40849385,40849817,40849968,40852011	{}
17	42927315	42976813	NM_004247.4	0.0	-	MANE Select	30858	EFTUD2	AD	42928641	42971889	42927315,42929077,42929776,42930663,42930884,42931636,42931923,42932285,42934442,42936447,42937272,42937799,42940080,42941022,42942297,42945174,42945654,42949813,42953301,42956923,42957921,42959054,42960460,42961016,42962623,42963952,42971784,42976736	42928737,42929185,42929930,42930758,42931003,42931724,42932050,42932372,42934525,42936549,42937413,42937911,42940274,42941150,42942433,42945265,42945718,42949938,42953468,42957006,42958012,42959090,42960526,42961092,42962702,42964118,42971893,42976813	{}
17	56282801	56296616	NM_017777.4	0.0	-	MANE Select	7121	MKS1	AR	56283439	56296591	56282801,56283643,56283825,56284445,56285254,56285465,56285873,56288019,56288340,56289738,56290342,56291125,56291619,56292101,56293448,56294026,56295980,56296511	56283531,56283741,56283908,56284579,56285362,56285535,56285944,56288085,56288383,56289795,56290451,56291230,56291748,56292199,56293604,56294097,56296090,56296616	{}
17	68165672	68176185	NM_000891.3	0.0	+	MANE Select	6263	KCNJ2	AD	68171180	68172464	68165672,68170964	68165842,68176185	{}
17	70117160	70122557	NM_000346.4	0.0	+	MANE Select	11204	SOX9	AD	70117532	70120528	70117160,70118859,70119683	70117963,70119113,70122557	{}
17	78108167	78120927	NM_014740.4	0.0	-	MANE Select	18683	EIF4A3	AR	78109288	78120760	78108167,78109802,78110026,78111184,78111940,78112819,78113468,78113806,78115117,78115580,78117970,78120591	78109305,78109930,78110134,78111300,78112079,78112961,78113549,78113939,78115180,78115647,78118043,78120927	{}
17	79476996	79479825	NM_001614.5	0.0	-	MANE Select	144	ACTG1	AD	79477715	79479380	79476996,79477952,79478213,79478928,79479257,79479759	79477859,79478134,79478652,79479168,79479386,79479825	{}
18	10670243	11149568	NM_001378183.1	0.0	-	MANE Select	26270	PIEZO2	AD	10671523	11148587	10670243,10672686,10675205,10677743,10680195,10681657,10682100,10689652,10691222,10696071,10696389,10697745,10698922,10701986,10704391,10705333,10708272,10714761,10715647,10718197,10731404,10735229,10736601,10741028,10742491,10744139,10748468,10750088,10752633,10757966,10759479,10759702,10760908,10762497,10762919,10770145,10773409,10774003,10780322,10784781,10787033,10789076,10791198,10794769,10797371,10800334,10801387,10803872,10807109,10855350,10856998,10871250,10911183,10979532,11066125,11148523	10671776,10672870,10675285,10677872,10680368,10681750,10682289,10689800,10691381,10696286,10696537,10697878,10699175,10702169,10704650,10705744,10708437,10714928,10715814,10718257,10731519,10735328,10736708,10741100,10742613,10744229,10748628,10750185,10752877,10758132,10759581,10759907,10761109,10762623,10763096,10770306,10773627,10774036,10780364,10784955,10787182,10789363,10791322,10795000,10797520,10800473,10801426,10803992,10807272,10855564,10857209,10871413,10911226,10979658,11066221,11149568	{}
18	32621376	32723434	NM_014268.4	0.0	+	MANE Select	6891	MAPRE2	AD	32621503	32720333	32621376,32650158,32677409,32681909,32706911,32711995,32720258	32621625,32650286,32677555,32682123,32707051,32712154,32723434	{}
18	43427573	43547295	NM_020964.3	0.0	-	MANE Select	29331	EPG5	AR	43432431	43547205	43427573,43435537,43437817,43438530,43440068,43445579,43446762,43447527,43450531,43456200,43458340,43458977,43460039,43462238,43464581,43467715,43469762,43479368,43480960,43483937,43487922,43490485,43492254,43493670,43495475,43495973,43496402,43497643,43502306,43503233,43505703,43508834,43510641,43514774,43519565,43523126,43523970,43526628,43528468,43529449,43531067,43532365,43534359,43547142	43432614,43435652,43438033,43438747,43440311,43445724,43446972,43447713,43450707,43456307,43458413,43459179,43460188,43462452,43464776,43467872,43469905,43479531,43481132,43484082,43488046,43490707,43492421,43493793,43495586,43496171,43496547,43497784,43502566,43503353,43505868,43508975,43510796,43514932,43519721,43523277,43524085,43526734,43528542,43529557,43531204,43532609,43535304,43547295	{}
18	48556582	48611412	NM_005359.6	0.0	+	MANE Select	6770	SMAD4	AD	48573416	48604837	48556582,48573289,48575055,48575664,48581150,48584494,48584709,48586235,48591792,48593388,48603007,48604625	48556993,48573665,48575230,48575694,48581363,48584614,48584826,48586286,48591976,48593557,48603146,48611412	{}
18	55711457	56068771	NM_001144967.3	0.0	+	MANE Select	7728	NEDD4L	AD	55711892	56063501	55711457,55833019,55912658,55916130,55919232,55983213,55989656,55990463,55992227,55996226,55997969,56001049,56002709,56008269,56008909,56010137,56016768,56018222,56024425,56031499,56033230,56034977,56037628,56040405,56050477,56052757,56054670,56056316,56057877,56058718,56063398	55711940,55833093,55912740,55916169,55919286,55983264,55989718,55990566,55992394,55996359,55998146,56001124,56002769,56008401,56009029,56010335,56016846,56018277,56024484,56031565,56033460,56035099,56037699,56040501,56050551,56052818,56054730,56056424,56057974,56058791,56068771	{}
18	59708396	59854289	NM_176787.5	0.0	-	MANE Select	8967	PIGN	AR	59713088	59828586	59708396,59739905,59742011,59749905,59751763,59752441,59755988,59757708,59763080,59768307,59770026,59772775,59774021,59774218,59777066,59780366,59781793,59805475,59806215,59807652,59810538,59813141,59814203,59815446,59821777,59824361,59824919,59828365,59829485,59830763,59854076	59713212,59739958,59742054,59749979,59751839,59752497,59756075,59757811,59763183,59768416,59770135,59772867,59774114,59774318,59777206,59780549,59781872,59805531,59806308,59807712,59810579,59813258,59814334,59815571,59821884,59824460,59825041,59828618,59829562,59830889,59854289	{}
18	77730812	77748563	NM_006701.5	0.0	-	MANE Select	30551	TXNL4A	AR	77733684	77748392	77730812,77737597,77748239	77733856,77737701,77748563	{}
19	11071705	11172949	NM_001387283.1	0.0	+	MANE Plus Clinical	11100	SMARCA4	AD	11094827	11172492	11071705,11094799,11095948,11096864,11097580,11098341,11099992,11101825,11105503,11106888,11107169,11113704,11114015,11118577,11121056,11123624,11129632,11130266,11132400,11134193,11135006,11136097,11136975,11138459,11141405,11143965,11144442,11144798,11145589,11150133,11151982,11168930,11169463,11170428,11170720,11172459	11071850,11095049,11096081,11097269,11097679,11098600,11100119,11101999,11105677,11107056,11107220,11113835,11114073,11118699,11121207,11123788,11129699,11130377,11132643,11134307,11135114,11136184,11137022,11138626,11141569,11144193,11144541,11144876,11145808,11150229,11152236,11169039,11169565,11170561,11170863,11172949	{}
19	11071705	11172949	NM_003072.5	0.0	+	MANE Select	11100	SMARCA4	AD	11094827	11172492	11071705,11094796,11095948,11096864,11097580,11098341,11099992,11101825,11105503,11106888,11107169,11113704,11114015,11118577,11121056,11123624,11129632,11130266,11132400,11134193,11135006,11136097,11136975,11138459,11141405,11143965,11144442,11144798,11145589,11151982,11168930,11169463,11170428,11170720,11172459	11071850,11095049,11096081,11097269,11097679,11098600,11100119,11101999,11105677,11107056,11107220,11113835,11114073,11118699,11121207,11123788,11129699,11130377,11132643,11134307,11135114,11136184,11137022,11138626,11141569,11144193,11144541,11144876,11145808,11152236,11169039,11169565,11170561,11170863,11172949	{}
19	11309970	11373200	NM_020812.4	0.0	-	MANE Select	19189	DOCK6	AR	11310172	11373116	11309970,11310983,11311391,11311584,11312564,11313069,11313259,11314756,11314875,11319361,11319586,11322451,11322668,11323851,11324950,11325228,11326062,11326476,11327589,11327906,11332526,11332784,11333410,11333668,11338012,11339615,11343878,11346273,11347021,11347468,11348131,11348316,11348720,11348862,11352720,11353734,11353933,11354232,11354477,11356238,11356487,11358741,11361549,11362794,11363157,11363458,11364314,11373072	11310215,11311145,11311498,11311728,11312801,11313159,11313385,11314771,11315007,11319505,11319779,11322552,11322827,11324004,11325085,11325325,11326147,11326603,11327772,11328067,11332696,11332924,11333581,11333782,11338153,11339711,11344042,11346435,11347253,11347555,11348233,11348455,11348791,11348980,11352883,11353828,11354061,11354386,11354558,11356388,11356554,11358827,11361762,11362924,11363226,11363634,11364402,11373200	{}
19	50321545	50340236	NM_030973.4	0.0	+	MANE Select	28845	MED25	AR	50321598	50340201	50321545,50321827,50322428,50331705,50332226,50333042,50333344,50333767,50333950,50334589,50335192,50335356,50335564,50338242,50338790,50338983,50339482,50340103	50321732,50321873,50322553,50331804,50332347,50333205,50333475,50333855,50334144,50334718,50335278,50335414,50335672,50338434,50338862,50339202,50339663,50340236	{}
20	2442287	2451435	NM_003091.4	0.0	-	MANE Select	11153	SNRPB	AD	2442574	2451336	2442287,2443281,2443734,2444392,2446353,2448252,2451333	2442585,2443407,2443873,2444545,2446465,2448404,2451435	{}
20	6748332	6760893	NM_001200.4	0.0	+	MANE Select	1069	BMP2	AD	6750773	6759736	6748332,6750766,6758891	6749522,6751119,6760893	{}
20	9049733	9461455	NM_001377142.1	0.0	+	MANE Select	9059	PLCB4	AD/AR	9288461	9459656	9049733,9076933,9198036,9288446,9317772,9318654,9319540,9343542,9346107,9351860,9352949,9353693,9360700,9364847,9368109,9370525,9371177,9374234,9376169,9382136,9385959,9388563,9389279,9389703,9391683,9400453,9401943,9404394,9416206,9417648,9424627,9424824,9433993,9438060,9440281,9449217,9453436,9453925,9457363,9459567	9049853,9076989,9198099,9288545,9317853,9318714,9319684,9343622,9346161,9351942,9353050,9353751,9360809,9365058,9368203,9370605,9371262,9374325,9376265,9382237,9385995,9388705,9389364,9389828,9391735,9400556,9402108,9404599,9416295,9417799,9424677,9424890,9434109,9438136,9440457,9449319,9453494,9454012,9457400,9461455	{}
20	30946133	31027122	NM_015338.6	0.0	+	MANE Select	18318	ASXL1	AD	30946578	31025141	30946133,30954186,30955529,30956817,31015930,31016127,31017140,31017703,31019123,31019385,31020682,31021086,31022234	30946635,30954269,30955532,30956926,31016051,31016225,31017234,31017856,31019287,31019482,31020788,31021720,31027122	{}
21	34915343	34949787	NM_138927.4	0.0	+	MANE Select	11183	SON	AD	34915398	34948730	34915343,34918518,34921781,34929461,34931535,34931892,34939462,34941276,34945613,34947901,34948083,34948670	34915475,34918685,34927697,34929622,34931682,34932081,34939573,34941393,34945761,34947973,34948199,34949787	{}
22	19748300	19754857	NM_001379200.1	0.0	+	MANE Select	11592	TBX1	AD	19748366	19754390	19748300,19750763,19751677,19752480,19753280,19753424,19753911	19748803,19750865,19751849,19752636,19753348,19753525,19754857	{}
22	20778873	20792112	NM_182895.5	0.0	-	MANE Select	19869	SCARF2	AR	20779664	20792041	20778873,20779975,20780026,20780031,20781684,20783511,20783822,20784016,20784715,20784976,20785304,20786031,20786216,20791868	20779973,20780024,20780029,20780569,20781837,20783627,20783940,20784120,20784844,20785195,20785824,20786133,20786275,20792112	{}
22	24666798	24813706	NM_015330.6	0.0	+	MANE Select	29022	SPECC1L	AD	24698199	24810591	24666798,24672667,24698162,24709280,24717255,24720187,24724813,24726223,24730377,24734353,24743053,24759228,24761443,24765185,24807555,24808615,24810501	24666951,24672771,24698352,24709434,24718886,24720395,24724887,24726399,24730541,24734445,24743144,24759312,24761600,24765288,24807672,24808675,24813706	{}
X	10413595	10588625	NM_000381.4	0.0	-	MANE Select	7095	MID1	XD/XR	10417407	10535587	10413595,10422909,10427685,10437736,10442662,10450519,10463623,10491131,10534927,10588329	10417756,10423117,10427847,10437880,10442790,10450668,10463731,10491227,10535643,10588625	{}
X	13752866	13787476	NM_003611.3	0.0	+	MANE Select	2567	OFD1	XD/XR	13753190	13787227	13752866,13753366,13754596,13756964,13757120,13762533,13764437,13764898,13767545,13769367,13771486,13773269,13774696,13775778,13776455,13778233,13779203,13780462,13781863,13785245,13786172,13786836,13787184	13753202,13753465,13754797,13757033,13757151,13762638,13764574,13765072,13767652,13769487,13771560,13773361,13774886,13775909,13776567,13778839,13779330,13780563,13781974,13785403,13786343,13786904,13787476	{}
X	21857734	21903541	NM_015884.4	0.0	+	MANE Select	15455	MBTPS2	XD/XR	21857852	21900773	21857734,21861287,21863288,21869626,21871493,21886584,21887615,21896159,21896614,21899014,21900550	21857927,21861436,21863502,21869730,21871621,21886703,21887796,21896254,21896810,21899090,21903541	{}
X	21958826	22012955	NM_004595.5	0.0	+	MANE Select	11123	SMS	XD/XR	21958942	22012469	21958826,21985313,21990014,21990624,21995178,21996077,21996994,22002421,22003261,22010714,22012429	21958991,21985434,21990108,21990689,21995354,21996232,21997084,22002536,22003341,22010830,22012955	{}
X	24073072	24096927	NM_001415.4	0.0	+	MANE Select	3267	EIF2S3	XD/XR	24073085	24094902	24073072,24073731,24075537,24075749,24078204,24080532,24082317,24084114,24086080,24089674,24091207,24094838	24073154,24073795,24075665,24075871,24078299,24080691,24082452,24084209,24086225,24089844,24091380,24096927	{}
X	39910503	39957211	NM_001123385.2	0.0	-	MANE Select	20893	BCOR	XD/XR	39911361	39937182	39910503,39913138,39913508,39914620,39916407,39921391,39921998,39922860,39923588,39930225,39930889,39931601,39935706,39937096,39956467	39911653,39913295,39913586,39914766,39916574,39921646,39922324,39923205,39923852,39930412,39930943,39934433,39935785,39937222,39957211	{}
X	44732433	44972024	NM_001291415.2	0.0	+	MANE Select	12637	KDM6A	XD/XR	44732797	44970656	44732433,44733169,44820528,44833910,44870205,44879854,44894175,44896899,44910953,44913073,44918250,44918491,44919266,44919853,44920568,44921891,44922666,44928823,44935941,44937644,44938390,44941820,44941959,44942704,44945109,44948987,44949967,44966654,44969323,44970626	44732958,44733233,44820637,44833960,44870264,44879975,44894230,44896934,44911047,44913200,44918349,44918711,44919401,44920009,44920664,44921993,44923062,44929602,44936071,44937750,44938596,44941885,44942034,44942853,44945224,44949175,44950109,44966781,44969494,44972024	{}
X	48367379	48379196	NM_203475.3	0.0	+	MANE Select	17652	PORCN	XD/XR	48368208	48378864	48367379,48368171,48369682,48370279,48370713,48370976,48371222,48372514,48372627,48372912,48374104,48374277,48374448,48375570,48378762	48367491,48368344,48369875,48370323,48370895,48371107,48371240,48372529,48372753,48373013,48374181,48374341,48374534,48375681,48379196	{}
X	53401069	53449603	NM_006306.4	0.0	-	MANE Select	11111	SMC1A	XD/XR	53407023	53449549	53401069,53407540,53407938,53409152,53409426,53410017,53421697,53423146,53423391,53426510,53430497,53430708,53431943,53432176,53432424,53432702,53435992,53436351,53438710,53438944,53439849,53440181,53441706,53441929,53449440	53407107,53407651,53408008,53409304,53409581,53410174,53421808,53423300,53423537,53426652,53430604,53430825,53432081,53432323,53432604,53432888,53436200,53436434,53438851,53439203,53440088,53440385,53441819,53442118,53449603	{}
X	53963112	54070906	NM_015107.3	0.0	-	MANE Select	20672	PHF8	XD/XR	53965590	54069161	53963112,53966612,53970566,53989276,54011346,54012248,54013510,54014198,54019168,54020033,54022125,54026302,54028587,54029027,54037554,54040809,54043027,54044093,54048691,54049190,54069063,54070194	53965679,53966949,53970676,53989372,54011660,54012382,54013596,54014377,54019272,54020336,54022215,54026394,54028694,54029115,54037717,54040996,54043169,54044254,54048800,54049276,54069253,54070906	{}
X	54471886	54522667	NM_004463.3	0.0	-	MANE Select	3663	FGD1	XD/XR	54472541	54521865	54471886,54473743,54475238,54475575,54476091,54476703,54481880,54482124,54482652,54482941,54491883,54492128,54494216,54495219,54496448,54497015,54497746,54521558	54472847,54473887,54475400,54475701,54476193,54476734,54481960,54482217,54482799,54483000,54492022,54492285,54494365,54495309,54496890,54497193,54497920,54522667	{}
X	63404996	63425588	NM_152424.4	0.0	-	MANE Select	26837	AMER1	XD/XR	63409758	63413166	63404996,63425449	63413264,63425588	{}
X	64135686	64196330	NM_018684.4	0.0	-	MANE Select	24931	ZC4H2	XD/XR	64137662	64196257	64135686,64138921,64139960,64141696,64196204	64137776,64139084,64140133,64141868,64196330	{}
X	68048863	68062003	NM_004429.5	0.0	+	MANE Select	3226	EFNB1	XD/XR	68049619	68060497	68048863,68058459,68059506,68059802,68060084	68049747,68058737,68059599,68059931,68062003	{}
X	70338445	70362300	NM_005120.3	0.0	+	MANE Select	11957	MED12	XD/XR	70338604	70362068	70338445,70339222,70339535,70339863,70340820,70341176,70341411,70342049,70342357,70342587,70342944,70343443,70344008,70344613,70344825,70345200,70345512,70345885,70346190,70346818,70347185,70347742,70348145,70348447,70348963,70349165,70349529,70349884,70351399,70351922,70352226,70352694,70352972,70354206,70354562,70354941,70356130,70356728,70357036,70357407,70357575,70360484,70361079,70361732,70362024	70338703,70339327,70339727,70340020,70341002,70341287,70341666,70342196,70342457,70342724,70343076,70343570,70344238,70344694,70344996,70345345,70345563,70346004,70346334,70346982,70347317,70347970,70348290,70348568,70349065,70349279,70349705,70350064,70351471,70352056,70352388,70352806,70353062,70354316,70354698,70355103,70356505,70356879,70357233,70357485,70357793,70360707,70361220,70361814,70362300	{}
X	71549365	71792693	NM_018486.3	0.0	-	MANE Select	13315	HDAC8	XD/XR	71549903	71792611	71549365,71571582,71681853,71684408,71708782,71710778,71715005,71787738,71788603,71791906,71792500	71549926,71571688,71681948,71684581,71708891,71710856,71715118,71787880,71788734,71791959,71792693	{}
X	79270251	79287273	NM_001109878.2	0.0	+	MANE Select	11600	TBX22	XD/XR	79277768	79286610	79270251,79277766,79278558,79279561,79281101,79282202,79282754,79283489,79285996	79270386,79277943,79278739,79279663,79281276,79282367,79282819,79283575,79287273	{}
X	123095555	123236506	NM_001042750.2	0.0	+	MANE Select	11355	STAG2	XD/XR	123156477	123234447	123095555,123155216,123156380,123159689,123164810,123171376,123176418,123179013,123181203,123182854,123184035,123184970,123185164,123189977,123191715,123195073,123195620,123196751,123196965,123197697,123199725,123200024,123200205,123202413,123204998,123210181,123211806,123215229,123217270,123220396,123224424,123224703,123227867,123229221,123234423	123095706,123155281,123156521,123159768,123164975,123171473,123176495,123179218,123181355,123182928,123184159,123185069,123185244,123190085,123191827,123195191,123195724,123196844,123197055,123197901,123199796,123200112,123200286,123202506,123205173,123210321,123211908,123215378,123217399,123220620,123224614,123224814,123227994,123229299,123236506	{}
X	132669772	133119621	NM_004484.4	0.0	-	MANE Select	4451	GPC3	XD/XR	132670151	133119476	132669772,132730467,132795757,132826396,132833922,132887508,133087076,133119301	132670321,132730627,132795878,132826522,132834056,132888203,133087238,133119621	{}
X	153576898	153603002	NM_001110556.2	0.0	-	MANE Select	3754	FLNA	XD/XR	153577216	153599613	153576898,153577729,153578016,153578398,153579276,153579948,153580251,153580548,153580920,153581139,153581368,153581663,153581921,153582282,153582518,153582748,153582983,153583192,153585618,153585801,153586566,153586812,153587351,153587613,153587851,153588099,153588357,153589675,153590037,153590346,153590609,153590785,153591028,153592389,153592626,153592893,153593188,153593503,153593716,153594391,153594675,153594929,153595099,153595764,153596008,153596209,153599240,153602873	153577404,153577933,153578235,153578575,153579409,153580064,153580389,153580815,153581043,153581292,153581572,153581825,153582095,153582411,153582659,153582851,153583079,153583440,153585642,153585991,153586723,153586936,153587522,153587774,153588014,153588273,153588955,153589938,153590155,153590516,153590700,153590946,153591152,153592533,153592740,153593087,153593325,153593627,153593854,153594592,153594838,153595007,153595218,153595912,153596106,153596458,153599729,153603002	{}
