HGNC id,HGNC symbol
ABCB11,42
ALK,427
APC,583
ATM,795
BAP1,950
BLM,1058
BMPR1A,1076
BRAF,1097
BRCA1,1100
BRCA2,1101
BUB1B,1149
SAMD9,1348
SAMD9L,1349
CBL,1541
CDKN1C,1786
CEBPA,1833
CTLA4,2505
DDB2,2718
DKC1,2890
ERCC1,3433
ERCC2,3434
ERCC3,3435
ERCC4,3436
ERCC5,3437
ERCC6,3438
ERCC8,3439
ETV6,3495
EZH2,3527
FANCA,3582
FANCB,3583
FANCC,3584
FANCD2,3585
FANCE,3586
FANCF,3587
FANCG,3588
FH,3700
GATA1,4170
GATA2,4171
GPC3,4451
HRAS,5173
ELP1,5959
ITK,6171
KRAS,6407
LIG4,6601
LZTR1,6742
MAD2L2,6764
SMAD4,6770
MAP2K1,6840
MAP2K2,6842
MAX,6913
MEN1,7010
MLH1,7127
MRAS,7227
MSH2,7325
MSH6,7329
TRIM37,7523
NBN,7652
NF1,7765
NF2,7773
NRAS,7989
NTRK1,8031
PARN,8609
PAX5,8619
PDGFRA,8803
PDGFRB,8804
PIK3CA,8975
PMS2,9122
PHOX2B,9143
POLH,9181
PPP1CB,9282
PRKAR1A,9388
PTCH1,9585
PTCH2,9586
PTEN,9588
PTPN11,9644
RAD51,9817
RAD51C,9820
RAF1,9829
RASA2,9872
RB1,9884
RECQL4,9949
REST,9966
RET,9967
RIT1,10023
RPL11,10301
RPL15,10306
RPL18,10310
RPL23,10316
RPL26,10327
RPL27,10328
RPL31,10334
RPL35,10344
RPL35A,10345
RPL5,10360
RPL9,10369
RPS10,10383
RPS15,10388
RPS15A,10389
RPS19,10402
RPS24,10411
RPS26,10414
RPS27,10416
RPS27A,10417
RPS28,10418
RPS29,10419
RPS5,10426
RPS7,10440
RRAS,10447
RUNX1,10471
SDHA,10680
SDHB,10681
SDHC,10682
SDHD,10683
SH2D1A,10820
SMARCA4,11100
SMARCB1,11103
SMARCE1,11109
SOS1,11187
SOS2,11188
STK11,11389
EPCAM,11529
TERT,11730
TINF2,11824
FAS,11920
CD27,11922
CD70,11937
TP53,11998
TRIP13,12307
TSC1,12362
TSC2,12363
VHL,12687
WAS,12731
WRN,12791
WT1,12796
XPA,12814
XPC,12816
XRCC2,12829
IKZF1,13176
RPL36,13631
NSD1,14234
NHP2,14377
NOP10,14378
SHOC2,15454
RTEL1,15888
TRIM28,16384
SUFU,16466
CDC73,16783
CTR9,16850
DICER1,17098
RRAS2,17271
DDX41,18674
SBDS,19440
BRIP1,20473
FANCL,20748
FANCM,23168
GPR161,23694
SLX4,23845
UBE2T,25009
ACD,25070
NAF1,25126
TSR2,25455
WRAP53,25522
RFWD3,25539
FANCI,25568
SDHAF2,26034
TMEM127,26038
PALB2,26144
CTC1,26169
FAAP100,26171
DIS3L2,28648
ANKRD26,29186
