# Gene panel: Misdannelser i nyrer og urinveier-v4.0.0 -- Date: 2025-03-03
HGNC id	HGNC symbol	inheritance	phenotype MIM number	phenotype	PMID	inheritance info	comment
10249	ROBO1	AD	620303	Pituitary hormone deficiency, combined or isolated, 8			
10249	ROBO1	AR	257400	?Nystagmus 8, congenital, autosomal recessive			
10249	ROBO1	AR	620305	Neurooculorenal syndrome			
10250	ROBO2	AD	610878	Vesicoureteral reflux 2			
10257	ROR2	AD	113000	Brachydactyly, type B1			
10257	ROR2	AR	268310	Robinow syndrome, autosomal recessive			
10524	SALL1	AD	107480	Townes-Brocks branchiootorenal-like syndrome; Townes-Brocks syndrome 1			
10891	SIX5		610896	Branchiootorenal syndrome 2			
11595	TBX18	AD	143400	Congenital anomalies of kidney and urinary tract 2			
1161	CEP55	AR	236500	Multinucleated neurons, anhydramnios, renal dysplasia, cerebellar hypoplasia, and hydranencephaly			
11630	HNF1B		144700	?Renal cell carcinoma, clear cell; Renal carcinoma, chromophobe, somatic; Renal cell carcinoma; Renal cell carcinoma, clear cell, somatic; Renal cell carcinoma, somatic; {Renal cell carcinoma}			
11630	HNF1B	AD	125853	Diabetes mellitus, noninsulin-dependent; Diabetes mellitus, noninsulin-dependent, late onset; Diabetes mellitus, type 2; Diabetes mellitus, type II; Insulin resistance, severe, digenic; Type 2 diabetes mellitus; {Diabetes mellitus, non-insulin-dependent, susceptibility to}; {Diabetes mellitus, noninsulin-dependent, 2}; {Diabetes mellitus, noninsulin-dependent, association with}; {Diabetes mellitus, noninsulin-dependent, susceptibility to}; {Diabetes mellitus, noninsulin-dependent}; {Diabetes mellitus, type 2, susceptibility to}; {Diabetes mellitus, type II, susceptibility to}; {Diabetes, type 2}; {Hypertension, insulin resistance-related, susceptibility to}; {Insulin resistance, susceptibility to}; {Type 2 diabetes mellitus, susceptibility to}; {Type 2 diabetes mellitus}			
11630	HNF1B	AD	137920	Renal cysts and diabetes syndrome			
11742	TFAP2A	AD	113620	Branchiooculofacial syndrome			
12637	KDM6A	XD/XR	300867	Kabuki syndrome 2			
12874	ZIC3	XD/XR	306955	Congenital heart defects, nonsyndromic, multiple types, 1, X-linked; Heterotaxy, visceral, 1, X-linked			
12874	ZIC3	XD/XR	314390	VACTERL association, X-linked			
12989	ZMYM2	AD	619522	Neurodevelopmental-craniofacial syndrome with variable renal and cardiac abnormalities			
13635	PLVAP	AR	618183	Diarrhea 10, protein-losing enteropathy type			
145	ACTG2	AD	155310	Visceral myopathy 1			
145	ACTG2	AD	619431	Megacystis-microcolon-intestinal hypoperistalsis syndrome 5			
16067	MYOCD	AD	618719	Megabladder, congenital			
16461	WBP11	AD	619227	Vertebral, cardiac, tracheoesophageal, renal, and limb defects			
18374	HPSE2	AR	236730	Urofacial syndrome 1			
18708	GRIP1	AR	617667	Fraser syndrome 3			
19185	FRAS1	AR	219000	Fraser syndrome 1			
1952	CHRM3	AR	100100	Prune belly syndrome			
1957	CHRNA3		612052	{Lung cancer susceptibility 2}; {Nicotine dependence, susceptibility to}			
1957	CHRNA3	AR	191800	Bladder dysfunction, autonomic, with impaired pupillary reflex and secondary CAKUT			
20185	TMEM260	AR	617478	Structural heart defects and renal anomalies syndrome			
20626	CHD7	AD	214800	CHARGE syndrome			
20626	CHD7	AD	612370	Hypogonadotropic hypogonadism 5 with or without anosmia			
20889	LRIG2	AR	615112	Urofacial syndrome 2			
23399	FREM1	AD	614485	Trigonocephaly 2			
23399	FREM1	AR	248450	Manitoba oculotrichoanal syndrome			
23399	FREM1	AR	608980	Bifid nose with or without anorectal and renal anomalies			
25396	FREM2	AR	123570	Cryptophthalmos, unilateral or bilateral, isolated			
25396	FREM2	AR	617666	Fraser syndrome 2			
2707	ACE		612624	{Microvascular complications of diabetes 3}			
2707	ACE		614519	{Hemorrhage, intracerebral, susceptibility to}; {Stroke, hemorrhagic}			
2707	ACE	AR	267430	Renal tubular dysgenesis			
28005	CTU2	AR	618142	Microcephaly, facial dysmorphism, renal agenesis, and ambiguous genitalia syndrome			
28434	CCNQ	XD/XR	300707	STAR syndrome			
2860	DHCR7	AR	270400	Smith-Lemli-Opitz syndrome			
28862	NIPBL	AD	122470	Cornelia de Lange syndrome 1			
29043	DSTYK	AD	610805	Congenital anomalies of kidney and urinary tract 1			
29043	DSTYK	AR	270750	Spastic paraplegia 23, autosomal recessive			
29832	NADSYN1	AR	618845	Vertebral, cardiac, renal, and limb defects syndrome 3			
30650	STRA6	AR	601186	Microphthalmia, isolated, with coloboma 8; Microphthalmia, syndromic 9			
30988	BNC2	AD	618612	Lower urinary tract obstruction, congenital			
31042	GREB1L	AD	617805	Renal hypodysplasia/aplasia 3			
31042	GREB1L	AD	619274	Deafness, autosomal dominant 80			
333	AGT	AR	267430	Renal tubular dysgenesis			
336	AGTR1		145500	Hypertension, essential; [Blood pressure regulation QTL]; {Hypertension, essential, salt-sensitive}; {Hypertension, essential, susceptibility to}; {Hypertension, essential}; {Hypertension, salt-sensitive essential, susceptibility to}; {Hypertension, susceptibility to}			
336	AGTR1	AR	267430	Renal tubular dysgenesis			
3519	EYA1	AD	113650	Branchiootorenal syndrome 1, with or without cataracts			
3519	EYA1	AD	166780	?Otofaciocervical syndrome			
3519	EYA1	AD	602588	Anterior segment anomalies with or without cataract; Branchiootic syndrome 1			
4172	GATA3	AD	146255	Hypoparathyroidism, sensorineural deafness, and renal dysplasia			
4319	GLI3	AD	146510	Pallister-Hall syndrome			
4319	GLI3	AD	174200	Polydactyly, postaxial, types A1 and B			
4319	GLI3	AD	174700	Polydactyly, preaxial, type IV			
4319	GLI3	AD	175700	Greig cephalopolysyndactyly syndrome			
4451	GPC3		194070	Wilms tumor; Wilms tumor, somatic; Wilms tumor, type 1			
4451	GPC3	XD/XR	312870	Simpson-Golabi-Behmel syndrome, type 1			
4796	HAAO	AR	617660	Vertebral, cardiac, renal, and limb defects syndrome 1			
5102	HOXA13	AD	140000	Hand-foot-genital syndrome			
5102	HOXA13	AD	176305	?Guttmacher syndrome			
6144	ITGA8	AR	191830	Renal hypodysplasia/aplasia 1			
6188	JAG1	AD	118450	Alagille syndrome 1			
6188	JAG1	AD	187500	Tetralogy of Fallot			
6188	JAG1	AD	617992	?Deafness, congenital heart defects, and posterior embryotoxon			
6188	JAG1	AD	619574	Charcot-Marie-Tooth disease, axonal, type 2HH			
6211	ANOS1	XD/XR	308700	Hypogonadotropic hypogonadism 1 with or without anosmia (Kallmann syndrome 1)			
6469	KYNU	AR	236800	?Hydroxykynureninuria			
6469	KYNU	AR	617661	Vertebral, cardiac, renal, and limb defects syndrome 2			
6597	LIFR	AR	601559	Stuve-Wiedemann syndrome/Schwartz-Jampel type 2 syndrome			
6696	LRP4	AD/AR	614305	Sclerosteosis 2			
6696	LRP4	AR	212780	Cenani-Lenz syndactyly syndrome			
6696	LRP4	AR	616304	?Myasthenic syndrome, congenital, 17			
7133	KMT2D	AD	147920	Kabuki syndrome 1			
7133	KMT2D	AD	620186	Branchial arch abnormalities, choanal atresia, athelia, hearing loss, and hypothyroidism syndrome			
7882	NOTCH2	AD	102500	Hajdu-Cheney syndrome			
7882	NOTCH2	AD	610205	Alagille syndrome 2			
7907	NPHP3	AR	208540	Renal-hepatic-pancreatic dysplasia 1			
7907	NPHP3	AR	267010	Meckel syndrome 7			
7907	NPHP3	AR	604387	Nephronophthisis 3			
8616	PAX2	AD	120330	Papillorenal syndrome			
8616	PAX2	AD	616002	Glomerulosclerosis, focal segmental, 7			
8632	PBX1	AD	617641	Congenital anomalies of kidney and urinary tract syndrome with or without hearing loss, abnormal ears, or developmental delay			
9958	REN	AD	613092	Tubulointerstitial kidney disease, autosomal dominant, 4			
9958	REN	AR	267430	Renal tubular dysgenesis			
9967	RET	AD	142623	{Hirschsprung disease, protection against}; {Hirschsprung disease, susceptibility to, 1}			
9967	RET	AD	155240	Medullary thyroid carcinoma			
9967	RET	AD	162300	Multiple endocrine neoplasia IIB			
9967	RET	AD	171300	Pheochromocytoma; {Pheochromocytoma, susceptibility to}			
9967	RET	AD	171400	Multiple endocrine neoplasia IIA			
