# Gene panel: Primær immunsvikt-v3.0.0 -- Date: 2025-03-03
HGNC id	HGNC symbol	inheritance	phenotype MIM number	phenotype	PMID	inheritance info	comment
10019	RIPK1	AD	618852	Autoinflammation with episodic fever and lymphadenopathy			
10019	RIPK1	AR	618108	Immunodeficiency 57 with autoinflammation			
10031	RMRP	AR	250250	Cartilage-hair hypoplasia			
10031	RMRP	AR	250460	Metaphyseal dysplasia without hypotrichosis			
10031	RMRP	AR	607095	Anauxetic dysplasia 1			
10260	RORC	AR	616622	Immunodeficiency 42			
1058	BLM	AR	210900	Bloom syndrome			
10817	SGPL1	AR	617575	RENI syndrome			
10820	SH2D1A	XD/XR	308240	Lymphoproliferative syndrome, X-linked, 1			
10825	SH3BP2	AD	118400	Cherubism			
10898	SKIC2	AR	614602	Trichohepatoenteric syndrome 2			
10955	SLCO2A1	AD	167100	Hypertrophic osteoarthropathy, primary, autosomal dominant			
10955	SLCO2A1	AR	614441	PHOAR2-enteropathy syndrome			
11065	SLC7A7	AR	222700	Lysinuric protein intolerance			
11102	SMARCAL1	AR	242900	Schimke immunoosseous dysplasia			
11107	SMARCD2	AR	617475	Specific granule deficiency 2			
11241	SPI1	AD	619707	Agammaglobulinemia 10, autosomal dominant			
11301	SRP54	AD	618752	Neutropenia, severe congenital, 8, autosomal dominant			
1133	BTK	XD/XR	300755	Agammaglobulinemia, X-linked 1			
1133	BTK	XD/XR	307200	Isolated growth hormone deficiency, type III, with agammaglobulinemia			
11362	STAT1	AD	614162	Immunodeficiency 31C, chronic mucocutaneous candidiasis, autosomal dominant			
11362	STAT1	AD	614892	Immunodeficiency 31A, mycobacteriosis, autosomal dominant			
11362	STAT1	AR	613796	Immunodeficiency 31B, mycobacterial and viral infections, autosomal recessive			
11363	STAT2	AR	616636	Immunodeficiency 44			
11363	STAT2	AR	618886	Pseudo-TORCH syndrome 3			
11364	STAT3	AD	147060	Hyper-IgE syndrome 1, autosomal dominant, with recurrent infections			
11364	STAT3	AD	615952	Autoimmune disease, multisystem, infantile-onset, 1			
11365	STAT4		612253	{Systemic lupus erythematosus, susceptibility to, 11}			
11365	STAT4	AD	620443	Disabling pansclerotic morphea of childhood			
11367	STAT5B	AD	618985	Growth hormone insensitivity with immune dysregulation 2, autosomal dominant			
11367	STAT5B	AR	245590	Growth hormone insensitivity with immune dysregulation 1, autosomal recessive			
11368	STAT6	AD	620532	Hyper-IgE syndrome 6, autosomal dominant, with recurrent infections			
11386	STIM1	AD	160565	Myopathy, tubular aggregate, 1			
11386	STIM1	AD	185070	Stormorken syndrome			
11386	STIM1	AR	612783	Immunodeficiency 10			
11408	STK4	AR	614868	T-cell immunodeficiency, recurrent infections, autoimmunity, and cardiac malformations			
11429	STX11	AR	603552	Hemophagocytic lymphohistiocytosis, familial, 4			
11445	STXBP2	AR	613101	Hemophagocytic lymphohistiocytosis, familial, 5, with or without microvillus inclusion disease			
11491	SYK	AD	619381	Immunodeficiency 82 with systemic inflammation			
11577	TAFAZZIN	XD/XR	302060	Barth syndrome			
11584	TBK1	AD	616439	Frontotemporal dementia and/or amyotrophic lateral sclerosis 4			
11584	TBK1	AD	617900	{Encephalopathy, acute, infection-induced (herpes-specific), susceptibility to, 8}			
11584	TBK1	AR	620880	Autoinflammation with arthritis and vasculitis			
11592	TBX1		217095	Conotruncal anomaly face syndrome; Conotruncal heart malformations; Conotruncal heart malformations, variable; Persistent truncus arteriosus			
11592	TBX1	AD	187500	Tetralogy of Fallot			
11592	TBX1	AD	188400	DiGeorge syndrome			
11592	TBX1	AD	192430	Velocardiofacial syndrome			
11633	TCF3	AD	616941	Agammaglobulinemia 8A, autosomal dominant			
11633	TCF3	AR	619824	Agammaglobulinemia 8B, autosomal recessive			
11653	TCN2	AR	275350	Transcobalamin II deficiency			
11763	TFRC	AR	616740	Immunodeficiency 46			
11766	TGFB1	AD	131300	Camurati-Engelmann disease			
11766	TGFB1	AR	219700	Cystic fibrosis; {Cystic fibrosis lung disease, modifier of}; {Pseudomonas aeruginosa, susceptibility to chronic infection by, in cystic fibrosis}			
11766	TGFB1	AR	618213	Inflammatory bowel disease, immunodeficiency, and encephalopathy			
11772	TGFBR1	AD	132800	{Multiple self-healing squamous epithelioma, susceptibility to}			
11772	TGFBR1	AD	609192	Loeys-Dietz syndrome 1			
11773	TGFBR2		133239	Esophageal cancer, somatic; Esophageal carcinoma, somatic; Esophageal squamous cell carcinoma, somatic			
11773	TGFBR2		614331	Colorectal cancer, hereditary nonpolyposis, type 6			
11773	TGFBR2	AD	610168	Loeys-Dietz syndrome 2			
11849	TLR3		609423	{AIDS, rapid progression to}; {AIDS, resistance to}; {AIDS, slow progression to}; {HIV infection, resistance to}; {HIV infection, susceptibility/resistance to}; {HIV type 1, susceptibility to}; {HIV-1 disease, delayed progression of}; {HIV-1 disease, rapid progression of}; {HIV-1 viremia, susceptibility to}; {HIV-1, resistance to}; {HIV-1, susceptibility to}; {HIV/AIDS, susceptibility to}; {HIV1 infection, resistance to}; {HIV1, resistance to}; {Rapid progression to AIDS from HIV1 infection}			
11849	TLR3	AD/AR	613002	{Immunodeficiency 83, susceptibility to viral infections}			
11896	TNFAIP3	AD	616744	Autoinflammatory syndrome, familial, Behcet-like 1			
11916	TNFRSF1A		614810	{Multiple sclerosis, susceptibility to, 5}			
11916	TNFRSF1A	AD	142680	Periodic fever, familial			
11919	CD40	AR	606843	Immunodeficiency with hyper-IgM, type 3			
11920	FAS	AD	601859	Autoimmune lymphoproliferative syndrome, type IA; Autoimmune lymphoproliferative syndrome, type IB; {Autoimmune lymphoproliferative syndrome}			
11922	CD27	AR	615122	Lymphoproliferative syndrome 2			
11924	TNFRSF9	AR	620282	Immunodeficiency 109 with lymphoproliferation			
11935	CD40LG	XD/XR	308230	Immunodeficiency, X-linked, with hyper-IgM			
11936	FASLG	AD	211980	Adenocarcinoma of lung, response to tyrosine kinase inhibitor in; Adenocarcinoma of lung, somatic; Lung cancer, somatic; Nonsmall cell lung cancer, response to tyrosine kinase inhibitor in; Nonsmall cell lung cancer, somatic; {Lung cancer, protection against}; {Lung cancer, resistance to}; {Lung cancer, susceptibility to}; {Nonsmall cell lung cancer, susceptibility to}			
11936	FASLG	AD	601859	Autoimmune lymphoproliferative syndrome, type IA; Autoimmune lymphoproliferative syndrome, type IB; {Autoimmune lymphoproliferative syndrome}			
11937	CD70	AR	618261	Lymphoproliferative syndrome 3			
11990	TOP2B	AD	609296	B-cell immunodeficiency, distal limb anomalies, and urogenital malformations			
12016	TPP2	AR	619220	Immunodeficiency 78 with autoimmunity and developmental delay			
12269	TREX1	AD	152700	{Lupus nephritis, susceptibility to}; {Systemic lupus erythematosus susceptibility to}; {Systemic lupus erythematosus, susceptibility to}			
12269	TREX1	AD	192315	Vasculopathy, retinal, with cerebral leukoencephalopathy and systemic manifestations			
12269	TREX1	AD	610448	Chilblain lupus			
12269	TREX1	AD/AR	225750	Aicardi-Goutieres syndrome 1, dominant and recessive			
1228	SERPING1	AD	120790	Complement component 4, partial deficiency of			
1228	SERPING1	AD/AR	106100	Angioedema, hereditary, 1 and 2			
124	ACP5	AR	607944	Spondyloenchondrodysplasia with immune dysregulation			
12405	TTR	AD	105210	Amyloidosis, hereditary, transthyretin-related			
12405	TTR	AD	115430	Carpal tunnel syndrome, familial			
12405	TTR	AD	145680	[Dystransthyretinemic hyperthyroxinemia]			
1241	C1QA	AR	613652	C1q deficiency 1			
1242	C1QB	AR	620321	C1q deficiency 2			
12440	TYK2	AR	611521	Immunodeficiency 35			
1245	C1QC	AR	620322	C1q deficiency 3			
1246	C1R	AD	130080	Ehlers-Danlos syndrome, periodontal type, 1			
12469	UBA1		301054	VEXAS syndrome, somatic			
12469	UBA1	XD/XR	301830	Spinal muscular atrophy, X-linked 2, infantile			
1247	C1S		613783	C1s deficiency			
1247	C1S	AD	617174	Ehlers-Danlos syndrome, periodontal type, 2			
1248	C2	AD	615489	{Macular degeneration, age-related, 14, reduced risk of}			
1248	C2	AR	217000	C2 deficiency			
12572	UNG	AR	608106	Immunodeficiency with hyper IgM, type 5			
12616	USP18	AR	617397	Pseudo-TORCH syndrome 2			
12637	KDM6A	XD/XR	300867	Kabuki syndrome 2			
12731	WAS	XD/XR	300299	Neutropenia, severe congenital, X-linked			
12731	WAS	XD/XR	301000	Wiskott-Aldrich syndrome			
12731	WAS	XD/XR	313900	Thrombocytopenia, X-linked; Thrombocytopenia, X-linked, intermittent			
12736	WIPF1	AR	614493	Wiskott-Aldrich syndrome 2			
12754	WDR1	AR	150550	Periodic fever, immunodeficiency, and thrombocytopenia syndrome			
12765	FOXN1	AD	618806	T-cell lymphopenia, infantile, with or without nail dystrophy, autosomal dominant			
12765	FOXN1	AR	601705	T-cell immunodeficiency, congenital alopecia, and nail dystrophy			
12858	ZAP70	AR	269840	Immunodeficiency 48			
12858	ZAP70	AR	617006	Autoimmune disease, multisystem, infantile-onset, 2			
13176	IKZF1	AD	616873	Immunodeficiency, common variable, 13			
13178	IKZF3	AD	619437	?Immunodeficiency 84			
1318	C3		611378	{Macular degeneration, age-related, 9}			
1318	C3	AD	612925	{Hemolytic uremic syndrome, atypical, susceptibility to, 5}			
1318	C3	AR	613779	C3 deficiency			
13203	AICDA	AR	605258	Immunodeficiency with hyper-IgM, type 2			
1331	C5	AD	615749	[Eculizumab, poor response to]			
1331	C5	AR	609536	C5 deficiency			
1339	C6	AR	612446	C6 deficiency			
1343	TRAF3IP2		614070	{Psoriasis susceptibility 13}			
1343	TRAF3IP2	AR	615527	?Candidiasis, familial, 8			
1346	C7		610102	C7 deficiency			
13481	UNC93B1	AR	610551	{Encephalopathy, acute, infection-induced (herpes-specific), susceptibility to, 1}			
1349	SAMD9L	AD	159550	Ataxia-pancytopenia syndrome			
1349	SAMD9L	AD	252270	Monosomy 7 myelodysplasia and leukemia syndrome 1			
1349	SAMD9L	AD	619806	?Spinocerebellar ataxia 49			
1352	C8A	AR	613790	C8 deficiency, type I			
1353	C8B	AR	613789	C8 deficiency, type II			
1358	C9		613825	C9 deficiency			
1358	C9	AD	615591	{Macular degeneration, age-related, 15, susceptibility to}			
13890	ITCH	AR	613385	Autoimmune disease, multisystem, with facial dysmorphism			
14078	BACH2	AD	618394	Immunodeficiency 60 and autoimmunity			
14211	BLNK	AR	613502	?Agammaglobulinemia 4			
14348	HTRA2		610297	{Parkinson disease 13}			
14348	HTRA2	AR	617248	3-methylglutaconic aciduria, type VIII			
14374	NLRP1		606579	{Vitiligo-associated multiple autoimmune disease susceptibility 1}			
14374	NLRP1	AD	615225	Palmoplantar carcinoma, multiple self-healing			
14374	NLRP1	AD/AR	617388	Autoinflammation with arthritis and dyskeratosis			
14374	NLRP1	AR	618803	?Respiratory papillomatosis, juvenile recurrent, congenital			
14377	NHP2	AR	613987	Dyskeratosis congenita, autosomal recessive 2			
14450	LPIN2		609628	Majeed syndrome			
14579	VPS45	AR	615285	Neutropenia, severe congenital, 5, autosomal recessive			
14628	CDCA7	AR	616910	Immunodeficiency-centromeric instability-facial anomalies syndrome 3			
1500	CASP10		605027	Lymphoma, non-Hodgkin; Lymphoma, non-Hodgkin, somatic; {Lymphoma, follicular, somatic}			
1500	CASP10		613659	Gastric cancer, somatic; {Gastric cancer risk after H. pylori infection}			
1500	CASP10	AD	603909	Autoimmune lymphoproliferative syndrome, type II			
1509	CASP8		114550	Hepatoblastoma, somatic; Hepatocellular cancer, somatic; Hepatocellular carcinoma, childhood type, somatic; Hepatocellular carcinoma, somatic			
1509	CASP8	AD	114480	Breast cancer, lobular, somatic; Breast cancer, somatic; {?Breast cancer susceptibility}; {Breast cancer, early-onset, susceptibility to}; {Breast cancer, invasive ductal}; {Breast cancer, male, susceptibility to}; {Breast cancer, protection against}; {Breast cancer, susceptibility to}			
1509	CASP8	AD	211980	Adenocarcinoma of lung, response to tyrosine kinase inhibitor in; Adenocarcinoma of lung, somatic; Lung cancer, somatic; Nonsmall cell lung cancer, response to tyrosine kinase inhibitor in; Nonsmall cell lung cancer, somatic; {Lung cancer, protection against}; {Lung cancer, resistance to}; {Lung cancer, susceptibility to}; {Nonsmall cell lung cancer, susceptibility to}			
1509	CASP8	AR	607271	?Caspase 8 lymphadenopathy syndrome			
1542	CBLB	AR	620430	Autoimmune disease, multisystem, infantile-onset, 3			
15464	SPINK5	AR	256500	Netherton syndrome			
15561	IL36RN	AR	614204	Psoriasis 14, pustular			
15594	DBR1	AR	619441	{Encephalitis, acute, infection (viral)-induced, susceptibility to, 11}			
15594	DBR1	AR	620510	Xerosis and growth failure with immune and pulmonary dysfunction syndrome			
15631	TLR7	XD/XR	301051	Immunodeficiency 74, COVID19-related, X-linked			
15631	TLR7	XD/XR	301080	Systemic lupus erythematosus 17			
15632	TLR8	XD/XR	301078	Immunodeficiency 98 with autoinflammation, X-linked			
15844	HPS4	AR	614073	Hermansky-Pudlak syndrome 4			
15864	RBCK1	AR	615895	Polyglucosan body myopathy 1 with or without immunodeficiency			
15888	RTEL1	AD	616373	Pulmonary fibrosis and/or bone marrow failure syndrome, telomere-related, 3			
15888	RTEL1	AD/AR	615190	Dyskeratosis congenita, autosomal dominant 4; Dyskeratosis congenita, autosomal recessive 5			
15889	FERMT1	AR	173650	Kindler syndrome			
15925	SAMHD1	AD	614415	?Chilblain lupus 2			
15925	SAMHD1	AR	612952	Aicardi-Goutieres syndrome 5			
15975	SASH3	XD/XR	301082	Immunodeficiency 102			
15992	ZNF341	AR	618282	Hyper-IgE syndrome 3, autosomal recessive, with recurrent infections			
1633	CD19	AR	613493	Immunodeficiency, common variable, 3			
16391	CARD9	AR	212050	Immunodeficiency 103, susceptibility to fungal infection			
16393	CARD11	AD	616452	B-cell expansion with NFKB and T-cell anergy			
16393	CARD11	AD	617638	Immunodeficiency 11B with atopic dermatitis			
16393	CARD11	AR	615206	Immunodeficiency 11A			
16400	NLRP3	AD	120100	Familial cold inflammatory syndrome 1			
16400	NLRP3	AD	148200	Keratoendothelitis fugax hereditaria			
16400	NLRP3	AD	191900	Muckle-Wells syndrome			
16400	NLRP3	AD	607115	CINCA syndrome			
16400	NLRP3	AD	617772	Deafness, autosomal dominant 34, with or without inflammation			
16412	NLRC4	AD	616050	Autoinflammation with infantile enterocolitis			
16412	NLRC4	AD	616115	?Familial cold autoinflammatory syndrome 4			
16446	CARD14	AD	173200	Pityriasis rubra pilaris			
16446	CARD14	AD	602723	Psoriasis 2			
1673	CD3D	AR	615617	Immunodeficiency 19, severe combined			
1674	CD3E	AR	615615	Immunodeficiency 18; Immunodeficiency 18, SCID variant			
1675	CD3G	AR	615607	Immunodeficiency 17, CD3 gamma deficient			
1677	CD247	AR	610163	?Immunodeficiency 25			
1678	CD4		613949	OKT4 epitope deficiency			
1678	CD4	AR	619238	Immunodeficiency 79			
1689	CD59	AR	612300	Hemolytic anemia, CD59-mediated, with or without immune-mediated polyneuropathy			
16915	HAX1	AR	610738	Neutropenia, severe congenital 3, autosomal recessive			
16920	CIB1	AR	618267	{Epidermodysplasia verruciformis, susceptibility to, 3}			
16931	HYOU1	AR	233600	?Immunodeficiency 59 and hypoglycemia			
1698	CD79A	AR	613501	Agammaglobulinemia 3			
1699	CD79B	AR	612692	Agammaglobulinemia 6			
1701	CD81	AR	613496	Immunodeficiency, common variable, 6			
17341	TRNT1	AR	616084	Sideroblastic anemia with B-cell immunodeficiency, periodic fevers, and developmental delay			
17341	TRNT1	AR	616959	Retinitis pigmentosa and erythrocytic microcytosis			
1736	CDC42	AD	616737	Takenouchi-Kosaki syndrome			
1742	LRBA	AR	614700	Immunodeficiency, common variable, 8, with autoimmunity			
17642	DCLRE1C	AR	602450	Severe combined immunodeficiency, Athabascan type			
17642	DCLRE1C	AR	603554	Omenn syndrome			
17967	IRAK4	AR	607676	Immunodeficiency 67			
18021	TMC6	AR	226400	{Epidermodysplasia verruciformis, susceptibility to, 1}			
18276	SEC61A1	AD	617056	Tubulointerstitial kidney disease, autosomal dominant, 5			
18276	SEC61A1	AD	620670	Immunodeficiency, common variable, 15			
18276	SEC61A1	AD	620674	?Neutropenia, severe congenital, 11, autosomal dominant			
18348	TICAM1	AD/AR	614850	{Encephalopathy, acute, infection-induced (herpes-specific), susceptibility to, 6}			
18358	IL17RC	AR	616445	Candidiasis, familial, 9			
1836	CEBPE	AD/AR	245480	Specific granule deficiency			
1836	CEBPE	AR	260570	?Immunodeficiency 108 with autoinflammation			
1839	ADA2	AR	182410	Sneddon syndrome			
1839	ADA2	AR	615688	Vasculitis, autoinflammation, immunodeficiency, and hematologic defects syndrome			
18437	HAVCR2	AR	618398	T-cell lymphoma, subcutaneous panniculitis-like			
18518	RNASEH2A	AR	610333	Aicardi-Goutieres syndrome 4			
186	ADA	AR	102700	Adenosine deaminase deficiency, partial; Severe combined immunodeficiency due to ADA deficiency			
18817	HPS6	AR	614075	Hermansky-Pudlak syndrome 6			
18873	IFIH1	AD	182250	Singleton-Merten syndrome 1			
18873	IFIH1	AD	615846	Aicardi-Goutieres syndrome 7			
18873	IFIH1	AR	619773	Immunodeficiency 95			
18874	LAT	AR	617514	Immunodeficiency 52			
19100	IL23R		605606	{Psoriasis, protection against}			
19100	IL23R		612261	{Inflammatory bowel disease 17, protection against}			
19191	DOCK8	AR	243700	Hyper-IgE syndrome 2, autosomal recessive, with recurrent infections			
19383	SOCS1	AD	619375	Autoinflammatory syndrome, familial, with or without immunodeficiency			
19440	SBDS		609135	Aplastic anemia; {Aplastic anemia, susceptibility to}; {Aplastic anemia}			
19440	SBDS	AR	260400	Shwachman-Diamond syndrome 1			
195	ADAM17	AR	614328	?Inflammatory skin and bowel disease, neonatal, 1			
1968	LYST	AR	214500	Chediak-Higashi syndrome			
19750	TTC7A	AR	243150	Gastrointestinal defects and immunodeficiency syndrome			
20197	SLC35C1	AR	266265	Congenital disorder of glycosylation, type IIc			
20330	POMP	AD	618048	Proteasome-associated autoinflammatory syndrome 2			
20330	POMP	AR	601952	Keratosis linearis with ichthyosis congenita and sclerosing keratoderma			
20474	TMC8	AR	618231	{Epidermodysplasia verruciformis, susceptibility to, 2}			
20626	CHD7	AD	214800	CHARGE syndrome			
20626	CHD7	AD	612370	Hypogonadotropic hypogonadism 5 with or without anosmia			
20917	ALPK1	AD	614979	ROSAH syndrome			
21143	ZBTB24	AR	614069	Immunodeficiency-centromeric instability-facial anomalies syndrome 2			
21290	PTCRA	AR	620931	Immunodeficiency 126			
21729	IRF2BP2	AD	617765	?Immunodeficiency, common variable, 14			
2183	VPS13B	AR	216550	Cohen syndrome			
2214	COL7A1	AD	131750	Epidermolysis bullosa dystrophica, autosomal dominant			
2214	COL7A1	AD	132000	Epidermolysis bullosa dystrophica, Bart type			
2214	COL7A1	AD	607523	Nail disorder, nonsyndromic congenital, 8			
2214	COL7A1	AD/AR	131705	Transient bullous of the newborn			
2214	COL7A1	AD/AR	131850	Epidermolysis bullosa, pretibial			
2214	COL7A1	AD/AR	604129	Epidermolysis bullosa pruriginosa			
2214	COL7A1	AR	226600	Epidermolysis bullosa dystrophica inversa; Epidermolysis bullosa dystrophica, autosomal recessive; Epidermolysis bullosa dystrophica, localisata variant			
2230	COPA	AD	616414	{Autoinflammation and autoimmunity, systemic, with immune dysregulation}			
225	ADAR	AD	127400	Dyschromatosis symmetrica hereditaria			
225	ADAR	AR	615010	Aicardi-Goutieres syndrome 6			
2252	CORO1A	AR	615401	Immunodeficiency 8			
22938	NLRP12	AD	611762	Familial cold autoinflammatory syndrome 2			
23096	SLC29A3	AR	602782	Histiocytosis-lymphadenopathy plus syndrome			
23109	FAT4	AR	615546	Van Maldergem syndrome 2			
23109	FAT4	AR	616006	Hennekam lymphangiectasia-lymphedema syndrome 2			
23147	UNC13D	AR	608898	Hemophagocytic lymphohistiocytosis, familial, 3			
23151	FERMT3	AR	612840	Leukocyte adhesion deficiency, type III			
23357	MCTS1	XD/XR	301115	Immunodeficiency 118, mycobacteriosis			
2336	CR2		610927	{Systemic lupus erythematosus, susceptibility to, 9}			
2336	CR2	AR	614699	?Immunodeficiency, common variable, 7			
23483	DOCK11	XD/XR	301109	Autoinflammatory disease, multisystem, with immune dysregulation, X-linked			
23639	SKIC3	AR	222470	Trichohepatoenteric syndrome 1			
24116	RNASEH2C	AR	610329	Aicardi-Goutieres syndrome 3			
2436	CSF2RB	AR	614370	Surfactant metabolism dysfunction, pulmonary, 5			
2439	CSF3R	AD	162830	?Neutrophilia, hereditary			
2439	CSF3R	AR	617014	Neutropenia, severe congenital, 7, autosomal recessive			
24861	G6PC3	AR	612541	Dursun syndrome; Neutropenia, severe congenital 4, autosomal recessive			
24862	MOGS	AR	606056	Congenital disorder of glycosylation, type IIb			
2505	CTLA4		601388	{Diabetes mellitus, insulin-dependent, 12}			
2505	CTLA4		609755	{Celiac disease, susceptibility to, 3}			
2505	CTLA4	AD	140300	{Hashimoto thyroiditis}			
2505	CTLA4	AD	152700	{Lupus nephritis, susceptibility to}; {Systemic lupus erythematosus susceptibility to}; {Systemic lupus erythematosus, susceptibility to}			
2505	CTLA4	AD	616100	Immune dysregulation with autoimmunity, immunodeficiency, and lymphoproliferation			
25070	ACD	AD/AR	616553	?Dyskeratosis congenita, autosomal dominant 6; ?Dyskeratosis congenita, autosomal recessive 7			
25118	OTULIN	AD	619986	{Immunodeficiency 107, susceptibility to invasive staphylococcus aureus infection}			
25118	OTULIN	AD	621030	Autoinflammation, panniculitis, and dermatosis syndrome, autosomal dominant			
25118	OTULIN	AR	617099	Autoinflammation, panniculitis, and dermatosis syndrome, autosomal recessive			
2519	CTPS1	AR	615897	Immunodeficiency 24			
2528	CTSC	AR	170650	Periodontitis 1, juvenile			
2528	CTSC	AR	245000	Papillon-Lefevre syndrome			
2528	CTSC	AR	245010	Haim-Munk syndrome			
2561	CXCR4	AD	193670	Myelokathexis, isolated; WHIM syndrome 1			
25671	RNASEH2B	AR	610181	Aicardi-Goutieres syndrome 2			
25737	NHEJ1	AR	611291	Immunodeficiency 124, severe combined			
25737	NHEJ1	AR	620968	Microphthalmia/coloboma 13			
2577	CYBA	AR	233690	Chronic granulomatous disease 4, autosomal recessive			
2578	CYBB	XD/XR	300645	Immunodeficiency 34, mycobacteriosis, X-linked			
2578	CYBB	XD/XR	306400	Chronic granulomatous disease, X-linked			
25789	EFL1	AR	617941	Shwachman-Diamond syndrome 2			
25792	USB1	AR	604173	Poikiloderma with neutropenia			
25896	ORAI1	AD	615883	Myopathy, tubular aggregate, 2			
25896	ORAI1	AR	612782	Immunodeficiency 9			
2665	CD55	AR	226300	Complement hyperactivation, angiopathic thrombosis, and protein-losing enteropathy			
2665	CD55	AR	613793	[Blood group Cromer]			
26661	RNF168	AR	611943	RIDDLE syndrome			
26789	LACC1	AR	618795	Juvenile arthritis			
26799	C2orf69	AR	619423	Combined oxidative phosphorylation deficiency 53			
26922	ERCC6L2	AR	615715	Bone marrow failure syndrome 2			
26926	JAGN1	AR	616022	Neutropenia, severe congenital, 6, autosomal recessive			
27030	DNAJC21	AR	617052	Bone marrow failure syndrome 3			
27089	CARMIL2	AR	618131	Immunodeficiency 58			
2760	DEF6	AR	619573	Immunodeficiency 87 and autoimmunity			
2771	CFD	AR	613912	Complement factor D deficiency			
27962	STING1	AD	615934	STING-associated vasculopathy, infantile-onset			
28672	CYBC1	AR	618935	Chronic granulomatous disease 5, autosomal recessive			
2876	DIAPH1	AD	124900	Deafness, autosomal dominant 1, with or without thrombocytopenia			
2876	DIAPH1	AR	616632	Seizures, cortical blindness, microcephaly syndrome			
28880	MAGT1	XD/XR	300853	Immunodeficiency, X-linked, with magnesium defect, Epstein-Barr virus infection and neoplasia			
28880	MAGT1	XD/XR	301031	Congenital disorder of glycosylation, type Icc			
2890	DKC1	XD/XR	301108	?Cataracts, hearing impairment, nephrotic syndrome, and enterocolitis 1			
2890	DKC1	XD/XR	305000	Dyskeratosis congenita, X-linked			
28980	GINS1	AR	617827	Immunodeficiency 55			
29002	FCHO1	AR	619164	Immunodeficiency 76			
29271	ZNFX1	AR	619644	Immunodeficiency 91 and hyperinflammation			
29331	EPG5	AR	242840	Vici syndrome			
29401	MYSM1	AR	618116	Bone marrow failure syndrome 4			
29418	FNIP1	AR	619705	Immunodeficiency 93 and hypertrophic cardiomyopathy			
29426	CCBE1	AR	235510	Hennekam lymphangiectasia-lymphedema syndrome 1			
2959	DNASE1L3	AR	614420	Systemic lupus erythematosus 16			
2960	DNASE2	AR	619858	Autoinflammatory-pancytopenia syndrome			
29619	MPEG1	AD	619223	Immunodeficiency 77			
2979	DNMT3B	AD	619478	Facioscapulohumeral muscular dystrophy 4, digenic			
2979	DNMT3B	AR	242860	Immunodeficiency-centromeric instability-facial anomalies syndrome 1			
29796	LAMTOR2	AR	610798	Immunodeficiency due to defect in MAPBP-interacting protein			
2988	DOCK2	AR	616433	Immunodeficiency 40			
30227	SPPL2A	AR	619549	Immunodeficiency 86, mycobacteriosis			
30521	SLC46A1	AR	229050	Folate malabsorption, hereditary			
30664	CLPB	AD	619813	Neutropenia, severe congenital, 9, autosomal dominant			
30664	CLPB	AD	619835	3-methylglutaconic aciduria, type VIIA, autosomal dominant			
30664	CLPB	AR	616271	3-methylglutaconic aciduria, type VIIB, autosomal recessive			
3078	DUT	AR	620044	Bone marrow failure and diabetes mellitus syndrome			
32621	SNORA31	AD	619396	{Encephalopathy, acute, infection-induced (herpes-specific), susceptibility to, 10}			
328	AGR2	AR	620233	Respiratory infections, recurrent, and failure to thrive with or without diarrhea			
3309	ELANE	AD	162800	Neutropenia, cyclic			
3309	ELANE	AD	202700	Neutropenia, severe congenital 1, autosomal dominant			
3319	ELF4	XD/XR	301074	Autoinflammatory syndrome, familial, X-linked, Behcet-like 2			
34033	RNU7-1	AR	619487	Aicardi-Goutieres syndrome 9			
3498	MECOM	AD	616738	Radioulnar synostosis with amegakaryocytic thrombocytopenia 2			
3518	EXTL3	AR	617425	Immunoskeletal dysplasia with neurodevelopmental abnormalities			
3530	F12	AD	610618	Angioedema, hereditary, 3			
3530	F12	AR	234000	Factor XII deficiency			
3573	FADD	AR	613759	Immunodeficiency 90 with encephalopathy, functional hyposplenia, and hepatic dysfunction			
360	AIRE	AD/AR	240300	Autoimmune polyendocrinopathy syndrome , type I, with or without reversible metaphyseal dysplasia			
362	AK2	AR	267500	Reticular dysgenesis			
3661	FGA	AD	105200	Amyloidosis, hereditary systemic 2			
3661	FGA	AD	616004	Dysfibrinogenemia, congenital; Hypodysfibrinogenemia; Hypodysfibrinogenemia, congenital			
3661	FGA	AR	202400	Afibrinogenemia, congenital; Hypofibrinogenemia, congenital			
4053	ISG15	AR	616126	Immunodeficiency 38			
4057	G6PD		611162	{Malaria, cerebral, reduced risk of}; {Malaria, cerebral, susceptibility to}; {Malaria, protection against}; {Malaria, resistance to}; {Malaria, severe, resistance to}; {Malaria, severe, susceptibility to}; {Malaria, susceptibility to}; {Malaria, vivax, protection against}; {Resistance to malaria due to G6PD deficiency}			
4057	G6PD	XD/XR	300908	Anemia, congenital, nonspherocytic hemolytic, 1, G6PD deficient			
4061	SLC37A4	AD	619525	Congenital disorder of glycosylation, type IIw			
4061	SLC37A4	AR	232220	Glycogen storage disease Ib			
4061	SLC37A4	AR	232240	Glycogen storage disease Ic			
4170	GATA1		159595	Leukemia, megakaryoblastic, with or without Down syndrome, somatic			
4170	GATA1	XD/XR	300367	Thrombocytopenia, X-linked, with or without dyserythropoietic anemia			
4170	GATA1	XD/XR	300835	Anemia, X-linked, with/without neutropenia and/or platelet abnormalities			
4170	GATA1	XD/XR	301083	Anemia, congenital, nonspherocytic hemolytic, 9			
4170	GATA1	XD/XR	314050	Thrombocytopenia with beta-thalassemia, X-linked			
4171	GATA2		614286	Myelodysplastic syndrome, somatic; {Myelodysplastic syndrome, susceptibility to}			
4171	GATA2	AD	601626	?Leukemia, acute myeloid; Acute myeloid leukemia, somatic; Leukemia, acute myeloid; Leukemia, acute myeloid, reduced survival in, somatic; Leukemia, acute myeloid, somatic; {Leukemia, acute myeloid, susceptibility to}; {Leukemia, acute myeloid}			
4171	GATA2	AD	614038	Emberger syndrome			
4171	GATA2	AD	614172	Immunodeficiency 21			
4237	GFI1	AD	607847	?Neutropenia, nonimmune chronic idiopathic, of adults			
4237	GFI1	AD	613107	Neutropenia, severe congenital 2, autosomal dominant			
43	TAP1	AR	604571	MHC class I deficiency 1			
44	TAP2	AR	620813	MHC class I deficiency 2			
4620	GSN	AD	105120	Amyloidosis, Finnish type			
4688	GUCY2C	AD	614616	Diarrhea 6			
4688	GUCY2C	AR	614665	Meconium ileus			
4861	HELLS	AR	616911	Immunodeficiency-centromeric instability-facial anomalies syndrome 4			
4862	NCKAP1L	AR	618982	Immunodeficiency 72 with autoinflammation			
4883	CFH	AD	126700	Basal laminar drusen			
4883	CFH	AD	610698	{Macular degeneration, age-related, 4}			
4883	CFH	AD/AR	235400	{Hemolytic uremic syndrome, atypical, susceptibility to, 1}; {Hemolytic uremic syndrome, atypical, susceptibility to}			
4883	CFH	AD/AR	609814	Complement factor H deficiency			
4927	SLC39A7	AR	619693	Agammaglobulinemia 9, autosomal recessive			
5013	HMOX1		606963	{Pulmonary disease, chronic obstructive, susceptibility to}			
5013	HMOX1	AR	614034	Heme oxygenase-1 deficiency			
5163	HPS1	AR	203300	Hermansky-Pudlak syndrome 1			
5331	NOD2		266600	{Crohn disease-associated growth failure}; {Inflammatory bowel disease 1, Crohn disease}			
5331	NOD2		617321	{Yao syndrome}			
5331	NOD2	AD	186580	Blau syndrome			
5351	ICOS	AR	607594	Immunodeficiency, common variable, 1			
5358	IRF8	AD	614893	Immunodeficiency 32A, mycobacteriosis, autosomal dominant			
5358	IRF8	AR	226990	Immunodeficiency 32B, monocyte and dendritic cell deficiency, autosomal recessive			
5394	CFI	AD	612923	{Hemolytic uremic syndrome, atypical, susceptibility to, 3}			
5394	CFI	AD	615439	{Macular degeneration, age-related, 13, susceptibility to}			
5394	CFI	AR	610984	Complement factor I deficiency			
5401	SP110		607948	{Mycobacterium tuberculosis, protection against}; {Mycobacterium tuberculosis, susceptibility to infection by}; {Mycobacterium tuberculosis, susceptibility to}; {Tuberculosis infection, protection against}; {Tuberculosis, protection against}; {Tuberculosis, susceptibility to}			
5401	SP110	AR	235550	Hepatic venoocclusive disease with immunodeficiency			
5433	IFNAR2		610424	{Hepatitis B virus infection, susceptibility to}; {Hepatitis B virus, susceptibility to}			
5433	IFNAR2	AR	616669	Immunodeficiency 45			
5439	IFNGR1		600263	{H. pylori infection, susceptibility to}			
5439	IFNGR1		607948	{Mycobacterium tuberculosis, protection against}; {Mycobacterium tuberculosis, susceptibility to infection by}; {Mycobacterium tuberculosis, susceptibility to}; {Tuberculosis infection, protection against}; {Tuberculosis, protection against}; {Tuberculosis, susceptibility to}			
5439	IFNGR1		610424	{Hepatitis B virus infection, susceptibility to}; {Hepatitis B virus, susceptibility to}			
5439	IFNGR1	AD	615978	Immunodeficiency 27B, mycobacteriosis, AD			
5439	IFNGR1	AR	209950	Immunodeficiency 27A, mycobacteriosis, AR			
5440	IFNGR2	AR	614889	Immunodeficiency 28, mycobacteriosis			
566	AP3B1	AR	608233	Hermansky-Pudlak syndrome 2			
5870	IGLL1	AR	613500	Agammaglobulinemia 2			
592	XIAP	XD/XR	300635	Lymphoproliferative syndrome, X-linked, 2			
5960	IKBKB	AD	618204	Immunodeficiency 15A			
5960	IKBKB	AR	615592	Immunodeficiency 15B			
5962	IL10		180300	{Rheumatoid arthritis, progression of}; {Rheumatoid arthritis, susceptibility to}			
5962	IL10		609423	{AIDS, rapid progression to}; {AIDS, resistance to}; {AIDS, slow progression to}; {HIV infection, resistance to}; {HIV infection, susceptibility/resistance to}; {HIV type 1, susceptibility to}; {HIV-1 disease, delayed progression of}; {HIV-1 disease, rapid progression of}; {HIV-1 viremia, susceptibility to}; {HIV-1, resistance to}; {HIV-1, susceptibility to}; {HIV/AIDS, susceptibility to}; {HIV1 infection, resistance to}; {HIV1, resistance to}; {Rapid progression to AIDS from HIV1 infection}			
5962	IL10		614395	{Graft-versus-host disease, protection against}			
5964	IL10RA	AR	613148	Inflammatory bowel disease 28, early onset, autosomal recessive			
5965	IL10RB		610424	{Hepatitis B virus infection, susceptibility to}; {Hepatitis B virus, susceptibility to}			
5965	IL10RB	AR	612567	Inflammatory bowel disease 25, early onset, autosomal recessive			
5970	IL12B	AR	614890	Immunodeficiency 29, mycobacteriosis			
5971	IL12RB1	AR	614891	Immunodeficiency 30			
5985	IL17RA	AR	613953	Immunodeficiency 51			
600	APOA1		620657	Amyloidosis, hereditary systemic 3			
600	APOA1	AD	619836	Hypoalphalipoproteinemia, primary, 2, intermediate			
600	APOA1	AR	618463	Hypoalphalipoproteinemia, primary, 2			
6000	IL1RN		612628	{Microvascular complications of diabetes 4}			
6000	IL1RN		613659	Gastric cancer, somatic; {Gastric cancer risk after H. pylori infection}			
6000	IL1RN	AR	612852	Chronic recurrent multifocal osteomyelitis 2, with periostitis and pustulosis; Interleukin 1 receptor antagonist deficiency			
6006	IL21R	AR	615207	Immunodeficiency 56			
6008	IL2RA		601942	{Diabetes, mellitus, insulin-dependent, susceptibility to, 10}			
6008	IL2RA	AR	606367	Immunodeficiency 41 with lymphoproliferation and autoimmunity			
6009	IL2RB	AR	618495	Immunodeficiency 63 with lymphoproliferation and autoimmunity			
601	APOA2	AD/AR	143890	Hypercholesterolemia, familial, 1; LDL cholesterol level QTL2; {Hypercholesterolemia, familial, due to LDLR defect, modifier of}; {Hypercholesterolemia, familial, modifier of}; {Hypercholesterolemia, susceptibility to}			
6010	IL2RG	XD/XR	300400	Severe combined immunodeficiency, X-linked			
6010	IL2RG	XD/XR	312863	Combined immunodeficiency, X-linked, moderate			
6019	IL6R		614689	[Interleukin-6 receptor, soluble, serum level of, QTL]			
6019	IL6R		614752	[Interleukin 6, serum level of, QTL]			
6019	IL6R	AR	618944	Hyper-IgE syndrome 5, autosomal recessive, with recurrent infections			
6021	IL6ST	AD	619750	?Immunodeficiency 94 with autoinflammation and dysmorphic facies			
6021	IL6ST	AD	619752	Hyper-IgE syndrome 4A, autosomal dominant, with recurrent infections			
6021	IL6ST	AR	618523	Hyper-IgE syndrome 4B, autosomal recessive, with recurrent infections			
6021	IL6ST	AR	619751	Stuve-Wiedemann syndrome 2			
6024	IL7R	AR	608971	Immunodeficiency 104, severe combined			
6027	CXCR2	AR	619407	?WHIM syndrome 2			
609	APOC2	AR	207750	Hyperlipoproteinemia, type Ib			
6106	FOXP3	XD/XR	304790	Immunodysregulation, polyendocrinopathy, and enteropathy, X-linked			
6119	IRF4		611724	[Skin/hair/eye pigmentation, variation in, 8]			
6122	IRF7	AR	616345	?Immunodeficiency 39			
6155	ITGB2	AR	116920	Leukocyte adhesion deficiency			
6171	ITK	AR	613011	Lymphoproliferative syndrome 1			
6190	JAK1	AD	618999	Autoinflammation, immune dysregulation, and eosinophilia			
6193	JAK3	AR	600802	Severe combined immunodeficiency, autosomal recessive, T-negative/B-positive type			
6502	RPSA	AD	271400	Asplenia, isolated congenital			
6524	LCK	AR	615758	Immunodeficiency 22			
6529	LCP2	AR	619374	Immunodeficiency 81			
6598	LIG1	AR	619774	Immunodeficiency 96			
6601	LIG4		254500	{Multiple myeloma, resistance to}; {Multiple myeloma, susceptibility to}			
6601	LIG4	AR	606593	LIG4 syndrome			
6735	LYN	AD	620376	Autoinflammatory disease, systemic, with vasculitis			
6740	LYZ		620658	Amyloidosis, hereditary systemic 5			
6819	MALT1	AR	615468	Immunodeficiency 12			
6853	MAP3K14	AR	620449	Immunodeficiency 112			
6947	MCM4	AR	609981	Immunodeficiency 54			
6953	CD46	AD/AR	612922	{Hemolytic uremic syndrome, atypical, susceptibility to, 2}			
6998	MEFV	AD	134610	Familial Mediterranean fever, AD			
6998	MEFV	AD	608068	Neutrophilic dermatosis, acute febrile			
6998	MEFV	AR	249100	Familial Mediterranean fever, AR			
704	ARPC1B	AR	617718	Immunodeficiency 71 with inflammatory disease and congenital thrombocytopenia			
7067	CIITA		180300	{Rheumatoid arthritis, progression of}; {Rheumatoid arthritis, susceptibility to}			
7067	CIITA	AR	209920	MHC class II deficiency 1			
708	ARPC5	AR	620565	Immunodeficiency 133 with autoimmunity and autoinflammation			
7132	KMT2A	AD	605130	Wiedemann-Steiner syndrome			
7133	KMT2D	AD	147920	Kabuki syndrome 1			
7133	KMT2D	AD	620186	Branchial arch abnormalities, choanal atresia, athelia, hearing loss, and hypothyroidism syndrome			
7373	MSN	XD/XR	300988	Immunodeficiency 50			
7432	MTHFD1	AR	601634	{Neural tube defects, folate-sensitive, susceptibility to}; {Neural tube defects, susceptibility to}			
7432	MTHFD1	AR	617780	Combined immunodeficiency and megaloblastic anemia with or without hyperhomocysteinemia			
7530	MVK	AD	175900	Porokeratosis 3, multiple types			
7530	MVK	AR	260920	Hyper-IgD syndrome			
7530	MVK	AR	610377	Mevalonic aciduria			
7562	MYD88		153600	Macroglobulinemia, Waldenstrom, somatic			
7562	MYD88	AR	612260	Immunodeficiency 68			
7603	MYO5B	AR	251850	Diarrhea 2, with microvillus atrophy, with or without cholestasis			
7603	MYO5B	AR	619868	Cholestasis, progressive familial intrahepatic, 10			
7652	NBN		609135	Aplastic anemia; {Aplastic anemia, susceptibility to}; {Aplastic anemia}			
7652	NBN		613065	Leukemia, T-cell acute lymphoblastic, somatic; Leukemia, T-cell acute lymphocytic, somatic; Leukemia, acute lymphoblastic; Leukemia, acute lymphoblastic, somatic; Leukemia, acute lymphocytic, Philadelphia chromosome positive, somatic; T-cell acute lymphoblastic leukemia, somatic			
7652	NBN	AR	251260	Nijmegen breakage syndrome			
7661	NCF2	AR	233710	Chronic granulomatous disease 2, autosomal recessive			
7662	NCF4	AR	613960	Chronic granulomatous disease 3, autosomal recessive			
7677	NSMCE3	AR	617241	Lung disease, immunodeficiency, and chromosome breakage syndrome			
7782	NFE2L2	AD	617744	Immunodeficiency, developmental delay, and hypohomocysteinemia			
7794	NFKB1	AD	616576	Immunodeficiency, common variable, 12			
7795	NFKB2	AD	615577	Immunodeficiency, common variable, 10			
7797	NFKBIA	AD	612132	Ectodermal dysplasia and immunodeficiency 2			
7892	PNP	AR	613179	Immunodeficiency due to purine nucleoside phosphorylase deficiency			
7897	NPC1	AR	257220	Niemann-Pick disease, type C1; Niemann-Pick disease, type D			
795	ATM	AD	114480	Breast cancer, lobular, somatic; Breast cancer, somatic; {?Breast cancer susceptibility}; {Breast cancer, early-onset, susceptibility to}; {Breast cancer, invasive ductal}; {Breast cancer, male, susceptibility to}; {Breast cancer, protection against}; {Breast cancer, susceptibility to}			
795	ATM	AR	208900	Ataxia-telangiectasia			
8086	OAS1	AD	618042	Immunodeficiency 100 with pulmonary alveolar proteinosis and hypogammaglobulinemia			
8507	OSMR	AD	105250	Amyloidosis, primary localized cutaneous, 1			
8549	BLOC1S6	AR	614171	Hermansky-Pudlak syndrome 9			
8609	PARN	AD	616371	Pulmonary fibrosis and/or bone marrow failure syndrome, telomere-related, 4			
8609	PARN	AR	616353	Dyskeratosis congenita, autosomal recessive 6			
8615	PAX1	AR	615560	Otofaciocervical syndrome 2 with T-cell deficiency			
868	ATP6AP1	XD/XR	300972	Immunodeficiency 47			
8840	PEPD	AR	170100	Prolidase deficiency			
8864	CFP	XD/XR	312060	Properdin deficiency, X-linked			
8907	PGM3	AR	615816	Immunodeficiency 23			
8977	PIK3CD	AD	615513	Immunodeficiency 14A, autosomal dominant			
8977	PIK3CD	AR	613328	?Roifman-Chitayat syndrome, digenic			
8977	PIK3CD	AR	619281	Immunodeficiency 14B, autosomal recessive			
8978	PIK3CG	AR	619802	Immunodeficiency 97 with autoinflammation			
8979	PIK3R1	AD	269880	SHORT syndrome			
8979	PIK3R1	AD	616005	Immunodeficiency 36			
8979	PIK3R1	AR	615214	?Agammaglobulinemia 7, autosomal recessive			
8983	PI4KA	AR	616531	Polymicrogyria, perisylvian, with cerebellar hypoplasia and arthrogryposis			
8983	PI4KA	AR	619621	Spastic paraplegia 84, autosomal recessive			
8983	PI4KA	AR	619708	Gastrointestinal defects and immunodeficiency syndrome 2			
9066	PLCG2	AD	614468	Familial cold autoinflammatory syndrome 3			
9066	PLCG2	AD	614878	Autoinflammation, antibody deficiency, and immune dysregulation syndrome			
9071	PLG	AD	619360	Angioedema, hereditary, 4			
9071	PLG	AR	217090	Dysplasminogenemia; Plasminogen deficiency, type I			
914	B2M		620659	Amyloidosis, hereditary systemic 6			
914	B2M	AR	241600	Immunodeficiency 43			
9173	POLA1	XD/XR	301030	Van Esch-O'Driscoll syndrome			
9173	POLA1	XD/XR	301220	Pigmentary disorder, reticulate, with systemic manifestations, X-linked			
9175	POLD1	AD	612591	{Colorectal cancer, susceptibility to, 10}			
9175	POLD1	AD	615381	Mandibular hypoplasia, deafness, progeroid features, and lipodystrophy syndrome			
9175	POLD1	AR	620836	Immunodeficiency 120			
9177	POLE	AD	615083	{Colorectal cancer, susceptibility to, 12}			
9177	POLE	AR	615139	FILS syndrome			
9177	POLE	AR	618336	IMAGE-I syndrome			
9360	PRF1		605027	Lymphoma, non-Hodgkin; Lymphoma, non-Hodgkin, somatic; {Lymphoma, follicular, somatic}			
9360	PRF1		609135	Aplastic anemia; {Aplastic anemia, susceptibility to}; {Aplastic anemia}			
9360	PRF1	AR	603553	Hemophagocytic lymphohistiocytosis, familial, 2			
9369	PRIM1	AR	620005	Primordial dwarfism-immunodeficiency-lipodystrophy syndrome			
9399	PRKCD	AR	615559	Autoimmune lymphoproliferative syndrome, type III			
9413	PRKDC	AR	615966	Immunodeficiency 26, with or without neurologic abnormalities			
9538	PSMB10	AD	620807	Immunodeficiency 121 with autoinflammation			
9538	PSMB10	AR	619175	Proteasome-associated autoinflammatory syndrome 5			
9541	PSMB4	AR	617591	?Proteasome-associated autoinflammatory syndrome 3 and digenic forms			
9545	PSMB8	AR	256040	Proteasome-associated autoinflammatory syndrome 1 and digenic forms			
9546	PSMB9	AD	620796	Proteasome-associated autoinflammatory syndrome 6			
9580	PSTPIP1	AD	601979	Autoinflammatory syndrome with cytopenia, hyperzincemia, and hypercalprotectinemia			
9580	PSTPIP1	AD	604416	Pyogenic sterile arthritis, pyoderma gangrenosum, and acne			
9666	PTPRC	AR	619924	Immunodeficiency 105, severe combined			
9766	RAB27A	AR	607624	Griscelli syndrome, type 2			
9802	RAC2	AD	608203	Immunodeficiency 73A with defective neutrophil chemotaxix and leukocytosis			
9802	RAC2	AD	618986	Immunodeficiency 73B with defective neutrophil chemotaxis and lymphopenia			
9802	RAC2	AR	618987	?Immunodeficiency 73C with defective neutrophil chemotaxis and hypogammaglobulinemia			
9831	RAG1		609889	Alpha/beta T-cell lymphopenia with gamma/delta T-cell expansion, severe cytomegalovirus infection, and autoimmunity			
9831	RAG1	AR	233650	Combined cellular and humoral immune defects with granulomas			
9831	RAG1	AR	601457	Severe combined immunodeficiency, B cell-negative			
9831	RAG1	AR	603554	Omenn syndrome			
9832	RAG2	AR	233650	Combined cellular and humoral immune defects with granulomas			
9832	RAG2	AR	601457	Severe combined immunodeficiency, B cell-negative			
9832	RAG2	AR	603554	Omenn syndrome			
9848	RANBP2	AD	608033	{Encephalopathy, acute, infection-induced, 3, susceptibility to}			
9878	RASGRP1	AR	618534	Immunodeficiency 64			
989	BCL10		137245	Lymphoma, MALT, somatic			
989	BCL10		156240	Mesothelioma, somatic; {Mesothelioma, somatic}			
989	BCL10		273300	Germ cell tumors, somatic; Spermatocytic seminoma, somatic; Testicular tumor, somatic; {Male germ cell tumor, somatic}			
989	BCL10		605027	Lymphoma, non-Hodgkin; Lymphoma, non-Hodgkin, somatic; {Lymphoma, follicular, somatic}			
989	BCL10	AR	616098	?Immunodeficiency 37			
9949	RECQL4	AR	218600	Baller-Gerold syndrome			
9949	RECQL4	AR	266280	RAPADILINO syndrome			
9949	RECQL4	AR	268400	Rothmund-Thomson syndrome, type 2			
9954	REL	AR	619652	Immunodeficiency 92			
9955	RELA	AD	618287	Autoinflammatory disease, familial, Behcet-like-3			
9986	RFX5	AR	620816	MHC class II deficiency 3			
9986	RFX5	AR	620818	?MHC class II deficiency 5			
9987	RFXANK	AR	620815	MHC class II deficiency 2			
9988	RFXAP	AR	620817	MHC class II deficiency 4			
